<?xml version="1.0"?>
<VTKFile type="PolyData" version="0.1" byte_order="LittleEndian">
  <PolyData>
    <Piece NumberOfPoints="     19" NumberOfVerts="  0" NumberOfLines="     18"
           NumberOfStrips="  0" NumberOfPolys="      0">
      <Points>
        <DataArray type="Float32" NumberOfComponents="3" format="ascii">
                      -5.04158                      -1.47391                      90.27545
                      -5.08044                      -2.81749                      90.52282
                      -5.18671                      -5.52095                      90.92517
                      -5.30451                      -8.23240                      91.28236
                      -5.45525                     -11.62692                      91.69970
                      -5.56192                     -15.67785                      92.33117
                      -5.62068                     -19.70797                      93.08200
                      -5.66547                     -23.73904                      93.82915
                      -5.69063                     -27.77077                      94.57427
                      -5.69404                     -31.80333                      95.31577
                      -5.67440                     -35.83712                      96.05045
                      -5.62822                     -39.87165                      96.78008
                      -5.55401                     -43.90665                      97.50505
                      -5.45090                     -47.94182                      98.22572
                      -5.31635                     -51.97686                      98.94200
                      -5.17960                     -55.33908                      99.53551
                      -5.05471                     -58.02711                     100.01593
                      -4.91266                     -60.70543                     100.54838
                      -4.84151                     -62.05143                     100.77295
        </DataArray>
      </Points>
      <PointData>
        <DataArray type="Float32" Name="TranslationalVelocity" NumberOfComponents="3" format="ascii">
                      -0.06726                      -0.14178                      -0.76880
                      -0.12858                      -0.26906                      -1.46968
                      -0.25201                      -0.47416                      -2.88031
                      -0.37589                      -0.65523                      -4.29567
                      -0.53113                      -0.86624                      -6.06857
                      -0.71668                      -1.19124                      -8.18586
                      -0.90164                      -1.58111                     -10.29412
                      -1.08704                      -1.97006                     -12.40479
                      -1.27285                      -2.35923                     -14.51769
                      -1.45906                      -2.74786                     -16.63283
                      -1.64564                      -3.13433                     -18.75030
                      -1.83250                      -3.51967                     -20.86967
                      -2.01952                      -3.90414                     -22.99062
                      -2.20656                      -4.28790                     -25.11280
                      -2.39347                      -4.67099                     -27.23584
                      -2.54897                      -4.98970                     -29.00548
                      -2.67306                      -5.24838                     -30.42058
                      -2.79642                      -5.53528                     -31.83079
                      -2.85830                      -5.65682                     -32.53958
        </DataArray>
        <DataArray type="Float32" Name="RotationalVelocity" NumberOfComponents="3" format="ascii">
                       0.52161                      -0.00000                      -0.04563
                       0.52167                      -0.00000                      -0.04564
                       0.52183                      -0.00001                      -0.04566
                       0.52205                      -0.00001                      -0.04570
                       0.52238                      -0.00000                      -0.04575
                       0.52282                       0.00003                      -0.04583
                       0.52327                       0.00007                      -0.04593
                       0.52372                       0.00014                      -0.04604
                       0.52416                       0.00023                      -0.04614
                       0.52457                       0.00032                      -0.04624
                       0.52494                       0.00041                      -0.04633
                       0.52527                       0.00049                      -0.04639
                       0.52557                       0.00054                      -0.04642
                       0.52583                       0.00054                      -0.04642
                       0.52605                       0.00050                      -0.04637
                       0.52619                       0.00042                      -0.04629
                       0.52628                       0.00032                      -0.04619
                       0.52634                       0.00020                      -0.04607
                       0.52635                       0.00012                      -0.04600
        </DataArray>
        <DataArray type="Float32" Name="TranslationalAcceleration" NumberOfComponents="3" format="ascii">
                      -0.00647                       0.40408                      -0.07395
                      -0.00772                       0.48891                      -0.08822
                      -0.01970                       1.40407                      -0.22524
                      -0.02920                       2.24880                      -0.33429
                      -0.03887                       3.23807                      -0.44649
                      -0.05203                       4.35925                      -0.60179
                      -0.06671                       5.44894                      -0.77944
                      -0.08004                       6.53877                      -0.94954
                      -0.09210                       7.64221                      -1.11535
                      -0.10274                       8.76349                      -1.27765
                      -0.11176                       9.90013                      -1.43568
                      -0.11914                      11.04539                      -1.58952
                      -0.12491                      12.19124                      -1.73858
                      -0.12933                      13.33096                      -1.88251
                      -0.13288                      14.46187                      -2.02156
                      -0.13575                      15.40017                      -2.13456
                      -0.13871                      16.15234                      -2.22631
                      -0.14410                      16.91113                      -2.33379
                      -0.14609                      17.29760                      -2.37668
        </DataArray>
        <DataArray type="Float32" Name="OrientationX" NumberOfComponents="3" format="ascii">
                       0.99593                      -0.04290                      -0.07922
                       0.99594                      -0.04265                      -0.07928
                       0.99596                      -0.04185                      -0.07946
                       0.99598                      -0.04068                      -0.07975
                       0.99602                      -0.03878                      -0.08025
                       0.99606                      -0.03590                      -0.08106
                       0.99609                      -0.03240                      -0.08213
                       0.99611                      -0.02826                      -0.08346
                       0.99610                      -0.02345                      -0.08505
                       0.99605                      -0.01793                      -0.08691
                       0.99596                      -0.01171                      -0.08901
                       0.99581                      -0.00483                      -0.09130
                       0.99560                       0.00258                      -0.09371
                       0.99531                       0.01029                      -0.09614
                       0.99498                       0.01796                      -0.09844
                       0.99468                       0.02398                      -0.10014
                       0.99446                       0.02827                      -0.10126
                       0.99427                       0.03185                      -0.10207
                       0.99419                       0.03329                      -0.10234
        </DataArray>
        <DataArray type="Float32" Name="OrientationY" NumberOfComponents="3" format="ascii">
                       0.08572                       0.18069                       0.97980
                       0.08572                       0.18048                       0.97984
                       0.08574                       0.17994                       0.97993
                       0.08579                       0.17925                       0.98005
                       0.08591                       0.17828                       0.98022
                       0.08617                       0.17703                       0.98043
                       0.08657                       0.17578                       0.98062
                       0.08713                       0.17460                       0.98078
                       0.08784                       0.17354                       0.98090
                       0.08870                       0.17261                       0.98099
                       0.08969                       0.17182                       0.98104
                       0.09077                       0.17117                       0.98105
                       0.09190                       0.17062                       0.98104
                       0.09300                       0.17018                       0.98101
                       0.09399                       0.16983                       0.98098
                       0.09467                       0.16960                       0.98095
                       0.09507                       0.16946                       0.98094
                       0.09528                       0.16937                       0.98094
                       0.09531                       0.16934                       0.98094
        </DataArray>
        <DataArray type="Float32" Name="OrientationZ" NumberOfComponents="3" format="ascii">
                      -0.02772                      -0.98260                       0.18363
                      -0.02748                      -0.98265                       0.18341
                      -0.02671                      -0.98279                       0.18280
                      -0.02557                      -0.98296                       0.18202
                      -0.02370                      -0.98322                       0.18090
                      -0.02085                      -0.98355                       0.17942
                      -0.01733                      -0.98390                       0.17790
                      -0.01315                      -0.98423                       0.17639
                      -0.00824                      -0.98455                       0.17493
                      -0.00259                      -0.98483                       0.17352
                       0.00381                      -0.98506                       0.17218
                       0.01089                      -0.98523                       0.17089
                       0.01852                      -0.98533                       0.16964
                       0.02646                      -0.98536                       0.16843
                       0.03434                      -0.98531                       0.16729
                       0.04051                      -0.98522                       0.16643
                       0.04489                      -0.98513                       0.16584
                       0.04853                      -0.98504                       0.16536
                       0.04999                      -0.98500                       0.16518
        </DataArray>
        <DataArray type="Float32" Name="Force" NumberOfComponents="3" format="ascii">
                      26.98292                       1.44480                      11.80415
                     441.22261                      -5.90271                      34.40734
                     490.61055                       0.10941                      71.80169
                     381.04599                       5.33584                      81.43397
                    2698.98569                    -155.73631                    -489.06366
                    2672.80678                    -138.91022                    -446.08937
                    2858.40442                    -139.04612                    -483.42086
                    2572.73472                    -109.62646                    -412.86655
                    2338.43433                     -80.37524                    -336.28778
                    2384.98471                     -68.86257                    -348.21503
                    2219.52908                     -40.75487                    -277.58349
                    2228.69143                     -25.55536                    -284.14451
                    1902.78173                      -2.58519                    -219.57221
                    1876.96600                      11.60575                    -223.36473
                    1877.28347                      21.58178                    -252.61309
                    1885.61552                      26.67257                    -292.67340
                    1862.47335                      27.11878                    -331.75318
                    1397.86490                      19.50736                    -283.02319
                    1246.15969                      15.73837                    -271.96083
        </DataArray>
        <DataArray type="Float32" Name="Moment" NumberOfComponents="3" format="ascii">
                       0.00000                       0.00000                       0.00000
                       0.00000                       0.00000                       0.00000
                       0.00000                       0.00000                       0.00000
                       0.00000                       0.00000                       0.00000
                      48.71800                    2037.89654                    -380.08407
                      44.86106                    2147.72689                    -400.00116
                      35.32538                    2053.66498                    -381.82033
                      25.65494                    1998.68416                    -370.83490
                      14.44390                    1862.98424                    -344.82875
                       3.31087                    1721.32771                    -317.73093
                      -6.61439                    1422.12681                    -261.68500
                     -15.42450                    1294.80925                    -237.43475
                     -22.73624                    1152.77476                    -210.60155
                     -28.47290                    1022.75064                    -186.12106
                     -32.00756                     891.83816                    -161.66939
                     -33.04105                     783.03279                    -141.51347
                     -30.63136                     656.16584                    -118.32793
                     -15.74617                     312.41905                     -56.23762
                      -9.24719                     178.22215                     -32.05808
        </DataArray>
      </PointData>
      <Lines>
        <DataArray type="Int32" Name="connectivity" format="ascii">
      0      1
      1      2
      2      3
      3      4
      4      5
      5      6
      6      7
      7      8
      8      9
      9     10
     10     11
     11     12
     12     13
     13     14
     14     15
     15     16
     16     17
     17     18
        </DataArray>
        <DataArray type="Int32" Name="offsets" format="ascii">
      2
      4
      6
      8
     10
     12
     14
     16
     18
     20
     22
     24
     26
     28
     30
     32
     34
     36
        </DataArray>
      </Lines>
    </Piece>
  </PolyData>
</VTKFile>
