<?xml version="1.0"?>
<VTKFile type="PolyData" version="0.1" byte_order="LittleEndian">
  <PolyData>
    <Piece NumberOfPoints="     19" NumberOfVerts="  0" NumberOfLines="     18"
           NumberOfStrips="  0" NumberOfPolys="      0">
      <Points>
        <DataArray type="Float32" NumberOfComponents="3" format="ascii">
                      -5.05374                      -1.49281                      90.13647
                      -5.10368                      -2.85328                      90.25715
                      -5.23222                      -5.58156                      90.40495
                      -5.37236                      -8.31348                      90.50695
                      -5.55107                     -11.73080                      90.60481
                      -5.69123                     -15.82202                      90.85415
                      -5.78341                     -19.90413                      91.22395
                      -5.86168                     -23.98698                      91.58969
                      -5.92039                     -28.07048                      91.95304
                      -5.95741                     -32.15468                      92.31240
                      -5.97143                     -36.23968                      92.66456
                      -5.95895                     -40.32520                      93.01137
                      -5.91844                     -44.41099                      93.35327
                      -5.84903                     -48.49680                      93.69066
                      -5.74816                     -52.58236                      94.02353
                      -5.63941                     -55.98657                      94.29747
                      -5.53689                     -58.70885                      94.52231
                      -5.41710                     -61.42652                      94.79983
                      -5.35710                     -62.78824                      94.89647
        </DataArray>
      </Points>
      <PointData>
        <DataArray type="Float32" Name="TranslationalVelocity" NumberOfComponents="3" format="ascii">
                      -0.06812                      -0.06873                      -0.77866
                      -0.13021                      -0.12940                      -1.48829
                      -0.25471                      -0.20066                      -2.91135
                      -0.37939                      -0.24750                      -4.33627
                      -0.53537                      -0.29043                      -6.11858
                      -0.72214                      -0.41414                      -8.25221
                      -0.90854                      -0.60285                     -10.38086
                      -1.09503                      -0.79006                     -12.50966
                      -1.28161                      -0.97690                     -14.63854
                      -1.46830                      -1.16262                     -16.76752
                      -1.65509                      -1.34562                     -18.89665
                      -1.84199                      -1.52701                     -21.02579
                      -2.02900                      -1.70711                     -23.15484
                      -2.21609                      -1.88616                     -25.28370
                      -2.40327                      -2.06426                     -27.41225
                      -2.55931                      -2.21201                     -29.18572
                      -2.68415                      -2.33386                     -30.60388
                      -2.80890                      -2.48394                     -32.01961
                      -2.87137                      -2.53704                     -32.72898
        </DataArray>
        <DataArray type="Float32" Name="RotationalVelocity" NumberOfComponents="3" format="ascii">
                       0.52161                       0.00000                      -0.04563
                       0.52160                      -0.00000                      -0.04563
                       0.52159                      -0.00000                      -0.04564
                       0.52157                      -0.00001                      -0.04564
                       0.52154                      -0.00002                      -0.04565
                       0.52149                      -0.00004                      -0.04566
                       0.52144                      -0.00007                      -0.04567
                       0.52138                      -0.00011                      -0.04568
                       0.52132                      -0.00017                      -0.04569
                       0.52126                      -0.00026                      -0.04570
                       0.52120                      -0.00036                      -0.04572
                       0.52115                      -0.00048                      -0.04573
                       0.52110                      -0.00061                      -0.04574
                       0.52106                      -0.00076                      -0.04575
                       0.52103                      -0.00091                      -0.04577
                       0.52102                      -0.00102                      -0.04578
                       0.52101                      -0.00110                      -0.04578
                       0.52101                      -0.00117                      -0.04579
                       0.52101                      -0.00119                      -0.04580
        </DataArray>
        <DataArray type="Float32" Name="TranslationalAcceleration" NumberOfComponents="3" format="ascii">
                      -0.00314                       0.40926                      -0.03585
                      -0.00363                       0.49501                      -0.04184
                      -0.00791                       1.41859                      -0.09021
                      -0.01011                       2.26867                      -0.11428
                      -0.01079                       3.26123                      -0.12128
                      -0.01303                       4.38723                      -0.14749
                      -0.01666                       5.48322                      -0.18793
                      -0.01915                       6.57737                      -0.20910
                      -0.02128                       7.68348                      -0.21273
                      -0.02386                       8.80587                      -0.19932
                      -0.02776                       9.94202                      -0.16880
                      -0.03408                      11.08533                      -0.12260
                      -0.04393                      12.22780                      -0.06191
                      -0.05846                      13.36280                       0.01182
                      -0.07884                      14.48770                       0.09676
                      -0.10124                      15.42007                       0.17457
                      -0.12330                      16.16742                       0.23782
                      -0.15117                      16.92406                       0.28776
                      -0.16509                      17.30706                       0.32444
        </DataArray>
        <DataArray type="Float32" Name="OrientationX" NumberOfComponents="3" format="ascii">
                       0.99558                      -0.04345                      -0.08327
                       0.99559                      -0.04320                      -0.08330
                       0.99561                      -0.04238                      -0.08341
                       0.99565                      -0.04119                      -0.08358
                       0.99570                      -0.03926                      -0.08391
                       0.99576                      -0.03633                      -0.08446
                       0.99583                      -0.03275                      -0.08520
                       0.99587                      -0.02851                      -0.08615
                       0.99590                      -0.02358                      -0.08730
                       0.99590                      -0.01792                      -0.08865
                       0.99586                      -0.01153                      -0.09017
                       0.99577                      -0.00447                      -0.09181
                       0.99561                       0.00314                      -0.09352
                       0.99540                       0.01106                      -0.09521
                       0.99513                       0.01892                      -0.09677
                       0.99488                       0.02509                      -0.09788
                       0.99469                       0.02949                      -0.09857
                       0.99453                       0.03315                      -0.09901
                       0.99447                       0.03461                      -0.09913
        </DataArray>
        <DataArray type="Float32" Name="OrientationY" NumberOfComponents="3" format="ascii">
                       0.08682                       0.08759                       0.99237
                       0.08682                       0.08737                       0.99239
                       0.08684                       0.08679                       0.99243
                       0.08688                       0.08606                       0.99249
                       0.08700                       0.08502                       0.99257
                       0.08725                       0.08369                       0.99267
                       0.08765                       0.08235                       0.99274
                       0.08821                       0.08109                       0.99280
                       0.08893                       0.07994                       0.99282
                       0.08980                       0.07894                       0.99283
                       0.09079                       0.07808                       0.99280
                       0.09188                       0.07736                       0.99276
                       0.09301                       0.07676                       0.99270
                       0.09410                       0.07627                       0.99264
                       0.09508                       0.07589                       0.99257
                       0.09574                       0.07563                       0.99253
                       0.09611                       0.07548                       0.99250
                       0.09630                       0.07537                       0.99249
                       0.09631                       0.07534                       0.99250
        </DataArray>
        <DataArray type="Float32" Name="OrientationZ" NumberOfComponents="3" format="ascii">
                      -0.03583                      -0.99521                       0.09098
                      -0.03559                      -0.99524                       0.09074
                      -0.03482                      -0.99532                       0.09009
                      -0.03369                      -0.99544                       0.08927
                      -0.03183                      -0.99561                       0.08807
                      -0.02899                      -0.99583                       0.08650
                      -0.02549                      -0.99607                       0.08488
                      -0.02132                      -0.99630                       0.08327
                      -0.01643                      -0.99652                       0.08171
                      -0.01080                      -0.99672                       0.08022
                      -0.00441                      -0.99688                       0.07880
                       0.00267                      -0.99699                       0.07744
                       0.01030                      -0.99704                       0.07613
                       0.01824                      -0.99703                       0.07488
                       0.02612                      -0.99694                       0.07372
                       0.03231                      -0.99682                       0.07284
                       0.03671                      -0.99671                       0.07224
                       0.04036                      -0.99660                       0.07177
                       0.04182                      -0.99656                       0.07159
        </DataArray>
        <DataArray type="Float32" Name="Force" NumberOfComponents="3" format="ascii">
                      28.15652                       0.10041                      12.18658
                     440.44568                     -12.63506                      33.99958
                     489.30197                     -10.53310                      71.75064
                     379.69692                      -5.35077                      81.68240
                    2689.18723                    -130.99922                    -500.85126
                    2658.95446                    -117.93207                    -456.02181
                    2840.21594                    -115.99365                    -492.56860
                    2552.64878                     -90.99189                    -419.28761
                    2316.90724                     -67.19279                    -340.20268
                    2361.20795                     -55.10110                    -350.90989
                    2194.33345                     -32.51670                    -277.90954
                    2203.47508                     -17.06253                    -283.40407
                    1878.94612                       2.26586                    -216.94512
                    1852.79620                      16.72295                    -219.95879
                    1861.32584                      28.84298                    -255.04686
                    1876.80687                      37.55071                    -296.83004
                    1854.15542                      41.68889                    -337.50703
                    1392.99273                      33.67190                    -287.42488
                    1240.99511                      30.68338                    -269.99516
        </DataArray>
        <DataArray type="Float32" Name="Moment" NumberOfComponents="3" format="ascii">
                       0.00000                       0.00000                       0.00000
                       0.00000                       0.00000                       0.00000
                       0.00000                       0.00000                       0.00000
                       0.00000                       0.00000                       0.00000
                      65.21853                    2053.67662                    -186.97206
                      62.21496                    2161.50021                    -196.22624
                      51.91742                    2064.24779                    -186.74142
                      41.83353                    2006.54444                    -180.76605
                      29.58452                    1868.02142                    -167.46777
                      17.39172                    1724.09050                    -153.69709
                       5.12213                    1422.79610                    -126.03012
                      -4.62164                    1295.06712                    -113.90375
                     -12.99491                    1151.72206                    -100.51895
                     -19.70820                    1020.95073                     -88.38918
                     -24.24916                     889.43891                     -76.38411
                     -26.14320                     780.30616                     -66.58588
                     -24.79707                     653.47905                     -55.50936
                     -12.93918                     310.79219                     -26.29980
                      -7.71345                     178.93568                     -15.11878
        </DataArray>
      </PointData>
      <Lines>
        <DataArray type="Int32" Name="connectivity" format="ascii">
      0      1
      1      2
      2      3
      3      4
      4      5
      5      6
      6      7
      7      8
      8      9
      9     10
     10     11
     11     12
     12     13
     13     14
     14     15
     15     16
     16     17
     17     18
        </DataArray>
        <DataArray type="Int32" Name="offsets" format="ascii">
      2
      4
      6
      8
     10
     12
     14
     16
     18
     20
     22
     24
     26
     28
     30
     32
     34
     36
        </DataArray>
      </Lines>
    </Piece>
  </PolyData>
</VTKFile>
