<?xml version="1.0"?>
<VTKFile type="PolyData" version="0.1" byte_order="LittleEndian">
  <PolyData>
    <Piece NumberOfPoints="     19" NumberOfVerts="  0" NumberOfLines="     18"
           NumberOfStrips="  0" NumberOfPolys="      0">
      <Points>
        <DataArray type="Float32" NumberOfComponents="3" format="ascii">
                      -5.08531                       1.48067                      89.77564
                      -5.16343                       2.83024                      89.57441
                      -5.33216                       5.54289                      89.26596
                      -5.50508                       8.26212                      89.00069
                      -5.72069                      11.66539                      88.69281
                      -5.93091                      15.72926                      88.17257
                      -6.11706                      19.77338                      87.51640
                      -6.29159                      23.81662                      86.85197
                      -6.44961                      27.85881                      86.17742
                      -6.58915                      31.90026                      85.49498
                      -6.70875                      35.94157                      84.80875
                      -6.80565                      39.98256                      84.11763
                      -6.87875                      44.02322                      83.42219
                      -6.92754                      48.06353                      82.72298
                      -6.94973                      52.10341                      82.02038
                      -6.94749                      55.46955                      81.43245
                      -6.93405                      58.16073                      80.95298
                      -6.91532                      60.84244                      80.41823
                      -6.89931                      62.18990                      80.19141
        </DataArray>
      </Points>
      <PointData>
        <DataArray type="Float32" Name="TranslationalVelocity" NumberOfComponents="3" format="ascii">
                       0.06757                       0.12092                       0.77233
                       0.12915                       0.22943                       1.47621
                       0.25279                       0.39794                       2.89069
                       0.37655                       0.54408                       4.30804
                       0.53112                       0.71433                       6.08099
                       0.71509                       0.99481                       8.19655
                       0.89729                       1.34468                      10.30003
                       1.07833                       1.69794                      12.40117
                       1.25794                       2.05535                      14.49989
                       1.43590                       2.41565                      16.59640
                       1.61206                       2.77667                      18.69114
                       1.78630                       3.13891                      20.78414
                       1.95862                       3.50205                      22.87559
                       2.12913                       3.86585                      24.96566
                       2.29811                       4.23007                      27.05449
                       2.43806                       4.53386                      28.79430
                       2.54968                       4.78108                      30.18491
                       2.66099                       5.05663                      31.57036
                       2.71697                       5.17317                      32.26642
        </DataArray>
        <DataArray type="Float32" Name="RotationalVelocity" NumberOfComponents="3" format="ascii">
                       0.52161                      -0.00000                      -0.04563
                       0.52155                       0.00000                      -0.04562
                       0.52139                       0.00000                      -0.04557
                       0.52117                       0.00000                      -0.04549
                       0.52086                       0.00002                      -0.04537
                       0.52043                       0.00005                      -0.04519
                       0.51998                       0.00009                      -0.04495
                       0.51953                       0.00014                      -0.04466
                       0.51910                       0.00020                      -0.04432
                       0.51869                       0.00023                      -0.04392
                       0.51832                       0.00024                      -0.04348
                       0.51797                       0.00020                      -0.04300
                       0.51766                       0.00010                      -0.04252
                       0.51739                      -0.00007                      -0.04207
                       0.51716                      -0.00034                      -0.04169
                       0.51701                      -0.00062                      -0.04146
                       0.51692                      -0.00090                      -0.04137
                       0.51686                      -0.00122                      -0.04140
                       0.51684                      -0.00139                      -0.04146
        </DataArray>
        <DataArray type="Float32" Name="TranslationalAcceleration" NumberOfComponents="3" format="ascii">
                       0.00552                      -0.40593                       0.06307
                       0.00632                      -0.49090                       0.07587
                       0.01468                      -1.40780                       0.19479
                       0.01966                      -2.25209                       0.29503
                       0.02217                      -3.23810                       0.41014
                       0.02377                      -4.35040                       0.58920
                       0.02283                      -5.42332                       0.81258
                       0.01548                      -6.48828                       1.05092
                       0.00159                      -7.55848                       1.30698
                      -0.01806                      -8.63823                       1.58070
                      -0.04119                      -9.72548                       1.86996
                      -0.06314                     -10.81404                       2.17290
                      -0.07655                     -11.89666                       2.48645
                      -0.07073                     -12.96766                       2.80716
                      -0.03095                     -14.02556                       3.13162
                       0.04316                     -14.90077                       3.40266
                       0.13803                     -15.60138                       3.62082
                       0.27355                     -16.30584                       3.85224
                       0.35929                     -16.66723                       3.95666
        </DataArray>
        <DataArray type="Float32" Name="OrientationX" NumberOfComponents="3" format="ascii">
                       0.99466                       0.04310                      -0.09377
                       0.99467                       0.04287                      -0.09374
                       0.99472                       0.04216                      -0.09362
                       0.99478                       0.04111                      -0.09344
                       0.99487                       0.03941                      -0.09315
                       0.99501                       0.03683                      -0.09271
                       0.99518                       0.03368                      -0.09214
                       0.99536                       0.02997                      -0.09144
                       0.99556                       0.02566                      -0.09057
                       0.99577                       0.02076                      -0.08951
                       0.99598                       0.01527                      -0.08825
                       0.99618                       0.00924                      -0.08678
                       0.99637                       0.00280                      -0.08514
                       0.99651                      -0.00385                      -0.08337
                       0.99661                      -0.01039                      -0.08156
                       0.99667                      -0.01547                      -0.08011
                       0.99669                      -0.01905                      -0.07907
                       0.99670                      -0.02198                      -0.07820
                       0.99670                      -0.02312                      -0.07786
        </DataArray>
        <DataArray type="Float32" Name="OrientationY" NumberOfComponents="3" format="ascii">
                      -0.08611                      -0.15411                      -0.98429
                      -0.08610                      -0.15430                      -0.98427
                      -0.08607                      -0.15479                      -0.98419
                      -0.08602                      -0.15542                      -0.98410
                      -0.08594                      -0.15631                      -0.98396
                      -0.08583                      -0.15744                      -0.98379
                      -0.08570                      -0.15856                      -0.98362
                      -0.08554                      -0.15961                      -0.98347
                      -0.08532                      -0.16055                      -0.98333
                      -0.08502                      -0.16136                      -0.98323
                      -0.08463                      -0.16204                      -0.98315
                      -0.08414                      -0.16260                      -0.98310
                      -0.08355                      -0.16306                      -0.98307
                      -0.08287                      -0.16342                      -0.98307
                      -0.08216                      -0.16371                      -0.98308
                      -0.08157                      -0.16391                      -0.98310
                      -0.08113                      -0.16402                      -0.98312
                      -0.08076                      -0.16410                      -0.98313
                      -0.08061                      -0.16412                      -0.98314
        </DataArray>
        <DataArray type="Float32" Name="OrientationZ" NumberOfComponents="3" format="ascii">
                      -0.05687                       0.98711                      -0.14957
                      -0.05666                       0.98709                      -0.14978
                      -0.05598                       0.98705                      -0.15035
                      -0.05498                       0.98699                      -0.15107
                      -0.05334                       0.98692                      -0.15212
                      -0.05083                       0.98684                      -0.15349
                      -0.04774                       0.98677                      -0.15491
                      -0.04406                       0.98672                      -0.15631
                      -0.03978                       0.98669                      -0.15765
                      -0.03486                       0.98668                      -0.15892
                      -0.02931                       0.98667                      -0.16010
                      -0.02319                       0.98665                      -0.16121
                      -0.01663                       0.98661                      -0.16223
                      -0.00984                       0.98655                      -0.16317
                      -0.00314                       0.98645                      -0.16401
                       0.00208                       0.98635                      -0.16462
                       0.00576                       0.98627                      -0.16502
                       0.00877                       0.98620                      -0.16533
                       0.00995                       0.98617                      -0.16544
        </DataArray>
        <DataArray type="Float32" Name="Force" NumberOfComponents="3" format="ascii">
                      27.10981                       1.94116                       2.50286
                     426.62786                      19.10659                     -35.47246
                     461.89838                      15.33603                     -71.44302
                     351.36105                       7.45809                     -79.56635
                    2125.64921                     115.45678                       6.75072
                    2240.00148                     110.74976                     -25.63236
                    2403.79421                     111.82379                     -22.54650
                    2199.92775                      91.37910                     -37.36670
                    2010.49861                      69.46336                     -67.65659
                    2043.71905                      60.61497                     -66.35429
                    1912.07320                      39.72727                    -101.64973
                    1924.67444                      28.49547                     -98.59287
                    1657.08901                      10.01636                    -106.77942
                    1635.02577                      -1.04459                    -102.61690
                    1597.44892                     -11.02161                     -94.30023
                    1583.23172                     -15.00365                     -65.75016
                    1543.99782                     -15.81161                     -34.82288
                    1173.65607                     -11.20571                       1.51073
                    1117.20032                      -1.81468                      66.13345
        </DataArray>
        <DataArray type="Float32" Name="Moment" NumberOfComponents="3" format="ascii">
                       0.00000                       0.00000                       0.00000
                       0.00000                       0.00000                       0.00000
                       0.00000                       0.00000                       0.00000
                       0.00000                       0.00000                       0.00000
                     109.17450                   -2027.99408                     307.96302
                     106.87594                   -2088.14794                     317.58215
                      93.42079                   -1948.34175                     296.87046
                      81.63105                   -1849.74085                     282.46439
                      67.32923                   -1695.85963                     259.62310
                      53.68856                   -1549.72032                     237.93609
                      37.03274                   -1278.50308                     196.92993
                      26.34722                   -1159.45983                     179.22669
                      16.52651                   -1030.14546                     159.83968
                       8.33384                    -912.07069                     142.06997
                       1.85088                    -794.09032                     124.16547
                      -2.06504                    -696.75620                     109.26887
                      -3.90868                    -583.70399                      91.73006
                      -2.82247                    -289.47443                      45.56873
                      -1.54191                    -140.82651                      22.18352
        </DataArray>
      </PointData>
      <Lines>
        <DataArray type="Int32" Name="connectivity" format="ascii">
      0      1
      1      2
      2      3
      3      4
      4      5
      5      6
      6      7
      7      8
      8      9
      9     10
     10     11
     11     12
     12     13
     13     14
     14     15
     15     16
     16     17
     17     18
        </DataArray>
        <DataArray type="Int32" Name="offsets" format="ascii">
      2
      4
      6
      8
     10
     12
     14
     16
     18
     20
     22
     24
     26
     28
     30
     32
     34
     36
        </DataArray>
      </Lines>
    </Piece>
  </PolyData>
</VTKFile>
