<?xml version="1.0"?>
<VTKFile type="PolyData" version="0.1" byte_order="LittleEndian">
  <PolyData>
    <Piece NumberOfPoints="     19" NumberOfVerts="  0" NumberOfLines="     18"
           NumberOfStrips="  0" NumberOfPolys="      0">
      <Points>
        <DataArray type="Float32" NumberOfComponents="3" format="ascii">
                      -5.07880                       1.49040                      89.85005
                      -5.15099                       2.84868                      89.71662
                      -5.30783                       5.57408                      89.54430
                      -5.46885                       8.30390                      89.41537
                      -5.66963                      11.71922                      89.27798
                      -5.86221                      15.80489                      88.96135
                      -6.03090                      19.87748                      88.50774
                      -6.18811                      23.94954                      88.04563
                      -6.32897                      28.02095                      87.57313
                      -6.45150                      32.09189                      87.09249
                      -6.55427                      36.16278                      86.60786
                      -6.63450                      40.23347                      86.11816
                      -6.69108                      44.30392                      85.62396
                      -6.72350                      48.37408                      85.12583
                      -6.72941                      52.44386                      84.62418
                      -6.71366                      55.83495                      84.20362
                      -6.68943                      58.54648                      83.85792
                      -6.65992                      61.25128                      83.45653
                      -6.63849                      62.60823                      83.29664
        </DataArray>
      </Points>
      <PointData>
        <DataArray type="Float32" Name="TranslationalVelocity" NumberOfComponents="3" format="ascii">
                       0.06801                       0.08181                       0.77740
                       0.12997                       0.15469                       1.48587
                       0.25409                       0.25169                       2.90732
                       0.37809                       0.32622                       4.33091
                       0.53265                       0.40692                       6.11174
                       0.71655                       0.58064                       8.24173
                       0.89859                       0.82459                      10.36447
                       1.07925                       1.07236                      12.48652
                       1.25845                       1.32472                      14.60784
                       1.43619                       1.58043                      16.72859
                       1.61251                       1.83728                      18.84900
                       1.78744                       2.09573                      20.96907
                       1.96103                       2.35547                      23.08880
                       2.13337                       2.61619                      25.20820
                       2.30451                       2.87759                      27.32722
                       2.44625                       3.09587                      29.09272
                       2.55906                       3.27482                      30.50432
                       2.67112                       3.48255                      31.91228
                       2.72719                       3.56490                      32.61858
        </DataArray>
        <DataArray type="Float32" Name="RotationalVelocity" NumberOfComponents="3" format="ascii">
                       0.52161                       0.00000                      -0.04563
                       0.52159                       0.00000                      -0.04561
                       0.52154                       0.00001                      -0.04552
                       0.52148                       0.00002                      -0.04539
                       0.52140                       0.00005                      -0.04519
                       0.52130                       0.00009                      -0.04491
                       0.52119                       0.00015                      -0.04459
                       0.52110                       0.00021                      -0.04426
                       0.52101                       0.00028                      -0.04392
                       0.52094                       0.00036                      -0.04358
                       0.52087                       0.00043                      -0.04324
                       0.52082                       0.00049                      -0.04291
                       0.52077                       0.00054                      -0.04259
                       0.52073                       0.00057                      -0.04229
                       0.52069                       0.00057                      -0.04201
                       0.52067                       0.00055                      -0.04180
                       0.52065                       0.00052                      -0.04164
                       0.52063                       0.00046                      -0.04151
                       0.52063                       0.00042                      -0.04145
        </DataArray>
        <DataArray type="Float32" Name="TranslationalAcceleration" NumberOfComponents="3" format="ascii">
                       0.00373                      -0.40860                       0.04267
                       0.00437                      -0.49409                       0.05125
                       0.00969                      -1.41612                       0.12478
                       0.01261                      -2.26515                       0.18489
                       0.01426                      -3.25737                       0.25714
                       0.01876                      -4.37966                       0.39547
                       0.02727                      -5.46460                       0.58919
                       0.03857                      -6.54239                       0.80798
                       0.05424                      -7.62646                       1.05382
                       0.07521                      -8.72125                       1.32591
                       0.10146                      -9.82478                       1.62156
                       0.13202                     -10.93084                       1.93854
                       0.16448                     -12.03201                       2.27371
                       0.19483                     -13.12226                       2.62392
                       0.21722                     -14.19961                       2.98645
                       0.22378                     -15.09059                       3.29679
                       0.21733                     -15.80304                       3.55191
                       0.19595                     -16.51785                       3.82627
                       0.17915                     -16.88440                       3.95426
        </DataArray>
        <DataArray type="Float32" Name="OrientationX" NumberOfComponents="3" format="ascii">
                       0.99485                       0.04338                      -0.09160
                       0.99486                       0.04316                      -0.09158
                       0.99490                       0.04244                      -0.09150
                       0.99496                       0.04140                      -0.09138
                       0.99504                       0.03970                      -0.09118
                       0.99517                       0.03711                      -0.09087
                       0.99532                       0.03397                      -0.09047
                       0.99549                       0.03025                      -0.08996
                       0.99567                       0.02594                      -0.08932
                       0.99585                       0.02102                      -0.08851
                       0.99604                       0.01551                      -0.08754
                       0.99622                       0.00945                      -0.08638
                       0.99637                       0.00296                      -0.08506
                       0.99649                      -0.00374                      -0.08361
                       0.99657                      -0.01034                      -0.08211
                       0.99660                      -0.01547                      -0.08090
                       0.99661                      -0.01910                      -0.08001
                       0.99661                      -0.02207                      -0.07926
                       0.99661                      -0.02324                      -0.07895
        </DataArray>
        <DataArray type="Float32" Name="OrientationY" NumberOfComponents="3" format="ascii">
                      -0.08668                      -0.10427                      -0.99076
                      -0.08667                      -0.10446                      -0.99074
                      -0.08664                      -0.10499                      -0.99069
                      -0.08659                      -0.10564                      -0.99063
                      -0.08651                      -0.10657                      -0.99053
                      -0.08641                      -0.10776                      -0.99041
                      -0.08629                      -0.10895                      -0.99029
                      -0.08614                      -0.11006                      -0.99019
                      -0.08592                      -0.11106                      -0.99009
                      -0.08563                      -0.11193                      -0.99002
                      -0.08525                      -0.11266                      -0.98997
                      -0.08476                      -0.11326                      -0.98994
                      -0.08417                      -0.11376                      -0.98994
                      -0.08349                      -0.11416                      -0.98995
                      -0.08275                      -0.11448                      -0.98997
                      -0.08214                      -0.11469                      -0.99000
                      -0.08168                      -0.11482                      -0.99002
                      -0.08128                      -0.11490                      -0.99005
                      -0.08112                      -0.11493                      -0.99006
        </DataArray>
        <DataArray type="Float32" Name="OrientationZ" NumberOfComponents="3" format="ascii">
                      -0.05253                       0.99360                      -0.09997
                      -0.05233                       0.99359                      -0.10019
                      -0.05165                       0.99357                      -0.10077
                      -0.05066                       0.99354                      -0.10152
                      -0.04904                       0.99351                      -0.10261
                      -0.04655                       0.99348                      -0.10404
                      -0.04349                       0.99347                      -0.10551
                      -0.03985                       0.99346                      -0.10696
                      -0.03560                       0.99348                      -0.10835
                      -0.03072                       0.99349                      -0.10966
                      -0.02521                       0.99351                      -0.11089
                      -0.01913                       0.99352                      -0.11204
                      -0.01261                       0.99350                      -0.11310
                      -0.00585                       0.99346                      -0.11407
                       0.00083                       0.99337                      -0.11494
                       0.00604                       0.99328                      -0.11557
                       0.00972                       0.99320                      -0.11599
                       0.01274                       0.99313                      -0.11631
                       0.01393                       0.99310                      -0.11642
        </DataArray>
        <DataArray type="Float32" Name="Force" NumberOfComponents="3" format="ascii">
                      26.77159                       1.68274                       2.65678
                     427.16971                      19.03626                     -34.30349
                     462.50146                      16.90070                     -70.63985
                     350.31884                       9.84067                     -79.15768
                    2117.02607                     105.26544                      12.14605
                    2228.62191                     101.64690                     -20.29433
                    2403.20761                     102.41477                     -17.25986
                    2208.92028                      84.05236                     -33.19973
                    2022.44043                      64.59543                     -64.81840
                    2057.47034                      55.61371                     -64.03230
                    1926.79759                      37.06358                    -100.58862
                    1941.00712                      25.65448                     -98.04037
                    1671.10264                       8.60009                    -107.44923
                    1649.58163                      -2.59868                    -103.70695
                    1611.27711                     -12.96364                     -96.56644
                    1587.78263                     -18.80988                     -72.97554
                    1542.20417                     -21.33568                     -45.65514
                    1173.47661                     -17.96316                     -17.33532
                    1124.25504                      -9.65249                      66.99250
        </DataArray>
        <DataArray type="Float32" Name="Moment" NumberOfComponents="3" format="ascii">
                       0.00000                       0.00000                       0.00000
                       0.00000                       0.00000                       0.00000
                       0.00000                       0.00000                       0.00000
                       0.00000                       0.00000                       0.00000
                      99.60485                   -2026.79029                     204.58516
                      97.03674                   -2085.42012                     210.98004
                      84.90198                   -1958.77328                     198.71338
                      74.03567                   -1870.48377                     190.37247
                      60.51080                   -1718.39723                     175.55015
                      47.50076                   -1571.67002                     161.24681
                      31.94902                   -1297.81901                     133.78732
                      21.73426                   -1177.92963                     122.06384
                      12.39694                   -1046.46563                     109.04547
                       4.64683                    -926.88864                      97.13923
                      -1.39613                    -807.34155                      85.08679
                      -4.94781                    -708.68621                      75.01503
                      -6.34901                    -593.84558                      63.05179
                      -4.20446                    -306.10799                      32.58265
                      -2.12241                    -142.11331                      15.14169
        </DataArray>
      </PointData>
      <Lines>
        <DataArray type="Int32" Name="connectivity" format="ascii">
      0      1
      1      2
      2      3
      3      4
      4      5
      5      6
      6      7
      7      8
      8      9
      9     10
     10     11
     11     12
     12     13
     13     14
     14     15
     15     16
     16     17
     17     18
        </DataArray>
        <DataArray type="Int32" Name="offsets" format="ascii">
      2
      4
      6
      8
     10
     12
     14
     16
     18
     20
     22
     24
     26
     28
     30
     32
     34
     36
        </DataArray>
      </Lines>
    </Piece>
  </PolyData>
</VTKFile>
