<?xml version="1.0"?>
<VTKFile type="PolyData" version="0.1" byte_order="LittleEndian">
  <PolyData>
    <Piece NumberOfPoints="     19" NumberOfVerts="  0" NumberOfLines="     18"
           NumberOfStrips="  0" NumberOfPolys="      0">
      <Points>
        <DataArray type="Float32" NumberOfComponents="3" format="ascii">
                      -5.16701                      -0.93850                      88.84185
                      -5.32003                      -1.79076                      87.78440
                      -5.65165                      -3.42016                      85.61247
                      -5.99348                      -5.01332                      83.41274
                      -6.42362                      -6.98218                      80.64520
                      -6.87072                      -9.45537                      77.40395
                      -7.27483                     -12.02804                      74.23702
                      -7.66611                     -14.60006                      71.06787
                      -8.03922                     -17.17308                      67.89721
                      -8.39223                     -19.74579                      64.72393
                      -8.72395                     -22.31557                      61.54596
                      -9.03111                     -24.88383                      58.36426
                      -9.31231                     -27.45081                      55.17910
                      -9.56668                     -30.01662                      51.99071
                      -9.79159                     -32.58119                      48.79913
                      -9.95575                     -34.71733                      46.13716
                     -10.07255                     -36.43166                      44.01121
                     -10.17459                     -38.18841                      41.91815
                     -10.22415                     -39.03369                      40.84561
        </DataArray>
      </Points>
      <PointData>
        <DataArray type="Float32" Name="TranslationalVelocity" NumberOfComponents="3" format="ascii">
                      -0.04283                       0.61172                      -0.48953
                      -0.08171                       1.17017                      -0.93400
                      -0.15604                       2.31751                      -1.78341
                      -0.22871                       3.47906                      -2.61345
                      -0.31846                       4.93919                      -3.63846
                      -0.43113                       6.64476                      -4.92476
                      -0.54828                       8.30769                      -6.26119
                      -0.66538                       9.96919                      -7.59564
                      -0.78260                      11.62878                      -8.92902
                      -0.89999                      13.28713                     -10.26080
                      -1.01754                      14.94547                     -11.58978
                      -1.13547                      16.60337                     -12.91690
                      -1.25393                      18.26088                     -14.24245
                      -1.37309                      19.91804                     -15.56667
                      -1.49309                      21.57486                     -16.88967
                      -1.59388                      22.95526                     -17.99125
                      -1.67535                      24.05679                     -18.87507
                      -1.75943                      25.14043                     -19.78052
                      -1.80011                      25.69550                     -20.21610
        </DataArray>
        <DataArray type="Float32" Name="RotationalVelocity" NumberOfComponents="3" format="ascii">
                       0.52161                       0.00000                      -0.04563
                       0.52151                       0.00000                      -0.04563
                       0.52124                       0.00001                      -0.04560
                       0.52091                       0.00001                      -0.04558
                       0.52043                       0.00001                      -0.04557
                       0.51980                      -0.00001                      -0.04557
                       0.51917                      -0.00004                      -0.04560
                       0.51856                      -0.00009                      -0.04568
                       0.51800                      -0.00014                      -0.04580
                       0.51750                      -0.00021                      -0.04598
                       0.51707                      -0.00027                      -0.04620
                       0.51669                      -0.00032                      -0.04646
                       0.51637                      -0.00034                      -0.04675
                       0.51610                      -0.00033                      -0.04706
                       0.51589                      -0.00028                      -0.04737
                       0.51574                      -0.00021                      -0.04760
                       0.51565                      -0.00011                      -0.04777
                       0.51560                       0.00001                      -0.04790
                       0.51558                       0.00008                      -0.04795
        </DataArray>
        <DataArray type="Float32" Name="TranslationalAcceleration" NumberOfComponents="3" format="ascii">
                       0.02792                       0.25730                       0.31908
                       0.03384                       0.30990                       0.38664
                       0.09843                       0.86319                       1.12386
                       0.15894                       1.35523                       1.81272
                       0.23082                       1.91194                       2.62699
                       0.31195                       2.55820                       3.53787
                       0.39066                       3.19893                       4.41330
                       0.47062                       3.82203                       5.29515
                       0.55265                       4.43672                       6.19406
                       0.63690                       5.04597                       7.11358
                       0.72308                       5.64853                       8.05194
                       0.81050                       6.24212                       9.00320
                       0.89842                       6.82349                       9.96040
                       0.98623                       7.39039                      10.91752
                       1.07365                       7.94306                      11.87160
                       1.14640                       8.39568                      12.66579
                       1.20467                       8.75821                      13.30258
                       1.26244                       9.13722                      13.93940
                       1.29281                       9.31993                      14.26799
        </DataArray>
        <DataArray type="Float32" Name="OrientationX" NumberOfComponents="3" format="ascii">
                       0.99228                      -0.02732                      -0.12095
                       0.99231                      -0.02716                      -0.12077
                       0.99239                      -0.02666                      -0.12019
                       0.99251                      -0.02591                      -0.11935
                       0.99271                      -0.02469                      -0.11801
                       0.99299                      -0.02279                      -0.11601
                       0.99331                      -0.02043                      -0.11361
                       0.99369                      -0.01761                      -0.11080
                       0.99410                      -0.01429                      -0.10755
                       0.99454                      -0.01047                      -0.10382
                       0.99501                      -0.00617                      -0.09959
                       0.99549                      -0.00144                      -0.09489
                       0.99596                       0.00362                      -0.08976
                       0.99640                       0.00884                      -0.08436
                       0.99679                       0.01394                      -0.07889
                       0.99706                       0.01788                      -0.07450
                       0.99724                       0.02063                      -0.07129
                       0.99739                       0.02284                      -0.06852
                       0.99745                       0.02369                      -0.06736
        </DataArray>
        <DataArray type="Float32" Name="OrientationY" NumberOfComponents="3" format="ascii">
                       0.05458                      -0.77961                       0.62388
                       0.05457                      -0.77970                       0.62377
                       0.05455                      -0.77995                       0.62346
                       0.05455                      -0.78026                       0.62307
                       0.05459                      -0.78070                       0.62251
                       0.05472                      -0.78128                       0.62178
                       0.05495                      -0.78185                       0.62104
                       0.05531                      -0.78240                       0.62032
                       0.05579                      -0.78289                       0.61965
                       0.05637                      -0.78334                       0.61903
                       0.05704                      -0.78372                       0.61849
                       0.05777                      -0.78405                       0.61800
                       0.05851                      -0.78433                       0.61758
                       0.05921                      -0.78456                       0.61722
                       0.05980                      -0.78474                       0.61693
                       0.06016                      -0.78487                       0.61673
                       0.06032                      -0.78495                       0.61662
                       0.06033                      -0.78500                       0.61655
                       0.06028                      -0.78501                       0.61654
        </DataArray>
        <DataArray type="Float32" Name="OrientationZ" NumberOfComponents="3" format="ascii">
                      -0.11134                      -0.62567                      -0.77210
                      -0.11110                      -0.62556                      -0.77222
                      -0.11036                      -0.62527                      -0.77256
                      -0.10927                      -0.62492                      -0.77300
                      -0.10750                      -0.62441                      -0.77366
                      -0.10481                      -0.62377                      -0.77455
                      -0.10152                      -0.62313                      -0.77550
                      -0.09761                      -0.62253                      -0.77648
                      -0.09306                      -0.62199                      -0.77748
                      -0.08781                      -0.62151                      -0.77847
                      -0.08187                      -0.62108                      -0.77946
                      -0.07528                      -0.62070                      -0.78043
                      -0.06817                      -0.62034                      -0.78137
                      -0.06073                      -0.61999                      -0.78225
                      -0.05331                      -0.61966                      -0.78306
                      -0.04745                      -0.61940                      -0.78364
                      -0.04324                      -0.61922                      -0.78402
                      -0.03971                      -0.61908                      -0.78433
                      -0.03827                      -0.61903                      -0.78444
        </DataArray>
        <DataArray type="Float32" Name="Force" NumberOfComponents="3" format="ascii">
                      26.86228                      -9.63400                       3.93332
                     357.87363                     -65.05164                       1.22088
                     440.59425                    -104.34439                      21.59603
                     356.55855                     -99.59341                      30.26654
                    2606.22626                     141.64225                    -477.04787
                    2529.99696                     112.65791                    -433.82645
                    2656.91774                     126.98259                    -450.91927
                    2351.30948                     100.62347                    -377.32124
                    2103.03075                      66.40998                    -305.69853
                    2122.44068                      76.67309                    -301.62979
                    1946.89564                      42.37988                    -238.90323
                    1937.35028                      51.52132                    -228.56548
                    1636.07343                      34.37034                    -170.44274
                    1647.32217                      64.70017                    -179.91329
                    1701.67919                     117.14600                    -209.92891
                    1777.57141                     173.28416                    -246.70947
                    1790.92225                     212.22658                    -269.02768
                    1371.57919                     188.34028                    -220.46642
                    1151.39570                     128.53647                    -159.15584
        </DataArray>
        <DataArray type="Float32" Name="Moment" NumberOfComponents="3" format="ascii">
                       0.00000                       0.00000                       0.00000
                       0.00000                       0.00000                       0.00000
                       0.00000                       0.00000                       0.00000
                       0.00000                       0.00000                       0.00000
                     212.65914                    1239.01567                    1529.68883
                     216.40414                    1293.99047                    1598.05859
                     196.70156                    1215.09226                    1501.18985
                     180.42290                    1159.89614                    1433.64009
                     157.34584                    1061.83702                    1313.12280
                     134.95713                     965.86664                    1195.15542
                     102.23281                     785.35055                     972.44259
                      84.38495                     705.56252                     874.29966
                      67.03838                     619.64405                     768.45216
                      52.25258                     542.70552                     673.60212
                      39.45401                     467.42361                     580.64836
                      30.46464                     405.98066                     504.65472
                      23.02130                     336.98749                     419.09094
                       9.94778                     158.74638                     197.50173
                       6.38507                     105.77037                     131.61375
        </DataArray>
      </PointData>
      <Lines>
        <DataArray type="Int32" Name="connectivity" format="ascii">
      0      1
      1      2
      2      3
      3      4
      4      5
      5      6
      6      7
      7      8
      8      9
      9     10
     10     11
     11     12
     12     13
     13     14
     14     15
     15     16
     16     17
     17     18
        </DataArray>
        <DataArray type="Int32" Name="offsets" format="ascii">
      2
      4
      6
      8
     10
     12
     14
     16
     18
     20
     22
     24
     26
     28
     30
     32
     34
     36
        </DataArray>
      </Lines>
    </Piece>
  </PolyData>
</VTKFile>
