<?xml version="1.0"?>
<VTKFile type="PolyData" version="0.1" byte_order="LittleEndian">
  <PolyData>
    <Piece NumberOfPoints="    625" NumberOfVerts="  0" NumberOfLines="      0"
           NumberOfStrips="  0" NumberOfPolys="    600">
      <Points>
        <DataArray type="Float32" NumberOfComponents="3" format="ascii">
                      -5.06758                      -1.28406                      89.22759
                      -5.06758                      -1.28406                      89.22759
                      -5.06758                      -1.28406                      89.22759
                      -5.06758                      -1.28406                      89.22759
                      -5.06758                      -1.28406                      89.22759
                      -5.06758                      -1.28406                      89.22759
                      -5.06758                      -1.28406                      89.22759
                      -5.06758                      -1.28406                      89.22759
                      -5.06758                      -1.28406                      89.22759
                      -5.06758                      -1.28406                      89.22759
                      -5.06758                      -1.28406                      89.22759
                      -5.06758                      -1.28406                      89.22759
                      -5.06758                      -1.28406                      89.22759
                      -5.06758                      -1.28406                      89.22759
                      -5.06758                      -1.28406                      89.22759
                      -5.06758                      -1.28406                      89.22759
                      -5.06758                      -1.28406                      89.22759
                      -5.06758                      -1.28406                      89.22759
                      -5.06758                      -1.28406                      89.22759
                      -5.06758                      -1.28406                      89.22759
                      -5.06758                      -1.28406                      89.22759
                      -5.06758                      -1.28406                      89.22759
                      -5.06758                      -1.28406                      89.22759
                      -5.06758                      -1.28406                      89.22759
                      -5.06758                      -1.28406                      89.22759
                      -4.46475                      -1.17706                      89.23971
                      -4.49463                      -1.09999                      89.11422
                      -4.56017                      -1.02777                      88.99989
                      -4.65723                      -0.96493                      88.90392
                      -4.77972                      -0.91542                      88.83232
                      -4.91994                      -0.88235                      88.78961
                      -5.06909                      -0.86779                      88.77846
                      -5.21778                      -0.87267                      88.79958
                      -5.35669                      -0.89667                      88.85164
                      -5.47708                      -0.93829                      88.93136
                      -5.57138                      -0.99492                      89.03374
                      -5.63367                      -1.06298                      89.15235
                      -5.66004                      -1.13822                      89.27972
                      -5.64883                      -1.21589                      89.40787
                      -5.60074                      -1.29113                      89.52873
                      -5.51880                      -1.35920                      89.63472
                      -5.40815                      -1.41582                      89.71917
                      -5.27575                      -1.45744                      89.77678
                      -5.12992                      -1.48144                      89.80392
                      -4.97981                      -1.48632                      89.79890
                      -4.83486                      -1.47177                      89.76202
                      -4.70419                      -1.43869                      89.69561
                      -4.59599                      -1.38918                      89.60383
                      -4.51707                      -1.32634                      89.49246
                      -4.47239                      -1.25412                      89.36849
                      -4.23031                      -1.07005                      89.28406
                      -4.27165                      -0.96346                      89.11049
                      -4.36229                      -0.86357                      88.95236
                      -4.49653                      -0.77666                      88.81961
                      -4.66595                      -0.70818                      88.72059
                      -4.85990                      -0.66243                      88.66151
                      -5.06619                      -0.64230                      88.64609
                      -5.27186                      -0.64905                      88.67530
                      -5.46398                      -0.68225                      88.74730
                      -5.63049                      -0.73981                      88.85757
                      -5.76093                      -0.81813                      88.99917
                      -5.84708                      -0.91228                      89.16322
                      -5.88356                      -1.01633                      89.33940
                      -5.86805                      -1.12377                      89.51665
                      -5.80154                      -1.22783                      89.68382
                      -5.68820                      -1.32197                      89.83041
                      -5.53516                      -1.40029                      89.94722
                      -5.35203                      -1.45786                      90.02689
                      -5.15033                      -1.49106                      90.06444
                      -4.94271                      -1.49780                      90.05749
                      -4.74223                      -1.47767                      90.00648
                      -4.56149                      -1.43193                      89.91462
                      -4.41184                      -1.36345                      89.78769
                      -4.30268                      -1.27653                      89.63365
                      -4.24088                      -1.17664                      89.46218
                      -4.06230                      -0.96305                      89.33422
                      -4.11176                      -0.83551                      89.12653
                      -4.22022                      -0.71598                      88.93731
                      -4.38086                      -0.61198                      88.77847
                      -4.58358                      -0.53003                      88.65998
                      -4.81566                      -0.47529                      88.58929
                      -5.06250                      -0.45121                      88.57084
                      -5.30860                      -0.45928                      88.60579
                      -5.53849                      -0.49900                      88.69194
                      -5.73774                      -0.56789                      88.82389
                      -5.89381                      -0.66160                      88.99333
                      -5.99691                      -0.77425                      89.18963
                      -6.04055                      -0.89877                      89.40044
                      -6.02199                      -1.02732                      89.61253
                      -5.94241                      -1.15184                      89.81256
                      -5.80679                      -1.26449                      89.98798
                      -5.62367                      -1.35821                      90.12774
                      -5.40454                      -1.42709                      90.22308
                      -5.16318                      -1.46682                      90.26801
                      -4.91474                      -1.47489                      90.25969
                      -4.67486                      -1.45080                      90.19866
                      -4.45858                      -1.39606                      90.08874
                      -4.27951                      -1.31412                      89.93685
                      -4.14890                      -1.21012                      89.75253
                      -4.07495                      -1.09059                      89.54736
                      -3.93127                      -0.85604                      89.38762
                      -3.98701                      -0.71232                      89.15357
                      -4.10923                      -0.57763                      88.94035
                      -4.29024                      -0.46043                      88.76135
                      -4.51869                      -0.36809                      88.62783
                      -4.78021                      -0.30641                      88.54817
                      -5.05837                      -0.27926                      88.52738
                      -5.33569                      -0.28836                      88.56677
                      -5.59475                      -0.33312                      88.66385
                      -5.81927                      -0.41075                      88.81254
                      -5.99515                      -0.51635                      89.00348
                      -6.11133                      -0.64330                      89.22468
                      -6.16050                      -0.78361                      89.46224
                      -6.13959                      -0.92847                      89.70124
                      -6.04991                      -1.06879                      89.92665
                      -5.89709                      -1.19573                      90.12432
                      -5.69073                      -1.30134                      90.28182
                      -5.44380                      -1.37896                      90.38925
                      -5.17182                      -1.42372                      90.43988
                      -4.89187                      -1.43282                      90.43051
                      -4.62154                      -1.40568                      90.36173
                      -4.37783                      -1.34400                      90.23787
                      -4.17604                      -1.25165                      90.06671
                      -4.02885                      -1.13446                      89.85900
                      -3.94552                      -0.99976                      89.62779
                      -3.82571                      -0.74904                      89.44324
                      -3.88644                      -0.59242                      89.18819
                      -4.01963                      -0.44564                      88.95584
                      -4.21689                      -0.31793                      88.76079
                      -4.46583                      -0.21730                      88.61529
                      -4.75081                      -0.15009                      88.52848
                      -5.05393                      -0.12051                      88.50582
                      -5.35614                      -0.13042                      88.54874
                      -5.63844                      -0.17920                      88.65454
                      -5.88311                      -0.26379                      88.81656
                      -6.07476                      -0.37887                      89.02464
                      -6.20137                      -0.51720                      89.26568
                      -6.25496                      -0.67010                      89.52456
                      -6.23217                      -0.82797                      89.78500
                      -6.13444                      -0.98087                      90.03064
                      -5.96791                      -1.11921                      90.24604
                      -5.74303                      -1.23429                      90.41767
                      -5.47395                      -1.31887                      90.53475
                      -5.17756                      -1.36765                      90.58991
                      -4.87249                      -1.37757                      90.57970
                      -4.57791                      -1.34799                      90.50475
                      -4.31233                      -1.28077                      90.36978
                      -4.09244                      -1.18015                      90.18326
                      -3.93204                      -1.05243                      89.95692
                      -3.84123                      -0.90565                      89.70497
                      -3.73969                      -0.64203                      89.50058
                      -3.80445                      -0.47504                      89.22864
                      -3.94646                      -0.31854                      88.98090
                      -4.15678                      -0.18237                      88.77292
                      -4.42221                      -0.07508                      88.61779
                      -4.72607                      -0.00341                      88.52523
                      -5.04926                       0.02813                      88.50108
                      -5.37148                       0.01756                      88.54684
                      -5.67248                      -0.03446                      88.65964
                      -5.93335                      -0.12465                      88.83239
                      -6.13770                      -0.24734                      89.05425
                      -6.27269                      -0.39484                      89.31126
                      -6.32983                      -0.55787                      89.58728
                      -6.30553                      -0.72619                      89.86497
                      -6.20133                      -0.88922                      90.12687
                      -6.02377                      -1.03672                      90.35654
                      -5.78400                      -1.15942                      90.53954
                      -5.49709                      -1.24961                      90.66437
                      -5.18108                      -1.30162                      90.72319
                      -4.85580                      -1.31219                      90.71230
                      -4.54172                      -1.28065                      90.63239
                      -4.25855                      -1.20898                      90.48848
                      -4.02409                      -1.10169                      90.28961
                      -3.85307                      -0.96552                      90.04827
                      -3.75625                      -0.80902                      89.77964
                      -3.66976                      -0.53503                      89.55932
                      -3.73774                      -0.35974                      89.27387
                      -3.88679                      -0.19546                      89.01382
                      -4.10757                      -0.05252                      88.79551
                      -4.38619                       0.06010                      88.63266
                      -4.70515                       0.13532                      88.53551
                      -5.04440                       0.16843                      88.51015
                      -5.38263                       0.15734                      88.55819
                      -5.69859                       0.10274                      88.67659
                      -5.97242                       0.00807                      88.85793
                      -6.18693                      -0.12073                      89.09081
                      -6.32862                      -0.27555                      89.36059
                      -6.38860                      -0.44669                      89.65033
                      -6.36310                      -0.62337                      89.94182
                      -6.25371                      -0.79450                      90.21674
                      -6.06733                      -0.94933                      90.45782
                      -5.81565                      -1.07812                      90.64991
                      -5.51448                      -1.17279                      90.78094
                      -5.18276                      -1.22739                      90.84268
                      -4.84133                      -1.23848                      90.83126
                      -4.51163                      -1.20538                      90.74737
                      -4.21439                      -1.13015                      90.59631
                      -3.96828                      -1.01753                      90.38756
                      -3.78877                      -0.87459                      90.13423
                      -3.68713                      -0.71031                      89.85224
                      -3.61369                      -0.42802                      89.61928
                      -3.68420                      -0.24622                      89.32322
                      -3.83879                      -0.07585                      89.05352
                      -4.06776                       0.07239                      88.82711
                      -4.35672                       0.18920                      88.65821
                      -4.68752                       0.26722                      88.55745
                      -5.03937                       0.30155                      88.53115
                      -5.39016                       0.29005                      88.58097
                      -5.71785                       0.23342                      88.70378
                      -6.00185                       0.13524                      88.89185
                      -6.22431                       0.00166                      89.13337
                      -6.37127                      -0.15892                      89.41317
                      -6.43347                      -0.33640                      89.71366
                      -6.40703                      -0.51964                      90.01597
                      -6.29358                      -0.69713                      90.30110
                      -6.10028                      -0.85770                      90.55113
                      -5.83925                      -0.99128                      90.75035
                      -5.52691                      -1.08946                      90.88625
                      -5.18287                      -1.14609                      90.95029
                      -4.82876                      -1.15760                      90.93843
                      -4.48682                      -1.12326                      90.85144
                      -4.17855                      -1.04524                      90.69476
                      -3.92330                      -0.92844                      90.47826
                      -3.73713                      -0.78019                      90.21553
                      -3.63172                      -0.60982                      89.92307
                      -3.57005                      -0.32102                      89.68032
                      -3.64246                      -0.13431                      89.37628
                      -3.80122                       0.04066                      89.09930
                      -4.03637                       0.19290                      88.86678
                      -4.33313                       0.31285                      88.69333
                      -4.67285                       0.39298                      88.58985
                      -5.03419                       0.42824                      88.56284
                      -5.39445                       0.41643                      88.61400
                      -5.73098                       0.35827                      88.74012
                      -6.02264                       0.25744                      88.93326
                      -6.25111                       0.12026                      89.18130
                      -6.40202                      -0.04465                      89.46865
                      -6.46591                      -0.22692                      89.77725
                      -6.43875                      -0.41511                      90.08772
                      -6.32224                      -0.59738                      90.38054
                      -6.12372                      -0.76229                      90.63731
                      -5.85565                      -0.89947                      90.84191
                      -5.53488                      -1.00030                      90.98148
                      -5.18157                      -1.05846                      91.04724
                      -4.81790                      -1.07027                      91.03507
                      -4.46674                      -1.03501                      90.94572
                      -4.15015                      -0.95489                      90.78482
                      -3.88802                      -0.83493                      90.56248
                      -3.69682                      -0.68269                      90.29266
                      -3.58856                      -0.50772                      89.99231
                      -3.53787                      -0.21401                      89.74236
                      -3.61160                      -0.02388                      89.43274
                      -3.77328                       0.15430                      89.15068
                      -4.01275                       0.30934                      88.91389
                      -4.31495                       0.43149                      88.73726
                      -4.66091                       0.51309                      88.63188
                      -5.02888                       0.54900                      88.60438
                      -5.39574                       0.53696                      88.65648
                      -5.73845                       0.47774                      88.78491
                      -6.03546                       0.37506                      88.98160
                      -6.26812                       0.23536                      89.23419
                      -6.42181                       0.06743                      89.52681
                      -6.48687                      -0.11819                      89.84108
                      -6.45921                      -0.30983                      90.15724
                      -6.34057                      -0.49545                      90.45543
                      -6.13840                      -0.66338                      90.71692
                      -5.86541                      -0.80308                      90.92527
                      -5.53876                      -0.90576                      91.06740
                      -5.17896                      -0.96498                      91.13437
                      -4.80862                      -0.97702                      91.12197
                      -4.45101                      -0.94111                      91.03099
                      -4.12861                      -0.85951                      90.86714
                      -3.86167                      -0.73736                      90.64071
                      -3.66696                      -0.58232                      90.36594
                      -3.55672                      -0.40414                      90.06008
                      -3.51654                      -0.10701                      89.80536
                      -3.59106                       0.08515                      89.49244
                      -3.75446                       0.26523                      89.20737
                      -3.99647                       0.42192                      88.96806
                      -4.30190                       0.54538                      88.78954
                      -4.65154                       0.62784                      88.68304
                      -5.02344                       0.66413                      88.65524
                      -5.39421                       0.65197                      88.70790
                      -5.74057                       0.59212                      88.83770
                      -6.04075                       0.48834                      89.03648
                      -6.27589                       0.34715                      89.29177
                      -6.43121                       0.17743                      89.58751
                      -6.49696                      -0.01016                      89.90512
                      -6.46901                      -0.20385                      90.22465
                      -6.34910                      -0.39144                      90.52602
                      -6.14478                      -0.56117                      90.79030
                      -5.86889                      -0.70235                      91.00087
                      -5.53875                      -0.80613                      91.14451
                      -5.17511                      -0.86598                      91.21220
                      -4.80083                      -0.87814                      91.19967
                      -4.43941                      -0.84185                      91.10771
                      -4.11357                      -0.75939                      90.94212
                      -3.84379                      -0.63593                      90.71328
                      -3.64700                      -0.47924                      90.43558
                      -3.53559                      -0.29916                      90.12646
                      -3.50571                       0.00000                      89.86927
                      -3.58049                       0.19282                      89.55526
                      -3.74446                       0.37353                      89.26919
                      -3.98732                       0.53077                      89.02905
                      -4.29381                       0.65466                      88.84991
                      -4.64468                       0.73741                      88.74304
                      -5.01787                       0.77383                      88.71514
                      -5.38993                       0.76163                      88.76798
                      -5.73750                       0.70157                      88.89823
                      -6.03873                       0.59743                      89.09771
                      -6.27469                       0.45575                      89.35389
                      -6.43056                       0.28543                      89.65066
                      -6.49654                       0.09718                      89.96938
                      -6.46848                      -0.09718                      90.29003
                      -6.34816                      -0.28543                      90.59245
                      -6.14313                      -0.45575                      90.85765
                      -5.86627                      -0.59743                      91.06896
                      -5.53498                      -0.70157                      91.21310
                      -5.17007                      -0.76163                      91.28102
                      -4.79448                      -0.77383                      91.26845
                      -4.43180                      -0.73741                      91.17617
                      -4.10483                      -0.65466                      91.01000
                      -3.83410                      -0.53077                      90.78036
                      -3.63663                      -0.37353                      90.50169
                      -3.52482                      -0.19282                      90.19150
                      -3.50527                       0.10701                      89.93409
                      -3.57979                       0.29916                      89.62117
                      -3.74319                       0.47924                      89.33610
                      -3.98521                       0.63593                      89.09679
                      -4.29064                       0.75939                      88.91828
                      -4.64028                       0.84185                      88.81178
                      -5.01217                       0.87814                      88.78398
                      -5.38295                       0.86598                      88.83663
                      -5.72931                       0.80613                      88.96643
                      -6.02948                       0.70235                      89.16522
                      -6.26462                       0.56117                      89.42050
                      -6.41995                       0.39144                      89.71624
                      -6.48570                       0.20385                      90.03386
                      -6.45774                       0.01016                      90.35339
                      -6.33784                      -0.17743                      90.65476
                      -6.13352                      -0.34716                      90.91903
                      -5.85762                      -0.48834                      91.12961
                      -5.52749                      -0.59212                      91.27325
                      -5.16385                      -0.65197                      91.34093
                      -4.78956                      -0.66413                      91.32840
                      -4.42815                      -0.62784                      91.23645
                      -4.10231                      -0.54538                      91.07085
                      -3.83252                      -0.42192                      90.84201
                      -3.63574                      -0.26523                      90.56431
                      -3.52432                      -0.08515                      90.25520
                      -3.51535                       0.21401                      89.99983
                      -3.58908                       0.40414                      89.69021
                      -3.75076                       0.58232                      89.40815
                      -3.99022                       0.73736                      89.17136
                      -4.29243                       0.85951                      88.99473
                      -4.63838                       0.94111                      88.88935
                      -5.00635                       0.97702                      88.86185
                      -5.37322                       0.96498                      88.91395
                      -5.71592                       0.90576                      89.04238
                      -6.01294                       0.80308                      89.23907
                      -6.24560                       0.66338                      89.49166
                      -6.39928                       0.49545                      89.78428
                      -6.46434                       0.30983                      90.09855
                      -6.43668                       0.11819                      90.41471
                      -6.31804                      -0.06743                      90.71290
                      -6.11588                      -0.23536                      90.97439
                      -5.84289                      -0.37506                      91.18274
                      -5.51623                      -0.47774                      91.32487
                      -5.15643                      -0.53696                      91.39184
                      -4.78609                      -0.54900                      91.37944
                      -4.42849                      -0.51309                      91.28846
                      -4.10609                      -0.43149                      91.12461
                      -3.83914                      -0.30934                      90.89818
                      -3.64443                      -0.15430                      90.62341
                      -3.53419                       0.02388                      90.31755
                      -3.53626                       0.32102                      90.06652
                      -3.60867                       0.50772                      89.76248
                      -3.76743                       0.68269                      89.48550
                      -4.00258                       0.83493                      89.25298
                      -4.29934                       0.95489                      89.07953
                      -4.63906                       1.03501                      88.97605
                      -5.00040                       1.07027                      88.94904
                      -5.36066                       1.05846                      89.00021
                      -5.69719                       1.00030                      89.12632
                      -5.98885                       0.89947                      89.31947
                      -6.21732                       0.76229                      89.56751
                      -6.36824                       0.59738                      89.85486
                      -6.43212                       0.41511                      90.16346
                      -6.40496                       0.22692                      90.47392
                      -6.28846                       0.04465                      90.76674
                      -6.08993                      -0.12026                      91.02352
                      -5.82187                      -0.25744                      91.22812
                      -5.50110                      -0.35827                      91.36768
                      -5.14778                      -0.41643                      91.43344
                      -4.78411                      -0.42824                      91.42127
                      -4.43295                      -0.39298                      91.33193
                      -4.11636                      -0.31285                      91.17103
                      -3.85423                      -0.19290                      90.94868
                      -3.66303                      -0.04066                      90.67886
                      -3.55477                       0.13431                      90.37852
                      -3.56864                       0.42802                      90.13422
                      -3.63914                       0.60982                      89.83816
                      -3.79374                       0.78019                      89.56846
                      -4.02271                       0.92844                      89.34205
                      -4.31167                       1.04524                      89.17315
                      -4.64247                       1.12326                      89.07239
                      -4.99432                       1.15760                      89.04610
                      -5.34511                       1.14609                      89.09591
                      -5.67280                       1.08946                      89.21872
                      -5.95680                       0.99128                      89.40679
                      -6.17926                       0.85770                      89.64831
                      -6.32622                       0.69713                      89.92811
                      -6.38842                       0.51964                      90.22860
                      -6.36197                       0.33640                      90.53091
                      -6.24853                       0.15892                      90.81604
                      -6.05522                      -0.00166                      91.06607
                      -5.79420                      -0.13524                      91.26529
                      -5.48186                      -0.23342                      91.40119
                      -5.13782                      -0.29005                      91.46523
                      -4.78371                      -0.30155                      91.45337
                      -4.44177                      -0.26722                      91.36638
                      -4.13350                      -0.18920                      91.20970
                      -3.87825                      -0.07239                      90.99320
                      -3.69208                       0.07585                      90.73047
                      -3.58666                       0.24622                      90.43801
                      -3.61344                       0.53503                      90.20300
                      -3.68142                       0.71031                      89.91754
                      -3.83048                       0.87459                      89.65749
                      -4.05126                       1.01753                      89.43918
                      -4.32988                       1.13015                      89.27634
                      -4.64883                       1.20538                      89.17918
                      -4.98808                       1.23848                      89.15383
                      -5.32632                       1.22739                      89.20186
                      -5.64228                       1.17279                      89.32027
                      -5.91611                       1.07812                      89.50161
                      -6.13061                       0.94933                      89.73448
                      -6.27230                       0.79450                      90.00427
                      -6.33228                       0.62337                      90.29400
                      -6.30678                       0.44669                      90.58549
                      -6.19740                       0.27555                      90.86041
                      -6.01101                       0.12073                      91.10149
                      -5.75933                      -0.00807                      91.29358
                      -5.45817                      -0.10274                      91.42462
                      -5.12645                      -0.15734                      91.48636
                      -4.78501                      -0.16843                      91.47493
                      -4.45532                      -0.13532                      91.39105
                      -4.15808                      -0.06010                      91.23999
                      -3.91197                       0.05252                      91.03123
                      -3.73246                       0.19546                      90.77790
                      -3.63082                       0.35974                      90.49592
                      -3.67212                       0.64203                      90.27299
                      -3.73688                       0.80902                      90.00105
                      -3.87888                       0.96552                      89.75331
                      -4.08920                       1.10169                      89.54533
                      -4.35463                       1.20898                      89.39020
                      -4.65849                       1.28065                      89.29764
                      -4.98168                       1.31219                      89.27349
                      -5.30390                       1.30162                      89.31925
                      -5.60491                       1.24961                      89.43205
                      -5.86578                       1.15942                      89.60480
                      -6.07013                       1.03672                      89.82666
                      -6.20511                       0.88922                      90.08367
                      -6.26225                       0.72619                      90.35969
                      -6.23796                       0.55787                      90.63738
                      -6.13375                       0.39484                      90.89928
                      -5.95619                       0.24734                      91.12895
                      -5.71642                       0.12465                      91.31195
                      -5.42952                       0.03446                      91.43678
                      -5.11350                      -0.01756                      91.49560
                      -4.78823                      -0.02813                      91.48471
                      -4.47414                       0.00341                      91.40480
                      -4.19097                       0.07508                      91.26089
                      -3.95651                       0.18237                      91.06202
                      -3.78550                       0.31854                      90.82068
                      -3.68867                       0.47504                      90.55205
                      -3.74687                       0.74904                      90.34439
                      -3.80760                       0.90565                      90.08934
                      -3.94079                       1.05243                      89.85699
                      -4.13805                       1.18015                      89.66193
                      -4.38699                       1.28077                      89.51643
                      -4.67197                       1.34799                      89.42963
                      -4.97509                       1.37757                      89.40697
                      -5.27730                       1.36765                      89.44989
                      -5.55960                       1.31887                      89.55568
                      -5.80427                       1.23428                      89.71771
                      -5.99592                       1.11921                      89.92578
                      -6.12253                       0.98087                      90.16683
                      -6.17612                       0.82797                      90.42570
                      -6.15333                       0.67011                      90.68614
                      -6.05560                       0.51720                      90.93178
                      -5.88907                       0.37887                      91.14718
                      -5.66419                       0.26379                      91.31882
                      -5.39511                       0.17920                      91.43589
                      -5.09872                       0.13042                      91.49106
                      -4.79365                       0.12051                      91.48085
                      -4.49907                       0.15009                      91.40590
                      -4.23349                       0.21730                      91.27093
                      -4.01360                       0.31793                      91.08441
                      -3.85320                       0.44564                      90.85806
                      -3.76239                       0.59242                      90.60611
                      -3.84117                       0.85604                      90.41750
                      -3.89691                       0.99976                      90.18345
                      -4.01912                       1.13446                      89.97023
                      -4.20014                       1.25165                      89.79123
                      -4.42859                       1.34400                      89.65771
                      -4.69011                       1.40568                      89.57805
                      -4.96827                       1.43282                      89.55726
                      -5.24559                       1.42372                      89.59665
                      -5.50465                       1.37896                      89.69373
                      -5.72917                       1.30134                      89.84242
                      -5.90505                       1.19573                      90.03336
                      -6.02122                       1.06879                      90.25456
                      -6.07040                       0.92847                      90.49212
                      -6.04949                       0.78361                      90.73112
                      -5.95981                       0.64330                      90.95653
                      -5.80699                       0.51635                      91.15420
                      -5.60063                       0.41075                      91.31170
                      -5.35370                       0.33312                      91.41913
                      -5.08171                       0.28836                      91.46976
                      -4.80176                       0.27926                      91.46038
                      -4.53144                       0.30641                      91.39161
                      -4.28773                       0.36809                      91.26775
                      -4.08594                       0.46043                      91.09659
                      -3.93875                       0.57763                      90.88888
                      -3.85542                       0.71232                      90.65767
                      -3.96094                       0.96305                      90.49284
                      -4.01040                       1.09059                      90.28514
                      -4.11885                       1.21012                      90.09593
                      -4.27949                       1.31412                      89.93708
                      -4.48222                       1.39606                      89.81859
                      -4.71429                       1.45080                      89.74790
                      -4.96113                       1.47489                      89.72946
                      -5.20723                       1.46682                      89.76441
                      -5.43713                       1.42709                      89.85056
                      -5.63637                       1.35821                      89.98250
                      -5.79245                       1.26449                      90.15195
                      -5.89554                       1.15184                      90.34824
                      -5.93918                       1.02732                      90.55906
                      -5.92063                       0.89877                      90.77114
                      -5.84104                       0.77425                      90.97118
                      -5.70543                       0.66160                      91.14659
                      -5.52230                       0.56789                      91.28636
                      -5.30317                       0.49900                      91.38170
                      -5.06181                       0.45928                      91.42662
                      -4.81338                       0.45121                      91.41831
                      -4.57349                       0.47529                      91.35727
                      -4.35722                       0.53003                      91.24736
                      -4.17815                       0.61197                      91.09547
                      -4.04753                       0.71598                      90.91114
                      -3.97358                       0.83551                      90.70597
                      -4.11769                       1.07005                      90.57141
                      -4.15902                       1.17664                      90.39784
                      -4.24966                       1.27653                      90.23971
                      -4.38391                       1.36345                      90.10696
                      -4.55333                       1.43193                      90.00794
                      -4.74727                       1.47767                      89.94886
                      -4.95356                       1.49780                      89.93344
                      -5.15923                       1.49106                      89.96265
                      -5.35136                       1.45786                      90.03465
                      -5.51787                       1.40029                      90.14492
                      -5.64830                       1.32197                      90.28652
                      -5.73446                       1.22783                      90.45057
                      -5.77093                       1.12377                      90.62675
                      -5.75542                       1.01633                      90.80400
                      -5.68891                       0.91228                      90.97117
                      -5.57557                       0.81813                      91.11776
                      -5.42253                       0.73981                      91.23457
                      -5.23941                       0.68225                      91.31424
                      -5.03770                       0.64905                      91.35179
                      -4.83008                       0.64230                      91.34484
                      -4.62960                       0.66243                      91.29383
                      -4.44886                       0.70818                      91.20197
                      -4.29921                       0.77666                      91.07504
                      -4.19005                       0.86357                      90.92100
                      -4.12825                       0.96346                      90.74953
                      -4.34086                       1.17706                      90.65580
                      -4.37074                       1.25412                      90.53030
                      -4.43627                       1.32634                      90.41598
                      -4.53333                       1.38918                      90.32000
                      -4.65582                       1.43869                      90.24841
                      -4.79605                       1.47177                      90.20570
                      -4.94520                       1.48632                      90.19455
                      -5.09389                       1.48144                      90.21567
                      -5.23280                       1.45744                      90.26772
                      -5.35319                       1.41582                      90.34744
                      -5.44749                       1.35920                      90.44982
                      -5.50978                       1.29113                      90.56843
                      -5.53615                       1.21589                      90.69581
                      -5.52494                       1.13822                      90.82396
                      -5.47685                       1.06298                      90.94482
                      -5.39491                       0.99492                      91.05081
                      -5.28426                       0.93829                      91.13526
                      -5.15186                       0.89667                      91.19286
                      -5.00602                       0.87267                      91.22001
                      -4.85592                       0.86779                      91.21498
                      -4.71097                       0.88235                      91.17811
                      -4.58030                       0.91542                      91.11169
                      -4.47210                       0.96493                      91.01992
                      -4.39318                       1.02777                      90.90855
                      -4.34850                       1.09999                      90.78458
                      -4.93242                       1.28406                      90.77241
                      -4.93242                       1.28406                      90.77241
                      -4.93242                       1.28406                      90.77241
                      -4.93242                       1.28406                      90.77241
                      -4.93242                       1.28406                      90.77241
                      -4.93242                       1.28406                      90.77241
                      -4.93242                       1.28406                      90.77241
                      -4.93242                       1.28406                      90.77241
                      -4.93242                       1.28406                      90.77241
                      -4.93242                       1.28406                      90.77241
                      -4.93242                       1.28406                      90.77241
                      -4.93242                       1.28406                      90.77241
                      -4.93242                       1.28406                      90.77241
                      -4.93242                       1.28406                      90.77241
                      -4.93242                       1.28406                      90.77241
                      -4.93242                       1.28406                      90.77241
                      -4.93242                       1.28406                      90.77241
                      -4.93242                       1.28406                      90.77241
                      -4.93242                       1.28406                      90.77241
                      -4.93242                       1.28406                      90.77241
                      -4.93242                       1.28406                      90.77241
                      -4.93242                       1.28406                      90.77241
                      -4.93242                       1.28406                      90.77241
                      -4.93242                       1.28406                      90.77241
                      -4.93242                       1.28406                      90.77241
        </DataArray>
      </Points>
      <Polys>
        <DataArray type="Int32" Name="connectivity" format="ascii">
      0      1     26     25
      1      2     27     26
      2      3     28     27
      3      4     29     28
      4      5     30     29
      5      6     31     30
      6      7     32     31
      7      8     33     32
      8      9     34     33
      9     10     35     34
     10     11     36     35
     11     12     37     36
     12     13     38     37
     13     14     39     38
     14     15     40     39
     15     16     41     40
     16     17     42     41
     17     18     43     42
     18     19     44     43
     19     20     45     44
     20     21     46     45
     21     22     47     46
     22     23     48     47
     23     24     49     48
     24      0     25     49
     25     26     51     50
     26     27     52     51
     27     28     53     52
     28     29     54     53
     29     30     55     54
     30     31     56     55
     31     32     57     56
     32     33     58     57
     33     34     59     58
     34     35     60     59
     35     36     61     60
     36     37     62     61
     37     38     63     62
     38     39     64     63
     39     40     65     64
     40     41     66     65
     41     42     67     66
     42     43     68     67
     43     44     69     68
     44     45     70     69
     45     46     71     70
     46     47     72     71
     47     48     73     72
     48     49     74     73
     49     25     50     74
     50     51     76     75
     51     52     77     76
     52     53     78     77
     53     54     79     78
     54     55     80     79
     55     56     81     80
     56     57     82     81
     57     58     83     82
     58     59     84     83
     59     60     85     84
     60     61     86     85
     61     62     87     86
     62     63     88     87
     63     64     89     88
     64     65     90     89
     65     66     91     90
     66     67     92     91
     67     68     93     92
     68     69     94     93
     69     70     95     94
     70     71     96     95
     71     72     97     96
     72     73     98     97
     73     74     99     98
     74     50     75     99
     75     76    101    100
     76     77    102    101
     77     78    103    102
     78     79    104    103
     79     80    105    104
     80     81    106    105
     81     82    107    106
     82     83    108    107
     83     84    109    108
     84     85    110    109
     85     86    111    110
     86     87    112    111
     87     88    113    112
     88     89    114    113
     89     90    115    114
     90     91    116    115
     91     92    117    116
     92     93    118    117
     93     94    119    118
     94     95    120    119
     95     96    121    120
     96     97    122    121
     97     98    123    122
     98     99    124    123
     99     75    100    124
    100    101    126    125
    101    102    127    126
    102    103    128    127
    103    104    129    128
    104    105    130    129
    105    106    131    130
    106    107    132    131
    107    108    133    132
    108    109    134    133
    109    110    135    134
    110    111    136    135
    111    112    137    136
    112    113    138    137
    113    114    139    138
    114    115    140    139
    115    116    141    140
    116    117    142    141
    117    118    143    142
    118    119    144    143
    119    120    145    144
    120    121    146    145
    121    122    147    146
    122    123    148    147
    123    124    149    148
    124    100    125    149
    125    126    151    150
    126    127    152    151
    127    128    153    152
    128    129    154    153
    129    130    155    154
    130    131    156    155
    131    132    157    156
    132    133    158    157
    133    134    159    158
    134    135    160    159
    135    136    161    160
    136    137    162    161
    137    138    163    162
    138    139    164    163
    139    140    165    164
    140    141    166    165
    141    142    167    166
    142    143    168    167
    143    144    169    168
    144    145    170    169
    145    146    171    170
    146    147    172    171
    147    148    173    172
    148    149    174    173
    149    125    150    174
    150    151    176    175
    151    152    177    176
    152    153    178    177
    153    154    179    178
    154    155    180    179
    155    156    181    180
    156    157    182    181
    157    158    183    182
    158    159    184    183
    159    160    185    184
    160    161    186    185
    161    162    187    186
    162    163    188    187
    163    164    189    188
    164    165    190    189
    165    166    191    190
    166    167    192    191
    167    168    193    192
    168    169    194    193
    169    170    195    194
    170    171    196    195
    171    172    197    196
    172    173    198    197
    173    174    199    198
    174    150    175    199
    175    176    201    200
    176    177    202    201
    177    178    203    202
    178    179    204    203
    179    180    205    204
    180    181    206    205
    181    182    207    206
    182    183    208    207
    183    184    209    208
    184    185    210    209
    185    186    211    210
    186    187    212    211
    187    188    213    212
    188    189    214    213
    189    190    215    214
    190    191    216    215
    191    192    217    216
    192    193    218    217
    193    194    219    218
    194    195    220    219
    195    196    221    220
    196    197    222    221
    197    198    223    222
    198    199    224    223
    199    175    200    224
    200    201    226    225
    201    202    227    226
    202    203    228    227
    203    204    229    228
    204    205    230    229
    205    206    231    230
    206    207    232    231
    207    208    233    232
    208    209    234    233
    209    210    235    234
    210    211    236    235
    211    212    237    236
    212    213    238    237
    213    214    239    238
    214    215    240    239
    215    216    241    240
    216    217    242    241
    217    218    243    242
    218    219    244    243
    219    220    245    244
    220    221    246    245
    221    222    247    246
    222    223    248    247
    223    224    249    248
    224    200    225    249
    225    226    251    250
    226    227    252    251
    227    228    253    252
    228    229    254    253
    229    230    255    254
    230    231    256    255
    231    232    257    256
    232    233    258    257
    233    234    259    258
    234    235    260    259
    235    236    261    260
    236    237    262    261
    237    238    263    262
    238    239    264    263
    239    240    265    264
    240    241    266    265
    241    242    267    266
    242    243    268    267
    243    244    269    268
    244    245    270    269
    245    246    271    270
    246    247    272    271
    247    248    273    272
    248    249    274    273
    249    225    250    274
    250    251    276    275
    251    252    277    276
    252    253    278    277
    253    254    279    278
    254    255    280    279
    255    256    281    280
    256    257    282    281
    257    258    283    282
    258    259    284    283
    259    260    285    284
    260    261    286    285
    261    262    287    286
    262    263    288    287
    263    264    289    288
    264    265    290    289
    265    266    291    290
    266    267    292    291
    267    268    293    292
    268    269    294    293
    269    270    295    294
    270    271    296    295
    271    272    297    296
    272    273    298    297
    273    274    299    298
    274    250    275    299
    275    276    301    300
    276    277    302    301
    277    278    303    302
    278    279    304    303
    279    280    305    304
    280    281    306    305
    281    282    307    306
    282    283    308    307
    283    284    309    308
    284    285    310    309
    285    286    311    310
    286    287    312    311
    287    288    313    312
    288    289    314    313
    289    290    315    314
    290    291    316    315
    291    292    317    316
    292    293    318    317
    293    294    319    318
    294    295    320    319
    295    296    321    320
    296    297    322    321
    297    298    323    322
    298    299    324    323
    299    275    300    324
    300    301    326    325
    301    302    327    326
    302    303    328    327
    303    304    329    328
    304    305    330    329
    305    306    331    330
    306    307    332    331
    307    308    333    332
    308    309    334    333
    309    310    335    334
    310    311    336    335
    311    312    337    336
    312    313    338    337
    313    314    339    338
    314    315    340    339
    315    316    341    340
    316    317    342    341
    317    318    343    342
    318    319    344    343
    319    320    345    344
    320    321    346    345
    321    322    347    346
    322    323    348    347
    323    324    349    348
    324    300    325    349
    325    326    351    350
    326    327    352    351
    327    328    353    352
    328    329    354    353
    329    330    355    354
    330    331    356    355
    331    332    357    356
    332    333    358    357
    333    334    359    358
    334    335    360    359
    335    336    361    360
    336    337    362    361
    337    338    363    362
    338    339    364    363
    339    340    365    364
    340    341    366    365
    341    342    367    366
    342    343    368    367
    343    344    369    368
    344    345    370    369
    345    346    371    370
    346    347    372    371
    347    348    373    372
    348    349    374    373
    349    325    350    374
    350    351    376    375
    351    352    377    376
    352    353    378    377
    353    354    379    378
    354    355    380    379
    355    356    381    380
    356    357    382    381
    357    358    383    382
    358    359    384    383
    359    360    385    384
    360    361    386    385
    361    362    387    386
    362    363    388    387
    363    364    389    388
    364    365    390    389
    365    366    391    390
    366    367    392    391
    367    368    393    392
    368    369    394    393
    369    370    395    394
    370    371    396    395
    371    372    397    396
    372    373    398    397
    373    374    399    398
    374    350    375    399
    375    376    401    400
    376    377    402    401
    377    378    403    402
    378    379    404    403
    379    380    405    404
    380    381    406    405
    381    382    407    406
    382    383    408    407
    383    384    409    408
    384    385    410    409
    385    386    411    410
    386    387    412    411
    387    388    413    412
    388    389    414    413
    389    390    415    414
    390    391    416    415
    391    392    417    416
    392    393    418    417
    393    394    419    418
    394    395    420    419
    395    396    421    420
    396    397    422    421
    397    398    423    422
    398    399    424    423
    399    375    400    424
    400    401    426    425
    401    402    427    426
    402    403    428    427
    403    404    429    428
    404    405    430    429
    405    406    431    430
    406    407    432    431
    407    408    433    432
    408    409    434    433
    409    410    435    434
    410    411    436    435
    411    412    437    436
    412    413    438    437
    413    414    439    438
    414    415    440    439
    415    416    441    440
    416    417    442    441
    417    418    443    442
    418    419    444    443
    419    420    445    444
    420    421    446    445
    421    422    447    446
    422    423    448    447
    423    424    449    448
    424    400    425    449
    425    426    451    450
    426    427    452    451
    427    428    453    452
    428    429    454    453
    429    430    455    454
    430    431    456    455
    431    432    457    456
    432    433    458    457
    433    434    459    458
    434    435    460    459
    435    436    461    460
    436    437    462    461
    437    438    463    462
    438    439    464    463
    439    440    465    464
    440    441    466    465
    441    442    467    466
    442    443    468    467
    443    444    469    468
    444    445    470    469
    445    446    471    470
    446    447    472    471
    447    448    473    472
    448    449    474    473
    449    425    450    474
    450    451    476    475
    451    452    477    476
    452    453    478    477
    453    454    479    478
    454    455    480    479
    455    456    481    480
    456    457    482    481
    457    458    483    482
    458    459    484    483
    459    460    485    484
    460    461    486    485
    461    462    487    486
    462    463    488    487
    463    464    489    488
    464    465    490    489
    465    466    491    490
    466    467    492    491
    467    468    493    492
    468    469    494    493
    469    470    495    494
    470    471    496    495
    471    472    497    496
    472    473    498    497
    473    474    499    498
    474    450    475    499
    475    476    501    500
    476    477    502    501
    477    478    503    502
    478    479    504    503
    479    480    505    504
    480    481    506    505
    481    482    507    506
    482    483    508    507
    483    484    509    508
    484    485    510    509
    485    486    511    510
    486    487    512    511
    487    488    513    512
    488    489    514    513
    489    490    515    514
    490    491    516    515
    491    492    517    516
    492    493    518    517
    493    494    519    518
    494    495    520    519
    495    496    521    520
    496    497    522    521
    497    498    523    522
    498    499    524    523
    499    475    500    524
    500    501    526    525
    501    502    527    526
    502    503    528    527
    503    504    529    528
    504    505    530    529
    505    506    531    530
    506    507    532    531
    507    508    533    532
    508    509    534    533
    509    510    535    534
    510    511    536    535
    511    512    537    536
    512    513    538    537
    513    514    539    538
    514    515    540    539
    515    516    541    540
    516    517    542    541
    517    518    543    542
    518    519    544    543
    519    520    545    544
    520    521    546    545
    521    522    547    546
    522    523    548    547
    523    524    549    548
    524    500    525    549
    525    526    551    550
    526    527    552    551
    527    528    553    552
    528    529    554    553
    529    530    555    554
    530    531    556    555
    531    532    557    556
    532    533    558    557
    533    534    559    558
    534    535    560    559
    535    536    561    560
    536    537    562    561
    537    538    563    562
    538    539    564    563
    539    540    565    564
    540    541    566    565
    541    542    567    566
    542    543    568    567
    543    544    569    568
    544    545    570    569
    545    546    571    570
    546    547    572    571
    547    548    573    572
    548    549    574    573
    549    525    550    574
    550    551    576    575
    551    552    577    576
    552    553    578    577
    553    554    579    578
    554    555    580    579
    555    556    581    580
    556    557    582    581
    557    558    583    582
    558    559    584    583
    559    560    585    584
    560    561    586    585
    561    562    587    586
    562    563    588    587
    563    564    589    588
    564    565    590    589
    565    566    591    590
    566    567    592    591
    567    568    593    592
    568    569    594    593
    569    570    595    594
    570    571    596    595
    571    572    597    596
    572    573    598    597
    573    574    599    598
    574    550    575    599
    575    576    601    600
    576    577    602    601
    577    578    603    602
    578    579    604    603
    579    580    605    604
    580    581    606    605
    581    582    607    606
    582    583    608    607
    583    584    609    608
    584    585    610    609
    585    586    611    610
    586    587    612    611
    587    588    613    612
    588    589    614    613
    589    590    615    614
    590    591    616    615
    591    592    617    616
    592    593    618    617
    593    594    619    618
    594    595    620    619
    595    596    621    620
    596    597    622    621
    597    598    623    622
    598    599    624    623
    599    575    600    624
        </DataArray>
        <DataArray type="Int32" Name="offsets" format="ascii">
      4
      8
     12
     16
     20
     24
     28
     32
     36
     40
     44
     48
     52
     56
     60
     64
     68
     72
     76
     80
     84
     88
     92
     96
    100
    104
    108
    112
    116
    120
    124
    128
    132
    136
    140
    144
    148
    152
    156
    160
    164
    168
    172
    176
    180
    184
    188
    192
    196
    200
    204
    208
    212
    216
    220
    224
    228
    232
    236
    240
    244
    248
    252
    256
    260
    264
    268
    272
    276
    280
    284
    288
    292
    296
    300
    304
    308
    312
    316
    320
    324
    328
    332
    336
    340
    344
    348
    352
    356
    360
    364
    368
    372
    376
    380
    384
    388
    392
    396
    400
    404
    408
    412
    416
    420
    424
    428
    432
    436
    440
    444
    448
    452
    456
    460
    464
    468
    472
    476
    480
    484
    488
    492
    496
    500
    504
    508
    512
    516
    520
    524
    528
    532
    536
    540
    544
    548
    552
    556
    560
    564
    568
    572
    576
    580
    584
    588
    592
    596
    600
    604
    608
    612
    616
    620
    624
    628
    632
    636
    640
    644
    648
    652
    656
    660
    664
    668
    672
    676
    680
    684
    688
    692
    696
    700
    704
    708
    712
    716
    720
    724
    728
    732
    736
    740
    744
    748
    752
    756
    760
    764
    768
    772
    776
    780
    784
    788
    792
    796
    800
    804
    808
    812
    816
    820
    824
    828
    832
    836
    840
    844
    848
    852
    856
    860
    864
    868
    872
    876
    880
    884
    888
    892
    896
    900
    904
    908
    912
    916
    920
    924
    928
    932
    936
    940
    944
    948
    952
    956
    960
    964
    968
    972
    976
    980
    984
    988
    992
    996
   1000
   1004
   1008
   1012
   1016
   1020
   1024
   1028
   1032
   1036
   1040
   1044
   1048
   1052
   1056
   1060
   1064
   1068
   1072
   1076
   1080
   1084
   1088
   1092
   1096
   1100
   1104
   1108
   1112
   1116
   1120
   1124
   1128
   1132
   1136
   1140
   1144
   1148
   1152
   1156
   1160
   1164
   1168
   1172
   1176
   1180
   1184
   1188
   1192
   1196
   1200
   1204
   1208
   1212
   1216
   1220
   1224
   1228
   1232
   1236
   1240
   1244
   1248
   1252
   1256
   1260
   1264
   1268
   1272
   1276
   1280
   1284
   1288
   1292
   1296
   1300
   1304
   1308
   1312
   1316
   1320
   1324
   1328
   1332
   1336
   1340
   1344
   1348
   1352
   1356
   1360
   1364
   1368
   1372
   1376
   1380
   1384
   1388
   1392
   1396
   1400
   1404
   1408
   1412
   1416
   1420
   1424
   1428
   1432
   1436
   1440
   1444
   1448
   1452
   1456
   1460
   1464
   1468
   1472
   1476
   1480
   1484
   1488
   1492
   1496
   1500
   1504
   1508
   1512
   1516
   1520
   1524
   1528
   1532
   1536
   1540
   1544
   1548
   1552
   1556
   1560
   1564
   1568
   1572
   1576
   1580
   1584
   1588
   1592
   1596
   1600
   1604
   1608
   1612
   1616
   1620
   1624
   1628
   1632
   1636
   1640
   1644
   1648
   1652
   1656
   1660
   1664
   1668
   1672
   1676
   1680
   1684
   1688
   1692
   1696
   1700
   1704
   1708
   1712
   1716
   1720
   1724
   1728
   1732
   1736
   1740
   1744
   1748
   1752
   1756
   1760
   1764
   1768
   1772
   1776
   1780
   1784
   1788
   1792
   1796
   1800
   1804
   1808
   1812
   1816
   1820
   1824
   1828
   1832
   1836
   1840
   1844
   1848
   1852
   1856
   1860
   1864
   1868
   1872
   1876
   1880
   1884
   1888
   1892
   1896
   1900
   1904
   1908
   1912
   1916
   1920
   1924
   1928
   1932
   1936
   1940
   1944
   1948
   1952
   1956
   1960
   1964
   1968
   1972
   1976
   1980
   1984
   1988
   1992
   1996
   2000
   2004
   2008
   2012
   2016
   2020
   2024
   2028
   2032
   2036
   2040
   2044
   2048
   2052
   2056
   2060
   2064
   2068
   2072
   2076
   2080
   2084
   2088
   2092
   2096
   2100
   2104
   2108
   2112
   2116
   2120
   2124
   2128
   2132
   2136
   2140
   2144
   2148
   2152
   2156
   2160
   2164
   2168
   2172
   2176
   2180
   2184
   2188
   2192
   2196
   2200
   2204
   2208
   2212
   2216
   2220
   2224
   2228
   2232
   2236
   2240
   2244
   2248
   2252
   2256
   2260
   2264
   2268
   2272
   2276
   2280
   2284
   2288
   2292
   2296
   2300
   2304
   2308
   2312
   2316
   2320
   2324
   2328
   2332
   2336
   2340
   2344
   2348
   2352
   2356
   2360
   2364
   2368
   2372
   2376
   2380
   2384
   2388
   2392
   2396
   2400
        </DataArray>
      </Polys>
    </Piece>
  </PolyData>
</VTKFile>
