<?xml version="1.0"?>
<VTKFile type="PolyData" version="0.1" byte_order="LittleEndian">
  <PolyData>
    <Piece NumberOfPoints="     19" NumberOfVerts="  0" NumberOfLines="     18"
           NumberOfStrips="  0" NumberOfPolys="      0">
      <Points>
        <DataArray type="Float32" NumberOfComponents="3" format="ascii">
                      -4.98941                      -1.22062                      90.87177
                      -4.98068                      -2.33489                      91.66312
                      -4.99037                      -4.61813                      93.16928
                      -5.01090                      -6.92796                      94.63816
                      -5.03954                      -9.83220                      96.45039
                      -5.00155                     -13.23875                      98.73390
                      -4.91726                     -16.57394                     101.11691
                      -4.81877                     -19.91069                     103.49734
                      -4.70041                     -23.24783                     105.87647
                      -4.56004                     -26.58618                     108.25282
                      -4.39632                     -29.92743                     110.62361
                      -4.20582                     -33.27033                     112.99013
                      -3.98708                     -36.61443                     115.35256
                      -3.73930                     -39.95934                     117.71104
                      -3.46006                     -43.30475                     120.06533
                      -3.20277                     -46.09278                     122.02391
                      -2.98168                     -48.31862                     123.59505
                      -2.74431                     -50.51299                     125.20918
                      -2.62500                     -51.63396                     125.98144
        </DataArray>
      </Points>
      <PointData>
        <DataArray type="Float32" Name="TranslationalVelocity" NumberOfComponents="3" format="ascii">
                      -0.05570                      -0.45520                      -0.63668
                      -0.10656                      -0.86845                      -1.21798
                      -0.21078                      -1.65409                      -2.40962
                      -0.31624                      -2.42024                      -3.61591
                      -0.44890                      -3.36604                      -5.13395
                      -0.60461                      -4.56241                      -6.91662
                      -0.75711                      -5.81454                      -8.66423
                      -0.90971                      -7.06763                     -10.41494
                      -1.06227                      -8.32256                     -12.16806
                      -1.21477                      -9.57856                     -13.92388
                      -1.36719                     -10.83407                     -15.68310
                      -1.51943                     -12.08974                     -17.44481
                      -1.67141                     -13.34555                     -19.20855
                      -1.82307                     -14.60141                     -20.97386
                      -1.97441                     -15.85714                     -22.74037
                      -2.10029                     -16.90335                     -24.21315
                      -2.20065                     -17.74348                     -25.38927
                      -2.29943                     -18.60723                     -26.54902
                      -2.34994                     -19.02082                     -27.14155
        </DataArray>
        <DataArray type="Float32" Name="RotationalVelocity" NumberOfComponents="3" format="ascii">
                       0.52161                       0.00000                      -0.04563
                       0.52170                       0.00000                      -0.04564
                       0.52197                       0.00000                      -0.04565
                       0.52231                       0.00001                      -0.04567
                       0.52281                       0.00004                      -0.04570
                       0.52347                       0.00010                      -0.04576
                       0.52414                       0.00019                      -0.04584
                       0.52479                       0.00032                      -0.04592
                       0.52540                       0.00047                      -0.04600
                       0.52595                       0.00064                      -0.04607
                       0.52644                       0.00082                      -0.04613
                       0.52687                       0.00099                      -0.04617
                       0.52725                       0.00113                      -0.04617
                       0.52756                       0.00124                      -0.04614
                       0.52782                       0.00129                      -0.04609
                       0.52799                       0.00129                      -0.04602
                       0.52809                       0.00125                      -0.04596
                       0.52815                       0.00117                      -0.04589
                       0.52816                       0.00112                      -0.04586
        </DataArray>
        <DataArray type="Float32" Name="TranslationalAcceleration" NumberOfComponents="3" format="ascii">
                      -0.02077                       0.33464                      -0.23744
                      -0.02500                       0.40561                      -0.28596
                      -0.06944                       1.17795                      -0.79438
                      -0.10870                       1.90003                      -1.24546
                      -0.15256                       2.75527                      -1.75523
                      -0.20274                       3.71820                      -2.35160
                      -0.25140                       4.64993                      -2.94784
                      -0.29696                       5.59187                      -3.52942
                      -0.34007                       6.55490                      -4.10489
                      -0.38099                       7.54232                      -4.67688
                      -0.41981                       8.55174                      -5.24400
                      -0.45676                       9.57649                      -5.80404
                      -0.49219                      10.60881                      -6.35380
                      -0.52679                      11.64198                      -6.89098
                      -0.56170                      12.67265                      -7.41557
                      -0.59233                      13.53107                      -7.84561
                      -0.61904                      14.21968                      -8.19034
                      -0.65017                      14.90930                      -8.55210
                      -0.66580                      15.26447                      -8.72524
        </DataArray>
        <DataArray type="Float32" Name="OrientationX" NumberOfComponents="3" format="ascii">
                       0.99745                      -0.03553                      -0.06186
                       0.99745                      -0.03532                      -0.06202
                       0.99744                      -0.03467                      -0.06253
                       0.99743                      -0.03372                      -0.06329
                       0.99740                      -0.03220                      -0.06455
                       0.99734                      -0.02992                      -0.06651
                       0.99725                      -0.02717                      -0.06897
                       0.99712                      -0.02395                      -0.07194
                       0.99694                      -0.02023                      -0.07544
                       0.99671                      -0.01599                      -0.07949
                       0.99640                      -0.01122                      -0.08406
                       0.99600                      -0.00595                      -0.08910
                       0.99553                      -0.00028                      -0.09449
                       0.99497                       0.00564                      -0.10002
                       0.99436                       0.01154                      -0.10542
                       0.99385                       0.01619                      -0.10956
                       0.99347                       0.01952                      -0.11243
                       0.99315                       0.02232                      -0.11471
                       0.99302                       0.02346                      -0.11556
        </DataArray>
        <DataArray type="Float32" Name="OrientationY" NumberOfComponents="3" format="ascii">
                       0.07099                       0.58013                       0.81142
                       0.07100                       0.57999                       0.81153
                       0.07104                       0.57959                       0.81181
                       0.07111                       0.57909                       0.81215
                       0.07126                       0.57838                       0.81265
                       0.07156                       0.57747                       0.81327
                       0.07200                       0.57655                       0.81388
                       0.07259                       0.57569                       0.81444
                       0.07334                       0.57490                       0.81493
                       0.07424                       0.57421                       0.81533
                       0.07528                       0.57362                       0.81565
                       0.07642                       0.57313                       0.81590
                       0.07761                       0.57272                       0.81607
                       0.07880                       0.57238                       0.81619
                       0.07990                       0.57212                       0.81627
                       0.08067                       0.57195                       0.81631
                       0.08114                       0.57185                       0.81634
                       0.08144                       0.57178                       0.81636
                       0.08150                       0.57175                       0.81637
        </DataArray>
        <DataArray type="Float32" Name="OrientationZ" NumberOfComponents="3" format="ascii">
                       0.00706                      -0.81375                       0.58118
                       0.00730                      -0.81386                       0.58101
                       0.00810                      -0.81417                       0.58057
                       0.00926                      -0.81456                       0.58000
                       0.01116                      -0.81513                       0.57917
                       0.01407                      -0.81586                       0.57807
                       0.01765                      -0.81661                       0.57692
                       0.02191                      -0.81732                       0.57577
                       0.02688                      -0.81797                       0.57463
                       0.03260                      -0.81855                       0.57351
                       0.03907                      -0.81904                       0.57240
                       0.04621                      -0.81945                       0.57129
                       0.05389                      -0.81975                       0.57018
                       0.06185                      -0.81997                       0.56906
                       0.06973                      -0.82009                       0.56797
                       0.07588                      -0.82013                       0.56713
                       0.08023                      -0.82013                       0.56653
                       0.08381                      -0.82011                       0.56604
                       0.08523                      -0.82009                       0.56585
        </DataArray>
        <DataArray type="Float32" Name="Force" NumberOfComponents="3" format="ascii">
                      20.77646                       5.66446                       7.67877
                     442.91388                      21.72004                      24.83570
                     493.71350                      44.47631                      55.36587
                     384.34079                      50.26910                      64.22481
                    2703.30808                    -247.55604                    -399.49664
                    2699.94983                    -216.52671                    -370.01182
                    2898.76482                    -226.31227                    -407.08507
                    2624.47267                    -181.23724                    -355.18143
                    2392.83174                    -130.71463                    -296.38940
                    2443.59644                    -123.10831                    -312.72375
                    2286.19266                     -74.37460                    -261.17303
                    2292.21972                     -61.52268                    -272.24421
                    1964.20133                     -25.64013                    -221.60823
                    1936.83762                     -13.55744                    -229.09456
                    1900.67297                      -4.85870                    -239.25606
                    1907.34816                     -16.39397                    -277.09583
                    1851.69641                     -26.30291                    -297.98195
                    1381.41294                     -35.18266                    -253.12168
                    1190.95407                     -49.38233                    -248.21688
        </DataArray>
        <DataArray type="Float32" Name="Moment" NumberOfComponents="3" format="ascii">
                       0.00000                       0.00000                       0.00000
                       0.00000                       0.00000                       0.00000
                       0.00000                       0.00000                       0.00000
                       0.00000                       0.00000                       0.00000
                     -23.93302                    1721.50012                   -1228.71141
                     -31.99653                    1820.69512                   -1298.92649
                     -38.53046                    1746.48022                   -1245.29409
                     -46.65944                    1704.26696                   -1214.40207
                     -53.44478                    1592.15075                   -1133.64972
                     -59.94405                    1474.16025                   -1048.72252
                     -59.50020                    1222.81879                    -869.06203
                     -64.06574                    1114.61277                    -791.29953
                     -66.60312                     994.82062                    -705.43083
                     -67.85257                     883.80413                    -625.94907
                     -66.77133                     772.01028                    -546.11543
                     -63.82495                     678.43140                    -479.46796
                     -56.58758                     569.00945                    -401.86873
                     -28.16477                     271.15054                    -191.39794
                     -15.27021                     144.57596                    -102.03019
        </DataArray>
      </PointData>
      <Lines>
        <DataArray type="Int32" Name="connectivity" format="ascii">
      0      1
      1      2
      2      3
      3      4
      4      5
      5      6
      6      7
      7      8
      8      9
      9     10
     10     11
     11     12
     12     13
     13     14
     14     15
     15     16
     16     17
     17     18
        </DataArray>
        <DataArray type="Int32" Name="offsets" format="ascii">
      2
      4
      6
      8
     10
     12
     14
     16
     18
     20
     22
     24
     26
     28
     30
     32
     34
     36
        </DataArray>
      </Lines>
    </Piece>
  </PolyData>
</VTKFile>
