<?xml version="1.0"?>
<VTKFile type="PolyData" version="0.1" byte_order="LittleEndian">
  <PolyData>
    <Piece NumberOfPoints="    625" NumberOfVerts="  0" NumberOfLines="      0"
           NumberOfStrips="  0" NumberOfPolys="    600">
      <Points>
        <DataArray type="Float32" NumberOfComponents="3" format="ascii">
                      -4.87107                      -0.24822                      91.47369
                      -4.87107                      -0.24822                      91.47369
                      -4.87107                      -0.24822                      91.47369
                      -4.87107                      -0.24822                      91.47369
                      -4.87107                      -0.24822                      91.47369
                      -4.87107                      -0.24822                      91.47369
                      -4.87107                      -0.24822                      91.47369
                      -4.87107                      -0.24822                      91.47369
                      -4.87107                      -0.24822                      91.47369
                      -4.87107                      -0.24822                      91.47369
                      -4.87107                      -0.24822                      91.47369
                      -4.87107                      -0.24822                      91.47369
                      -4.87107                      -0.24822                      91.47369
                      -4.87107                      -0.24822                      91.47369
                      -4.87107                      -0.24822                      91.47369
                      -4.87107                      -0.24822                      91.47369
                      -4.87107                      -0.24822                      91.47369
                      -4.87107                      -0.24822                      91.47369
                      -4.87107                      -0.24822                      91.47369
                      -4.87107                      -0.24822                      91.47369
                      -4.87107                      -0.24822                      91.47369
                      -4.87107                      -0.24822                      91.47369
                      -4.87107                      -0.24822                      91.47369
                      -4.87107                      -0.24822                      91.47369
                      -4.87107                      -0.24822                      91.47369
                      -4.28462                      -0.22753                      91.29864
                      -4.30553                      -0.37456                      91.27570
                      -4.36265                      -0.51235                      91.25749
                      -4.45239                      -0.63225                      91.24515
                      -4.56912                      -0.72671                      91.23945
                      -4.70549                      -0.78981                      91.24075
                      -4.85294                      -0.81758                      91.24898
                      -5.00221                      -0.80827                      91.26360
                      -5.14391                      -0.76248                      91.28372
                      -5.26914                      -0.68307                      91.30805
                      -5.37004                      -0.57504                      91.33507
                      -5.44026                      -0.44517                      91.36309
                      -5.47539                      -0.30163                      91.39034
                      -5.47322                      -0.15343                      91.41511
                      -5.43389                      -0.00989                      91.43584
                      -5.35987                       0.11997                      91.45124
                      -5.25582                       0.22801                      91.46034
                      -5.12827                       0.30741                      91.46255
                      -4.98522                       0.35321                      91.45775
                      -4.83569                       0.36252                      91.44623
                      -4.68905                       0.33475                      91.42873
                      -4.55452                       0.27165                      91.40633
                      -4.44056                       0.17718                      91.38045
                      -4.35432                       0.05729                      91.35271
                      -4.30123                      -0.08050                      91.32486
                      -4.06656                      -0.20685                      91.15581
                      -4.09548                      -0.41021                      91.12409
                      -4.17449                      -0.60079                      91.09890
                      -4.29862                      -0.76662                      91.08183
                      -4.46006                      -0.89728                      91.07395
                      -4.64868                      -0.98455                      91.07575
                      -4.85263                      -1.02296                      91.08713
                      -5.05908                      -1.01009                      91.10736
                      -5.25507                      -0.94675                      91.13517
                      -5.42829                      -0.83692                      91.16883
                      -5.56784                      -0.68749                      91.20620
                      -5.66496                      -0.50787                      91.24495
                      -5.71354                      -0.30934                      91.28264
                      -5.71055                      -0.10436                      91.31691
                      -5.65615                       0.09418                      91.34559
                      -5.55378                       0.27380                      91.36688
                      -5.40986                       0.42322                      91.37946
                      -5.23343                       0.53305                      91.38252
                      -5.03559                       0.59639                      91.37588
                      -4.82876                       0.60926                      91.35996
                      -4.62594                       0.57086                      91.33574
                      -4.43987                       0.48358                      91.30476
                      -4.28224                       0.35292                      91.26897
                      -4.16297                       0.18709                      91.23060
                      -4.08953                      -0.00349                      91.19208
                      -3.91492                      -0.18616                      91.01880
                      -3.94953                      -0.42950                      90.98084
                      -4.04407                      -0.65755                      90.95070
                      -4.19260                      -0.85598                      90.93027
                      -4.38578                      -1.01232                      90.92084
                      -4.61148                      -1.11675                      90.92300
                      -4.85552                      -1.16271                      90.93661
                      -5.10256                      -1.14731                      90.96082
                      -5.33708                      -1.07152                      90.99410
                      -5.54435                      -0.94009                      91.03437
                      -5.71133                      -0.76130                      91.07909
                      -5.82754                      -0.54636                      91.12546
                      -5.88568                      -0.30880                      91.17056
                      -5.88210                      -0.06353                      91.21156
                      -5.81701                       0.17404                      91.24588
                      -5.69451                       0.38897                      91.27136
                      -5.52229                       0.56777                      91.28641
                      -5.31119                       0.69919                      91.29008
                      -5.07445                       0.77498                      91.28213
                      -4.82696                       0.79038                      91.26307
                      -4.58427                       0.74443                      91.23410
                      -4.36162                       0.63999                      91.19703
                      -4.17301                       0.48365                      91.15420
                      -4.03028                       0.28522                      91.10829
                      -3.94241                       0.05717                      91.06219
                      -3.80027                      -0.16548                      90.88502
                      -3.83927                      -0.43969                      90.84225
                      -3.94580                      -0.69667                      90.80828
                      -4.11317                      -0.92027                      90.78526
                      -4.33087                      -1.09645                      90.77464
                      -4.58521                      -1.21413                      90.77707
                      -4.86020                      -1.26592                      90.79240
                      -5.13859                      -1.24857                      90.81968
                      -5.40286                      -1.16316                      90.85719
                      -5.63642                      -1.01506                      90.90257
                      -5.82459                      -0.81358                      90.95296
                      -5.95555                      -0.57138                      91.00522
                      -6.02106                      -0.30367                      91.05604
                      -6.01702                      -0.02728                      91.10224
                      -5.94368                       0.24042                      91.14091
                      -5.80564                       0.48263                      91.16963
                      -5.61157                       0.68411                      91.18659
                      -5.37368                       0.83220                      91.19072
                      -5.10691                       0.91761                      91.18176
                      -4.82802                       0.93497                      91.16029
                      -4.55453                       0.88318                      91.12764
                      -4.30364                       0.76550                      91.08587
                      -4.09110                       0.58932                      91.03760
                      -3.93027                       0.36571                      90.98586
                      -3.83125                       0.10873                      90.93392
                      -3.71108                      -0.14479                      90.75347
                      -3.75358                      -0.44361                      90.70686
                      -3.86967                      -0.72365                      90.66985
                      -4.05206                      -0.96731                      90.64476
                      -4.28929                      -1.15930                      90.63318
                      -4.56644                      -1.28754                      90.63583
                      -4.86612                      -1.34397                      90.65254
                      -5.16948                      -1.32506                      90.68227
                      -5.45746                      -1.23199                      90.72314
                      -5.71198                      -1.07061                      90.77259
                      -5.91703                      -0.85105                      90.82751
                      -6.05974                      -0.58711                      90.88445
                      -6.13114                      -0.29539                      90.93983
                      -6.12673                       0.00580                      90.99018
                      -6.04680                       0.29753                      91.03232
                      -5.89638                       0.56146                      91.06362
                      -5.68490                       0.78102                      91.08209
                      -5.42567                       0.94240                      91.08660
                      -5.13496                       1.03548                      91.07684
                      -4.83104                       1.05439                      91.05344
                      -4.53302                       0.99795                      91.01786
                      -4.25962                       0.86971                      90.97234
                      -4.02800                       0.67773                      90.91974
                      -3.85274                       0.43406                      90.86336
                      -3.74484                       0.15402                      90.80675
                      -3.64144                      -0.12411                      90.62363
                      -3.68676                      -0.44271                      90.57393
                      -3.81054                      -0.74130                      90.53447
                      -4.00501                      -1.00110                      90.50772
                      -4.25794                      -1.20580                      90.49538
                      -4.55346                      -1.34253                      90.49820
                      -4.87298                      -1.40271                      90.51602
                      -5.19643                      -1.38254                      90.54771
                      -5.50349                      -1.28331                      90.59129
                      -5.77486                      -1.11124                      90.64402
                      -5.99349                      -0.87714                      90.70257
                      -6.14565                      -0.59572                      90.76329
                      -6.22177                      -0.28468                      90.82234
                      -6.21708                       0.03646                      90.87601
                      -6.13186                       0.34751                      90.92095
                      -5.97147                       0.62892                      90.95432
                      -5.74599                       0.86302                      90.97402
                      -5.46958                       1.03509                      90.97882
                      -5.15962                       1.13433                      90.96842
                      -4.83558                       1.15449                      90.94346
                      -4.51782                       1.09432                      90.90553
                      -4.22631                       0.95758                      90.85699
                      -3.97936                       0.75288                      90.80091
                      -3.79249                       0.49308                      90.74080
                      -3.67744                       0.19450                      90.68044
                      -3.58788                      -0.10342                      90.49520
                      -3.63545                      -0.43786                      90.44303
                      -3.76538                      -0.75128                      90.40161
                      -3.96951                      -1.02400                      90.37353
                      -4.23502                      -1.23887                      90.36057
                      -4.54521                      -1.38239                      90.36353
                      -4.88061                      -1.44556                      90.38224
                      -5.22014                      -1.42439                      90.41551
                      -5.54245                      -1.32023                      90.46125
                      -5.82731                      -1.13960                      90.51660
                      -6.05681                      -0.89387                      90.57806
                      -6.21653                      -0.59847                      90.64179
                      -6.29643                      -0.27197                      90.70378
                      -6.29150                       0.06512                      90.76012
                      -6.20205                       0.39163                      90.80729
                      -6.03369                       0.68702                      90.84231
                      -5.79700                       0.93275                      90.86300
                      -5.50686                       1.11338                      90.86803
                      -5.18150                       1.21755                      90.85711
                      -4.84136                       1.23871                      90.83092
                      -4.50781                       1.17555                      90.79110
                      -4.20181                       1.03202                      90.74015
                      -3.94259                       0.81715                      90.68128
                      -3.74643                       0.54443                      90.61819
                      -3.62567                       0.23101                      90.55483
                      -3.54819                      -0.08274                      90.36798
                      -3.59753                      -0.42959                      90.31387
                      -3.73228                      -0.75465                      90.27091
                      -3.94399                      -1.03749                      90.24179
                      -4.21935                      -1.26034                      90.22835
                      -4.54107                      -1.40919                      90.23142
                      -4.88892                      -1.47470                      90.25082
                      -5.24105                      -1.45275                      90.28533
                      -5.57533                      -1.34472                      90.33277
                      -5.87076                      -1.15739                      90.39017
                      -6.10878                      -0.90253                      90.45392
                      -6.27443                      -0.59617                      90.52001
                      -6.35730                      -0.25754                      90.58430
                      -6.35219                       0.09207                      90.64274
                      -6.25941                       0.43069                      90.69166
                      -6.08480                       0.73705                      90.72798
                      -5.83933                       0.99191                      90.74943
                      -5.53842                       1.17924                      90.75466
                      -5.20098                       1.28727                      90.74333
                      -4.84821                       1.30923                      90.71616
                      -4.50227                       1.24372                      90.67487
                      -4.18491                       1.09486                      90.62203
                      -3.91607                       0.87201                      90.56097
                      -3.71263                       0.58917                      90.49553
                      -3.58738                       0.26411                      90.42983
                      -3.52093                      -0.06205                      90.24184
                      -3.57159                      -0.41826                      90.18628
                      -3.70998                      -0.75209                      90.14216
                      -3.92740                      -1.04256                      90.11226
                      -4.21020                      -1.27142                      90.09845
                      -4.54059                      -1.42430                      90.10161
                      -4.89783                      -1.49157                      90.12153
                      -5.25945                      -1.46903                      90.15697
                      -5.60276                      -1.35808                      90.20569
                      -5.90616                      -1.16570                      90.26464
                      -6.15060                      -0.90397                      90.33011
                      -6.32072                      -0.58934                      90.39798
                      -6.40583                      -0.24157                      90.46400
                      -6.40058                       0.11747                      90.52402
                      -6.30530                       0.46523                      90.57426
                      -6.12598                       0.77986                      90.61156
                      -5.87388                       1.04159                      90.63359
                      -5.56485                       1.23397                      90.63896
                      -5.21830                       1.34492                      90.62732
                      -4.85601                       1.36747                      90.59943
                      -4.50075                       1.30019                      90.55701
                      -4.17483                       1.14732                      90.50275
                      -3.89873                       0.91845                      90.44005
                      -3.68980                       0.62798                      90.37284
                      -3.56117                       0.29416                      90.30536
                      -3.50512                      -0.04137                      90.11671
                      -3.55671                      -0.40412                      90.06013
                      -3.69765                      -0.74407                      90.01520
                      -3.91906                      -1.03987                      89.98475
                      -4.20704                      -1.27293                      89.97069
                      -4.54350                      -1.42861                      89.97390
                      -4.90729                      -1.49712                      89.99419
                      -5.27555                      -1.47416                      90.03028
                      -5.62515                      -1.36118                      90.07989
                      -5.93412                      -1.16526                      90.13992
                      -6.18305                      -0.89873                      90.20659
                      -6.35629                      -0.57833                      90.27572
                      -6.44296                      -0.22418                      90.34295
                      -6.43761                       0.14145                      90.40407
                      -6.34058                       0.49559                      90.45523
                      -6.15797                       0.81599                      90.49322
                      -5.90125                       1.08252                      90.51565
                      -5.58655                       1.27844                      90.52111
                      -5.23365                       1.39142                      90.50927
                      -4.86471                       1.41438                      90.48086
                      -4.50292                       1.34587                      90.43767
                      -4.17102                       1.19019                      90.38241
                      -3.88985                       0.95713                      90.31855
                      -3.67709                       0.66133                      90.25012
                      -3.54611                       0.32138                      90.18140
                      -3.50016                      -0.02068                      89.99253
                      -3.55231                      -0.38730                      89.93534
                      -3.69474                      -0.73087                      89.88994
                      -3.91851                      -1.02983                      89.85916
                      -4.20956                      -1.26537                      89.84495
                      -4.54960                      -1.42271                      89.84820
                      -4.91727                      -1.49195                      89.86870
                      -5.28946                      -1.46875                      89.90518
                      -5.64279                      -1.35456                      89.95532
                      -5.95505                      -1.15656                      90.01599
                      -6.20663                      -0.88718                      90.08337
                      -6.38172                      -0.56336                      90.15323
                      -6.46931                      -0.20545                      90.22118
                      -6.46391                       0.16408                      90.28295
                      -6.36585                       0.52200                      90.33465
                      -6.18129                       0.84581                      90.37305
                      -5.92183                       1.11519                      90.39572
                      -5.60378                       1.31319                      90.40124
                      -5.24711                       1.42738                      90.38927
                      -4.87424                       1.45058                      90.36056
                      -4.50860                       1.38134                      90.31690
                      -4.17316                       1.22400                      90.26106
                      -3.88900                       0.98846                      90.19652
                      -3.67397                       0.68950                      90.12736
                      -3.54158                       0.34593                      90.05791
                      -3.50571                       0.00000                      89.86927
                      -3.55803                      -0.36789                      89.81188
                      -3.70096                      -0.71267                      89.76632
                      -3.92552                      -1.01266                      89.73543
                      -4.21758                      -1.24903                      89.72117
                      -4.55881                      -1.40692                      89.72443
                      -4.92776                      -1.47640                      89.74501
                      -5.30125                      -1.45312                      89.78161
                      -5.65581                      -1.33853                      89.83193
                      -5.96917                      -1.13984                      89.89281
                      -6.22162                      -0.86952                      89.96043
                      -6.39732                      -0.54457                      90.03053
                      -6.48522                      -0.18541                      90.09871
                      -6.47980                       0.18541                      90.16070
                      -6.38139                       0.54457                      90.21258
                      -6.19619                       0.86952                      90.25111
                      -5.93583                       1.13984                      90.27386
                      -5.61667                       1.33853                      90.27941
                      -5.25875                       1.45312                      90.26739
                      -4.88458                       1.47640                      90.23858
                      -4.51766                       1.40692                      90.19477
                      -4.18105                       1.24903                      90.13873
                      -3.89590                       1.01266                      90.07397
                      -3.68012                       0.71267                      90.00457
                      -3.54727                       0.36789                      89.93487
                      -3.52165                       0.02068                      89.74692
                      -3.57379                      -0.34593                      89.68973
                      -3.71623                      -0.68950                      89.64432
                      -3.94000                      -0.98846                      89.61355
                      -4.23105                      -1.22400                      89.59934
                      -4.57109                      -1.38134                      89.60259
                      -4.93876                      -1.45058                      89.62309
                      -5.31095                      -1.42738                      89.65956
                      -5.66428                      -1.31319                      89.70971
                      -5.97654                      -1.11519                      89.77037
                      -6.22812                      -0.84581                      89.83776
                      -6.40321                      -0.52200                      89.90762
                      -6.49080                      -0.16408                      89.97556
                      -6.48540                       0.20545                      90.03733
                      -6.38733                       0.56336                      90.08904
                      -6.20278                       0.88718                      90.12743
                      -5.94332                       1.15656                      90.15010
                      -5.62526                       1.35456                      90.15563
                      -5.26860                       1.46875                      90.14366
                      -4.89573                       1.49195                      90.11494
                      -4.53009                       1.42271                      90.07129
                      -4.19465                       1.26537                      90.01544
                      -3.91048                       1.02983                      89.95091
                      -3.69546                       0.73087                      89.88174
                      -3.56307                       0.38730                      89.81229
                      -3.54810                       0.04137                      89.62548
                      -3.59969                      -0.32138                      89.56890
                      -3.74062                      -0.66133                      89.52397
                      -3.96204                      -0.95713                      89.49352
                      -4.25002                      -1.19019                      89.47946
                      -4.58647                      -1.34587                      89.48267
                      -4.95026                      -1.41438                      89.50296
                      -5.31853                      -1.39142                      89.53905
                      -5.66813                      -1.27844                      89.58866
                      -5.97710                      -1.08252                      89.64869
                      -6.22603                      -0.81599                      89.71536
                      -6.39927                      -0.49559                      89.78449
                      -6.48594                      -0.14145                      89.85172
                      -6.48059                       0.22418                      89.91283
                      -6.38356                       0.57833                      89.96400
                      -6.20095                       0.89873                      90.00198
                      -5.94423                       1.16526                      90.02442
                      -5.62953                       1.36118                      90.02988
                      -5.27662                       1.47416                      90.01804
                      -4.90769                       1.49712                      89.98963
                      -4.54590                       1.42861                      89.94644
                      -4.21400                       1.27293                      89.89118
                      -3.93283                       1.03987                      89.82732
                      -3.72007                       0.74407                      89.75889
                      -3.58908                       0.40412                      89.69017
                      -3.58539                       0.06205                      89.50500
                      -3.63606                      -0.29416                      89.44943
                      -3.77445                      -0.62798                      89.40531
                      -3.99187                      -0.91845                      89.37541
                      -4.27466                      -1.14732                      89.36161
                      -4.60506                      -1.30019                      89.36476
                      -4.96229                      -1.36747                      89.38468
                      -5.32392                      -1.34492                      89.42012
                      -5.66722                      -1.23397                      89.46884
                      -5.97063                      -1.04159                      89.52779
                      -6.21507                      -0.77986                      89.59326
                      -6.38518                      -0.46523                      89.66114
                      -6.47029                      -0.11747                      89.72716
                      -6.46504                       0.24157                      89.78717
                      -6.36976                       0.58934                      89.83741
                      -6.19044                       0.90397                      89.87472
                      -5.93835                       1.16570                      89.89674
                      -5.62932                       1.35808                      89.90211
                      -5.28277                       1.46903                      89.89048
                      -4.92048                       1.49157                      89.86258
                      -4.56521                       1.42430                      89.82017
                      -4.23929                       1.27142                      89.76590
                      -3.96319                       1.04256                      89.70320
                      -3.75427                       0.75209                      89.63600
                      -3.62564                       0.41826                      89.56852
                      -3.63415                       0.08274                      89.38552
                      -3.68348                      -0.26411                      89.33141
                      -3.81824                      -0.58917                      89.28845
                      -4.02995                      -0.87201                      89.25933
                      -4.30531                      -1.09486                      89.24589
                      -4.62702                      -1.24372                      89.24896
                      -4.97487                      -1.30923                      89.26836
                      -5.32700                      -1.28727                      89.30287
                      -5.66128                      -1.17924                      89.35031
                      -5.95672                      -0.99191                      89.40771
                      -6.19474                      -0.73705                      89.47146
                      -6.36039                      -0.43069                      89.53755
                      -6.44326                      -0.09207                      89.60184
                      -6.43814                       0.25754                      89.66028
                      -6.34537                       0.59617                      89.70920
                      -6.17076                       0.90253                      89.74552
                      -5.92529                       1.15739                      89.76697
                      -5.62437                       1.34472                      89.77220
                      -5.28693                       1.45275                      89.76087
                      -4.93416                       1.47470                      89.73370
                      -4.58823                       1.40919                      89.69240
                      -4.27087                       1.26034                      89.63957
                      -4.00202                       1.03749                      89.57851
                      -3.79858                       0.75465                      89.51307
                      -3.67333                       0.42959                      89.44737
                      -3.69532                       0.10342                      89.26712
                      -3.74289                      -0.23101                      89.21495
                      -3.87282                      -0.54443                      89.17353
                      -4.07695                      -0.81715                      89.14546
                      -4.34246                      -1.03202                      89.13249
                      -4.65266                      -1.17555                      89.13546
                      -4.98805                      -1.23871                      89.15416
                      -5.32758                      -1.21755                      89.18743
                      -5.64990                      -1.11338                      89.23318
                      -5.93475                      -0.93275                      89.28852
                      -6.16425                      -0.68702                      89.34999
                      -6.32397                      -0.39163                      89.41372
                      -6.40388                      -0.06512                      89.47570
                      -6.39895                       0.27197                      89.53205
                      -6.30949                       0.59847                      89.57921
                      -6.14113                       0.89387                      89.61424
                      -5.90445                       1.13960                      89.63492
                      -5.61431                       1.32023                      89.63996
                      -5.28894                       1.42439                      89.62904
                      -4.94880                       1.44556                      89.60284
                      -4.61525                       1.38239                      89.56302
                      -4.30925                       1.23887                      89.51208
                      -4.05003                       1.02400                      89.45321
                      -3.85387                       0.75128                      89.39011
                      -3.73311                       0.43786                      89.32676
                      -3.77037                       0.12411                      89.14994
                      -3.81569                      -0.19450                      89.10024
                      -3.93947                      -0.49308                      89.06078
                      -4.13394                      -0.75288                      89.03403
                      -4.38687                      -0.95758                      89.02168
                      -4.68239                      -1.09432                      89.02451
                      -5.00191                      -1.15449                      89.04233
                      -5.32536                      -1.13433                      89.07402
                      -5.63242                      -1.03509                      89.11760
                      -5.90379                      -0.86302                      89.17033
                      -6.12242                      -0.62892                      89.22888
                      -6.27458                      -0.34751                      89.28959
                      -6.35071                      -0.03646                      89.34864
                      -6.34601                       0.28468                      89.40232
                      -6.26079                       0.59572                      89.44726
                      -6.10040                       0.87714                      89.48062
                      -5.87492                       1.11124                      89.50033
                      -5.59851                       1.28331                      89.50513
                      -5.28855                       1.38254                      89.49472
                      -4.96451                       1.40271                      89.46977
                      -4.64675                       1.34253                      89.43183
                      -4.35524                       1.20580                      89.38330
                      -4.10829                       1.00110                      89.32722
                      -3.92142                       0.74130                      89.26711
                      -3.80637                       0.44271                      89.20675
                      -3.86150                       0.14479                      89.03416
                      -3.90400                      -0.15402                      88.98755
                      -4.02009                      -0.43406                      88.95054
                      -4.20248                      -0.67773                      88.92546
                      -4.43971                      -0.86971                      88.91388
                      -4.71686                      -0.99795                      88.91652
                      -5.01654                      -1.05439                      88.93324
                      -5.31990                      -1.03548                      88.96296
                      -5.60788                      -0.94240                      89.00383
                      -5.86240                      -0.78102                      89.05328
                      -6.06745                      -0.56146                      89.10820
                      -6.21016                      -0.29753                      89.16514
                      -6.28156                      -0.00580                      89.22053
                      -6.27715                       0.29539                      89.27087
                      -6.19722                       0.58711                      89.31301
                      -6.04680                       0.85105                      89.34431
                      -5.83532                       1.07061                      89.36279
                      -5.57609                       1.23199                      89.36729
                      -5.28538                       1.32506                      89.35753
                      -4.98146                       1.34397                      89.33413
                      -4.68344                       1.28754                      89.29855
                      -4.41003                       1.15930                      89.25303
                      -4.17842                       0.96731                      89.20043
                      -4.00316                       0.72365                      89.14406
                      -3.89526                       0.44361                      89.08745
                      -3.97218                       0.16548                      88.92010
                      -4.01118                      -0.10873                      88.87733
                      -4.11771                      -0.36571                      88.84336
                      -4.28508                      -0.58932                      88.82034
                      -4.50278                      -0.76550                      88.80972
                      -4.75711                      -0.88318                      88.81215
                      -5.03211                      -0.93497                      88.82748
                      -5.31050                      -0.91761                      88.85476
                      -5.57477                      -0.83220                      88.89227
                      -5.80833                      -0.68411                      88.93765
                      -5.99650                      -0.48263                      88.98804
                      -6.12746                      -0.24042                      89.04030
                      -6.19297                       0.02728                      89.09112
                      -6.18893                       0.30367                      89.13732
                      -6.11559                       0.57138                      89.17599
                      -5.97754                       0.81358                      89.20471
                      -5.78348                       1.01506                      89.22167
                      -5.54559                       1.16316                      89.22580
                      -5.27882                       1.24857                      89.21684
                      -4.99993                       1.26592                      89.19537
                      -4.72644                       1.21413                      89.16272
                      -4.47555                       1.09645                      89.12094
                      -4.26301                       0.92027                      89.07268
                      -4.10217                       0.69667                      89.02094
                      -4.00316                       0.43969                      88.96900
                      -4.10832                       0.18616                      88.80826
                      -4.14293                      -0.05718                      88.77031
                      -4.23747                      -0.28522                      88.74017
                      -4.38600                      -0.48365                      88.71974
                      -4.57918                      -0.63999                      88.71031
                      -4.80488                      -0.74443                      88.71246
                      -5.04892                      -0.79038                      88.72607
                      -5.29596                      -0.77498                      88.75028
                      -5.53048                      -0.69919                      88.78356
                      -5.73774                      -0.56777                      88.82383
                      -5.90473                      -0.38897                      88.86856
                      -6.02094                      -0.17404                      88.91493
                      -6.07908                       0.06353                      88.96003
                      -6.07549                       0.30880                      89.00102
                      -6.01041                       0.54636                      89.03534
                      -5.88791                       0.76130                      89.06083
                      -5.71569                       0.94009                      89.07588
                      -5.50458                       1.07152                      89.07954
                      -5.26785                       1.14731                      89.07160
                      -5.02036                       1.16271                      89.05254
                      -4.77766                       1.11675                      89.02356
                      -4.55502                       1.01232                      88.98650
                      -4.36641                       0.85598                      88.94366
                      -4.22368                       0.65755                      88.89775
                      -4.13581                       0.42950                      88.85165
                      -4.28144                       0.20685                      88.69966
                      -4.31037                       0.00349                      88.66794
                      -4.38937                      -0.18709                      88.64275
                      -4.51350                      -0.35292                      88.62568
                      -4.67495                      -0.48358                      88.61780
                      -4.86357                      -0.57086                      88.61960
                      -5.06751                      -0.60926                      88.63097
                      -5.27397                      -0.59639                      88.65120
                      -5.46996                      -0.53305                      88.67902
                      -5.64317                      -0.42322                      88.71267
                      -5.78272                      -0.27380                      88.75005
                      -5.87984                      -0.09418                      88.78880
                      -5.92843                       0.10436                      88.82649
                      -5.92543                       0.30934                      88.86075
                      -5.87104                       0.50787                      88.88944
                      -5.76866                       0.68749                      88.91073
                      -5.62474                       0.83692                      88.92331
                      -5.44832                       0.94675                      88.92637
                      -5.25047                       1.01009                      88.91973
                      -5.04364                       1.02296                      88.90381
                      -4.84082                       0.98455                      88.87959
                      -4.65475                       0.89728                      88.84861
                      -4.49713                       0.76662                      88.81282
                      -4.37785                       0.60079                      88.77445
                      -4.30442                       0.41021                      88.73592
                      -4.52099                       0.22753                      88.59687
                      -4.54190                       0.08050                      88.57394
                      -4.59902                      -0.05729                      88.55573
                      -4.68877                      -0.17718                      88.54338
                      -4.80549                      -0.27165                      88.53769
                      -4.94187                      -0.33475                      88.53899
                      -5.08932                      -0.36252                      88.54721
                      -5.23858                      -0.35321                      88.56184
                      -5.38029                      -0.30741                      88.58195
                      -5.50552                      -0.22801                      88.60628
                      -5.60641                      -0.11997                      88.63330
                      -5.67663                       0.00989                      88.66132
                      -5.71176                       0.15343                      88.68857
                      -5.70959                       0.30163                      88.71334
                      -5.67027                       0.44517                      88.73408
                      -5.59625                       0.57504                      88.74948
                      -5.49219                       0.68307                      88.75857
                      -5.36464                       0.76248                      88.76078
                      -5.22160                       0.80827                      88.75598
                      -5.07206                       0.81758                      88.74447
                      -4.92542                       0.78981                      88.72696
                      -4.79089                       0.72671                      88.70456
                      -4.67693                       0.63225                      88.67868
                      -4.59069                       0.51235                      88.65094
                      -4.53760                       0.37456                      88.62309
                      -5.12893                       0.24822                      88.52631
                      -5.12893                       0.24822                      88.52631
                      -5.12893                       0.24822                      88.52631
                      -5.12893                       0.24822                      88.52631
                      -5.12893                       0.24822                      88.52631
                      -5.12893                       0.24822                      88.52631
                      -5.12893                       0.24822                      88.52631
                      -5.12893                       0.24822                      88.52631
                      -5.12893                       0.24822                      88.52631
                      -5.12893                       0.24822                      88.52631
                      -5.12893                       0.24822                      88.52631
                      -5.12893                       0.24822                      88.52631
                      -5.12893                       0.24822                      88.52631
                      -5.12893                       0.24822                      88.52631
                      -5.12893                       0.24822                      88.52631
                      -5.12893                       0.24822                      88.52631
                      -5.12893                       0.24822                      88.52631
                      -5.12893                       0.24822                      88.52631
                      -5.12893                       0.24822                      88.52631
                      -5.12893                       0.24822                      88.52631
                      -5.12893                       0.24822                      88.52631
                      -5.12893                       0.24822                      88.52631
                      -5.12893                       0.24822                      88.52631
                      -5.12893                       0.24822                      88.52631
                      -5.12893                       0.24822                      88.52631
        </DataArray>
      </Points>
      <Polys>
        <DataArray type="Int32" Name="connectivity" format="ascii">
      0      1     26     25
      1      2     27     26
      2      3     28     27
      3      4     29     28
      4      5     30     29
      5      6     31     30
      6      7     32     31
      7      8     33     32
      8      9     34     33
      9     10     35     34
     10     11     36     35
     11     12     37     36
     12     13     38     37
     13     14     39     38
     14     15     40     39
     15     16     41     40
     16     17     42     41
     17     18     43     42
     18     19     44     43
     19     20     45     44
     20     21     46     45
     21     22     47     46
     22     23     48     47
     23     24     49     48
     24      0     25     49
     25     26     51     50
     26     27     52     51
     27     28     53     52
     28     29     54     53
     29     30     55     54
     30     31     56     55
     31     32     57     56
     32     33     58     57
     33     34     59     58
     34     35     60     59
     35     36     61     60
     36     37     62     61
     37     38     63     62
     38     39     64     63
     39     40     65     64
     40     41     66     65
     41     42     67     66
     42     43     68     67
     43     44     69     68
     44     45     70     69
     45     46     71     70
     46     47     72     71
     47     48     73     72
     48     49     74     73
     49     25     50     74
     50     51     76     75
     51     52     77     76
     52     53     78     77
     53     54     79     78
     54     55     80     79
     55     56     81     80
     56     57     82     81
     57     58     83     82
     58     59     84     83
     59     60     85     84
     60     61     86     85
     61     62     87     86
     62     63     88     87
     63     64     89     88
     64     65     90     89
     65     66     91     90
     66     67     92     91
     67     68     93     92
     68     69     94     93
     69     70     95     94
     70     71     96     95
     71     72     97     96
     72     73     98     97
     73     74     99     98
     74     50     75     99
     75     76    101    100
     76     77    102    101
     77     78    103    102
     78     79    104    103
     79     80    105    104
     80     81    106    105
     81     82    107    106
     82     83    108    107
     83     84    109    108
     84     85    110    109
     85     86    111    110
     86     87    112    111
     87     88    113    112
     88     89    114    113
     89     90    115    114
     90     91    116    115
     91     92    117    116
     92     93    118    117
     93     94    119    118
     94     95    120    119
     95     96    121    120
     96     97    122    121
     97     98    123    122
     98     99    124    123
     99     75    100    124
    100    101    126    125
    101    102    127    126
    102    103    128    127
    103    104    129    128
    104    105    130    129
    105    106    131    130
    106    107    132    131
    107    108    133    132
    108    109    134    133
    109    110    135    134
    110    111    136    135
    111    112    137    136
    112    113    138    137
    113    114    139    138
    114    115    140    139
    115    116    141    140
    116    117    142    141
    117    118    143    142
    118    119    144    143
    119    120    145    144
    120    121    146    145
    121    122    147    146
    122    123    148    147
    123    124    149    148
    124    100    125    149
    125    126    151    150
    126    127    152    151
    127    128    153    152
    128    129    154    153
    129    130    155    154
    130    131    156    155
    131    132    157    156
    132    133    158    157
    133    134    159    158
    134    135    160    159
    135    136    161    160
    136    137    162    161
    137    138    163    162
    138    139    164    163
    139    140    165    164
    140    141    166    165
    141    142    167    166
    142    143    168    167
    143    144    169    168
    144    145    170    169
    145    146    171    170
    146    147    172    171
    147    148    173    172
    148    149    174    173
    149    125    150    174
    150    151    176    175
    151    152    177    176
    152    153    178    177
    153    154    179    178
    154    155    180    179
    155    156    181    180
    156    157    182    181
    157    158    183    182
    158    159    184    183
    159    160    185    184
    160    161    186    185
    161    162    187    186
    162    163    188    187
    163    164    189    188
    164    165    190    189
    165    166    191    190
    166    167    192    191
    167    168    193    192
    168    169    194    193
    169    170    195    194
    170    171    196    195
    171    172    197    196
    172    173    198    197
    173    174    199    198
    174    150    175    199
    175    176    201    200
    176    177    202    201
    177    178    203    202
    178    179    204    203
    179    180    205    204
    180    181    206    205
    181    182    207    206
    182    183    208    207
    183    184    209    208
    184    185    210    209
    185    186    211    210
    186    187    212    211
    187    188    213    212
    188    189    214    213
    189    190    215    214
    190    191    216    215
    191    192    217    216
    192    193    218    217
    193    194    219    218
    194    195    220    219
    195    196    221    220
    196    197    222    221
    197    198    223    222
    198    199    224    223
    199    175    200    224
    200    201    226    225
    201    202    227    226
    202    203    228    227
    203    204    229    228
    204    205    230    229
    205    206    231    230
    206    207    232    231
    207    208    233    232
    208    209    234    233
    209    210    235    234
    210    211    236    235
    211    212    237    236
    212    213    238    237
    213    214    239    238
    214    215    240    239
    215    216    241    240
    216    217    242    241
    217    218    243    242
    218    219    244    243
    219    220    245    244
    220    221    246    245
    221    222    247    246
    222    223    248    247
    223    224    249    248
    224    200    225    249
    225    226    251    250
    226    227    252    251
    227    228    253    252
    228    229    254    253
    229    230    255    254
    230    231    256    255
    231    232    257    256
    232    233    258    257
    233    234    259    258
    234    235    260    259
    235    236    261    260
    236    237    262    261
    237    238    263    262
    238    239    264    263
    239    240    265    264
    240    241    266    265
    241    242    267    266
    242    243    268    267
    243    244    269    268
    244    245    270    269
    245    246    271    270
    246    247    272    271
    247    248    273    272
    248    249    274    273
    249    225    250    274
    250    251    276    275
    251    252    277    276
    252    253    278    277
    253    254    279    278
    254    255    280    279
    255    256    281    280
    256    257    282    281
    257    258    283    282
    258    259    284    283
    259    260    285    284
    260    261    286    285
    261    262    287    286
    262    263    288    287
    263    264    289    288
    264    265    290    289
    265    266    291    290
    266    267    292    291
    267    268    293    292
    268    269    294    293
    269    270    295    294
    270    271    296    295
    271    272    297    296
    272    273    298    297
    273    274    299    298
    274    250    275    299
    275    276    301    300
    276    277    302    301
    277    278    303    302
    278    279    304    303
    279    280    305    304
    280    281    306    305
    281    282    307    306
    282    283    308    307
    283    284    309    308
    284    285    310    309
    285    286    311    310
    286    287    312    311
    287    288    313    312
    288    289    314    313
    289    290    315    314
    290    291    316    315
    291    292    317    316
    292    293    318    317
    293    294    319    318
    294    295    320    319
    295    296    321    320
    296    297    322    321
    297    298    323    322
    298    299    324    323
    299    275    300    324
    300    301    326    325
    301    302    327    326
    302    303    328    327
    303    304    329    328
    304    305    330    329
    305    306    331    330
    306    307    332    331
    307    308    333    332
    308    309    334    333
    309    310    335    334
    310    311    336    335
    311    312    337    336
    312    313    338    337
    313    314    339    338
    314    315    340    339
    315    316    341    340
    316    317    342    341
    317    318    343    342
    318    319    344    343
    319    320    345    344
    320    321    346    345
    321    322    347    346
    322    323    348    347
    323    324    349    348
    324    300    325    349
    325    326    351    350
    326    327    352    351
    327    328    353    352
    328    329    354    353
    329    330    355    354
    330    331    356    355
    331    332    357    356
    332    333    358    357
    333    334    359    358
    334    335    360    359
    335    336    361    360
    336    337    362    361
    337    338    363    362
    338    339    364    363
    339    340    365    364
    340    341    366    365
    341    342    367    366
    342    343    368    367
    343    344    369    368
    344    345    370    369
    345    346    371    370
    346    347    372    371
    347    348    373    372
    348    349    374    373
    349    325    350    374
    350    351    376    375
    351    352    377    376
    352    353    378    377
    353    354    379    378
    354    355    380    379
    355    356    381    380
    356    357    382    381
    357    358    383    382
    358    359    384    383
    359    360    385    384
    360    361    386    385
    361    362    387    386
    362    363    388    387
    363    364    389    388
    364    365    390    389
    365    366    391    390
    366    367    392    391
    367    368    393    392
    368    369    394    393
    369    370    395    394
    370    371    396    395
    371    372    397    396
    372    373    398    397
    373    374    399    398
    374    350    375    399
    375    376    401    400
    376    377    402    401
    377    378    403    402
    378    379    404    403
    379    380    405    404
    380    381    406    405
    381    382    407    406
    382    383    408    407
    383    384    409    408
    384    385    410    409
    385    386    411    410
    386    387    412    411
    387    388    413    412
    388    389    414    413
    389    390    415    414
    390    391    416    415
    391    392    417    416
    392    393    418    417
    393    394    419    418
    394    395    420    419
    395    396    421    420
    396    397    422    421
    397    398    423    422
    398    399    424    423
    399    375    400    424
    400    401    426    425
    401    402    427    426
    402    403    428    427
    403    404    429    428
    404    405    430    429
    405    406    431    430
    406    407    432    431
    407    408    433    432
    408    409    434    433
    409    410    435    434
    410    411    436    435
    411    412    437    436
    412    413    438    437
    413    414    439    438
    414    415    440    439
    415    416    441    440
    416    417    442    441
    417    418    443    442
    418    419    444    443
    419    420    445    444
    420    421    446    445
    421    422    447    446
    422    423    448    447
    423    424    449    448
    424    400    425    449
    425    426    451    450
    426    427    452    451
    427    428    453    452
    428    429    454    453
    429    430    455    454
    430    431    456    455
    431    432    457    456
    432    433    458    457
    433    434    459    458
    434    435    460    459
    435    436    461    460
    436    437    462    461
    437    438    463    462
    438    439    464    463
    439    440    465    464
    440    441    466    465
    441    442    467    466
    442    443    468    467
    443    444    469    468
    444    445    470    469
    445    446    471    470
    446    447    472    471
    447    448    473    472
    448    449    474    473
    449    425    450    474
    450    451    476    475
    451    452    477    476
    452    453    478    477
    453    454    479    478
    454    455    480    479
    455    456    481    480
    456    457    482    481
    457    458    483    482
    458    459    484    483
    459    460    485    484
    460    461    486    485
    461    462    487    486
    462    463    488    487
    463    464    489    488
    464    465    490    489
    465    466    491    490
    466    467    492    491
    467    468    493    492
    468    469    494    493
    469    470    495    494
    470    471    496    495
    471    472    497    496
    472    473    498    497
    473    474    499    498
    474    450    475    499
    475    476    501    500
    476    477    502    501
    477    478    503    502
    478    479    504    503
    479    480    505    504
    480    481    506    505
    481    482    507    506
    482    483    508    507
    483    484    509    508
    484    485    510    509
    485    486    511    510
    486    487    512    511
    487    488    513    512
    488    489    514    513
    489    490    515    514
    490    491    516    515
    491    492    517    516
    492    493    518    517
    493    494    519    518
    494    495    520    519
    495    496    521    520
    496    497    522    521
    497    498    523    522
    498    499    524    523
    499    475    500    524
    500    501    526    525
    501    502    527    526
    502    503    528    527
    503    504    529    528
    504    505    530    529
    505    506    531    530
    506    507    532    531
    507    508    533    532
    508    509    534    533
    509    510    535    534
    510    511    536    535
    511    512    537    536
    512    513    538    537
    513    514    539    538
    514    515    540    539
    515    516    541    540
    516    517    542    541
    517    518    543    542
    518    519    544    543
    519    520    545    544
    520    521    546    545
    521    522    547    546
    522    523    548    547
    523    524    549    548
    524    500    525    549
    525    526    551    550
    526    527    552    551
    527    528    553    552
    528    529    554    553
    529    530    555    554
    530    531    556    555
    531    532    557    556
    532    533    558    557
    533    534    559    558
    534    535    560    559
    535    536    561    560
    536    537    562    561
    537    538    563    562
    538    539    564    563
    539    540    565    564
    540    541    566    565
    541    542    567    566
    542    543    568    567
    543    544    569    568
    544    545    570    569
    545    546    571    570
    546    547    572    571
    547    548    573    572
    548    549    574    573
    549    525    550    574
    550    551    576    575
    551    552    577    576
    552    553    578    577
    553    554    579    578
    554    555    580    579
    555    556    581    580
    556    557    582    581
    557    558    583    582
    558    559    584    583
    559    560    585    584
    560    561    586    585
    561    562    587    586
    562    563    588    587
    563    564    589    588
    564    565    590    589
    565    566    591    590
    566    567    592    591
    567    568    593    592
    568    569    594    593
    569    570    595    594
    570    571    596    595
    571    572    597    596
    572    573    598    597
    573    574    599    598
    574    550    575    599
    575    576    601    600
    576    577    602    601
    577    578    603    602
    578    579    604    603
    579    580    605    604
    580    581    606    605
    581    582    607    606
    582    583    608    607
    583    584    609    608
    584    585    610    609
    585    586    611    610
    586    587    612    611
    587    588    613    612
    588    589    614    613
    589    590    615    614
    590    591    616    615
    591    592    617    616
    592    593    618    617
    593    594    619    618
    594    595    620    619
    595    596    621    620
    596    597    622    621
    597    598    623    622
    598    599    624    623
    599    575    600    624
        </DataArray>
        <DataArray type="Int32" Name="offsets" format="ascii">
      4
      8
     12
     16
     20
     24
     28
     32
     36
     40
     44
     48
     52
     56
     60
     64
     68
     72
     76
     80
     84
     88
     92
     96
    100
    104
    108
    112
    116
    120
    124
    128
    132
    136
    140
    144
    148
    152
    156
    160
    164
    168
    172
    176
    180
    184
    188
    192
    196
    200
    204
    208
    212
    216
    220
    224
    228
    232
    236
    240
    244
    248
    252
    256
    260
    264
    268
    272
    276
    280
    284
    288
    292
    296
    300
    304
    308
    312
    316
    320
    324
    328
    332
    336
    340
    344
    348
    352
    356
    360
    364
    368
    372
    376
    380
    384
    388
    392
    396
    400
    404
    408
    412
    416
    420
    424
    428
    432
    436
    440
    444
    448
    452
    456
    460
    464
    468
    472
    476
    480
    484
    488
    492
    496
    500
    504
    508
    512
    516
    520
    524
    528
    532
    536
    540
    544
    548
    552
    556
    560
    564
    568
    572
    576
    580
    584
    588
    592
    596
    600
    604
    608
    612
    616
    620
    624
    628
    632
    636
    640
    644
    648
    652
    656
    660
    664
    668
    672
    676
    680
    684
    688
    692
    696
    700
    704
    708
    712
    716
    720
    724
    728
    732
    736
    740
    744
    748
    752
    756
    760
    764
    768
    772
    776
    780
    784
    788
    792
    796
    800
    804
    808
    812
    816
    820
    824
    828
    832
    836
    840
    844
    848
    852
    856
    860
    864
    868
    872
    876
    880
    884
    888
    892
    896
    900
    904
    908
    912
    916
    920
    924
    928
    932
    936
    940
    944
    948
    952
    956
    960
    964
    968
    972
    976
    980
    984
    988
    992
    996
   1000
   1004
   1008
   1012
   1016
   1020
   1024
   1028
   1032
   1036
   1040
   1044
   1048
   1052
   1056
   1060
   1064
   1068
   1072
   1076
   1080
   1084
   1088
   1092
   1096
   1100
   1104
   1108
   1112
   1116
   1120
   1124
   1128
   1132
   1136
   1140
   1144
   1148
   1152
   1156
   1160
   1164
   1168
   1172
   1176
   1180
   1184
   1188
   1192
   1196
   1200
   1204
   1208
   1212
   1216
   1220
   1224
   1228
   1232
   1236
   1240
   1244
   1248
   1252
   1256
   1260
   1264
   1268
   1272
   1276
   1280
   1284
   1288
   1292
   1296
   1300
   1304
   1308
   1312
   1316
   1320
   1324
   1328
   1332
   1336
   1340
   1344
   1348
   1352
   1356
   1360
   1364
   1368
   1372
   1376
   1380
   1384
   1388
   1392
   1396
   1400
   1404
   1408
   1412
   1416
   1420
   1424
   1428
   1432
   1436
   1440
   1444
   1448
   1452
   1456
   1460
   1464
   1468
   1472
   1476
   1480
   1484
   1488
   1492
   1496
   1500
   1504
   1508
   1512
   1516
   1520
   1524
   1528
   1532
   1536
   1540
   1544
   1548
   1552
   1556
   1560
   1564
   1568
   1572
   1576
   1580
   1584
   1588
   1592
   1596
   1600
   1604
   1608
   1612
   1616
   1620
   1624
   1628
   1632
   1636
   1640
   1644
   1648
   1652
   1656
   1660
   1664
   1668
   1672
   1676
   1680
   1684
   1688
   1692
   1696
   1700
   1704
   1708
   1712
   1716
   1720
   1724
   1728
   1732
   1736
   1740
   1744
   1748
   1752
   1756
   1760
   1764
   1768
   1772
   1776
   1780
   1784
   1788
   1792
   1796
   1800
   1804
   1808
   1812
   1816
   1820
   1824
   1828
   1832
   1836
   1840
   1844
   1848
   1852
   1856
   1860
   1864
   1868
   1872
   1876
   1880
   1884
   1888
   1892
   1896
   1900
   1904
   1908
   1912
   1916
   1920
   1924
   1928
   1932
   1936
   1940
   1944
   1948
   1952
   1956
   1960
   1964
   1968
   1972
   1976
   1980
   1984
   1988
   1992
   1996
   2000
   2004
   2008
   2012
   2016
   2020
   2024
   2028
   2032
   2036
   2040
   2044
   2048
   2052
   2056
   2060
   2064
   2068
   2072
   2076
   2080
   2084
   2088
   2092
   2096
   2100
   2104
   2108
   2112
   2116
   2120
   2124
   2128
   2132
   2136
   2140
   2144
   2148
   2152
   2156
   2160
   2164
   2168
   2172
   2176
   2180
   2184
   2188
   2192
   2196
   2200
   2204
   2208
   2212
   2216
   2220
   2224
   2228
   2232
   2236
   2240
   2244
   2248
   2252
   2256
   2260
   2264
   2268
   2272
   2276
   2280
   2284
   2288
   2292
   2296
   2300
   2304
   2308
   2312
   2316
   2320
   2324
   2328
   2332
   2336
   2340
   2344
   2348
   2352
   2356
   2360
   2364
   2368
   2372
   2376
   2380
   2384
   2388
   2392
   2396
   2400
        </DataArray>
      </Polys>
    </Piece>
  </PolyData>
</VTKFile>
