<?xml version="1.0"?>
<VTKFile type="PolyData" version="0.1" byte_order="LittleEndian">
  <PolyData>
    <Piece NumberOfPoints="     19" NumberOfVerts="  0" NumberOfLines="     18"
           NumberOfStrips="  0" NumberOfPolys="      0">
      <Points>
        <DataArray type="Float32" NumberOfComponents="3" format="ascii">
                      -5.04360                      -1.47798                      90.25236
                      -5.08430                      -2.82521                      90.47867
                      -5.19428                      -5.53450                      90.83867
                      -5.31580                      -8.25104                      91.15338
                      -5.47118                     -11.65146                      91.51755
                      -5.58340                     -15.71163                      92.08554
                      -5.64768                     -19.75292                      92.77320
                      -5.69799                     -23.79514                      93.45717
                      -5.72867                     -27.83800                      94.13909
                      -5.73758                     -31.88166                      94.81737
                      -5.72345                     -35.92648                      95.48882
                      -5.68278                     -39.97200                      96.15520
                      -5.61405                     -44.01795                      96.81692
                      -5.51643                     -48.06405                      97.47434
                      -5.38736                     -52.10999                      98.12736
                      -5.25517                     -55.48128                      98.66817
                      -5.13393                     -58.17666                      99.10644
                      -4.99551                     -60.86318                      99.59690
                      -4.92619                     -62.21262                      99.80038
        </DataArray>
      </Points>
      <PointData>
        <DataArray type="Float32" Name="TranslationalVelocity" NumberOfComponents="3" format="ascii">
                      -0.06745                      -0.12964                      -0.77092
                      -0.12893                      -0.24585                      -1.47369
                      -0.25262                      -0.42867                      -2.88720
                      -0.37671                      -0.58736                      -4.30489
                      -0.53217                      -0.77035                      -6.08013
                      -0.71804                      -1.06179                      -8.20085
                      -0.90337                      -1.41811                     -10.31293
                      -1.08908                      -1.77336                     -12.42676
                      -1.27519                      -2.12868                     -14.54218
                      -1.46168                      -2.48331                     -16.65920
                      -1.64854                      -2.83563                     -18.77793
                      -1.83569                      -3.18671                     -20.89802
                      -2.02305                      -3.53681                     -23.01919
                      -2.21049                      -3.88612                     -25.14118
                      -2.39789                      -4.23469                     -27.26370
                      -2.55388                      -4.52460                     -29.03269
                      -2.67844                      -4.76022                     -30.44723
                      -2.80239                      -5.02403                     -31.85728
                      -2.86454                      -5.13405                     -32.56561
        </DataArray>
        <DataArray type="Float32" Name="RotationalVelocity" NumberOfComponents="3" format="ascii">
                       0.52161                      -0.00000                      -0.04563
                       0.52165                      -0.00000                      -0.04564
                       0.52176                      -0.00001                      -0.04566
                       0.52191                      -0.00001                      -0.04569
                       0.52213                      -0.00001                      -0.04573
                       0.52242                       0.00000                      -0.04580
                       0.52272                       0.00002                      -0.04589
                       0.52302                       0.00005                      -0.04598
                       0.52331                       0.00009                      -0.04607
                       0.52357                       0.00013                      -0.04616
                       0.52382                       0.00016                      -0.04623
                       0.52404                       0.00017                      -0.04629
                       0.52423                       0.00016                      -0.04633
                       0.52440                       0.00013                      -0.04633
                       0.52455                       0.00005                      -0.04630
                       0.52464                      -0.00004                      -0.04624
                       0.52471                      -0.00013                      -0.04617
                       0.52475                      -0.00024                      -0.04607
                       0.52476                      -0.00031                      -0.04602
        </DataArray>
        <DataArray type="Float32" Name="TranslationalAcceleration" NumberOfComponents="3" format="ascii">
                      -0.00592                       0.40520                      -0.06762
                      -0.00705                       0.49021                      -0.08057
                      -0.01782                       1.40725                      -0.20338
                      -0.02629                       2.25322                      -0.29947
                      -0.03489                       3.24333                      -0.39680
                      -0.04712                       4.36525                      -0.53565
                      -0.06134                       5.45528                      -0.69769
                      -0.07486                       6.54458                      -0.85252
                      -0.08791                       7.64664                      -1.00314
                      -0.10058                       8.76574                      -1.15016
                      -0.11284                       9.89943                      -1.29280
                      -0.12480                      11.04104                      -1.43114
                      -0.13657                      12.18259                      -1.56465
                      -0.14836                      13.31744                      -1.69305
                      -0.16048                      14.44297                      -1.81659
                      -0.17122                      15.37644                      -1.91665
                      -0.18071                      16.12461                      -1.99800
                      -0.19263                      16.87946                      -2.09489
                      -0.19785                      17.26378                      -2.13247
        </DataArray>
        <DataArray type="Float32" Name="OrientationX" NumberOfComponents="3" format="ascii">
                       0.99587                      -0.04302                      -0.07989
                       0.99588                      -0.04277                      -0.07994
                       0.99590                      -0.04196                      -0.08012
                       0.99593                      -0.04079                      -0.08038
                       0.99597                      -0.03888                      -0.08085
                       0.99601                      -0.03599                      -0.08163
                       0.99605                      -0.03247                      -0.08264
                       0.99607                      -0.02831                      -0.08390
                       0.99607                      -0.02348                      -0.08542
                       0.99603                      -0.01793                      -0.08719
                       0.99595                      -0.01167                      -0.08918
                       0.99581                      -0.00475                      -0.09137
                       0.99560                       0.00270                      -0.09366
                       0.99533                       0.01045                      -0.09597
                       0.99501                       0.01815                      -0.09814
                       0.99472                       0.02420                      -0.09975
                       0.99450                       0.02851                      -0.10079
                       0.99431                       0.03210                      -0.10155
                       0.99424                       0.03355                      -0.10179
        </DataArray>
        <DataArray type="Float32" Name="OrientationY" NumberOfComponents="3" format="ascii">
                       0.08596                       0.16522                       0.98250
                       0.08596                       0.16501                       0.98254
                       0.08598                       0.16446                       0.98263
                       0.08603                       0.16378                       0.98274
                       0.08615                       0.16280                       0.98289
                       0.08640                       0.16154                       0.98308
                       0.08680                       0.16029                       0.98325
                       0.08735                       0.15911                       0.98339
                       0.08807                       0.15805                       0.98350
                       0.08892                       0.15712                       0.98357
                       0.08991                       0.15632                       0.98360
                       0.09099                       0.15566                       0.98361
                       0.09211                       0.15512                       0.98359
                       0.09321                       0.15468                       0.98356
                       0.09420                       0.15433                       0.98352
                       0.09487                       0.15410                       0.98349
                       0.09526                       0.15396                       0.98347
                       0.09548                       0.15386                       0.98347
                       0.09550                       0.15383                       0.98347
        </DataArray>
        <DataArray type="Float32" Name="OrientationZ" NumberOfComponents="3" format="ascii">
                      -0.02907                      -0.98532                       0.16824
                      -0.02883                      -0.98536                       0.16801
                      -0.02806                      -0.98549                       0.16740
                      -0.02692                      -0.98565                       0.16662
                      -0.02505                      -0.98589                       0.16549
                      -0.02220                      -0.98621                       0.16401
                      -0.01868                      -0.98654                       0.16248
                      -0.01449                      -0.98685                       0.16096
                      -0.00959                      -0.98715                       0.15949
                      -0.00393                      -0.98742                       0.15809
                       0.00246                      -0.98764                       0.15674
                       0.00955                      -0.98780                       0.15544
                       0.01718                      -0.98789                       0.15419
                       0.02512                      -0.98791                       0.15298
                       0.03300                      -0.98785                       0.15185
                       0.03917                      -0.98776                       0.15099
                       0.04356                      -0.98767                       0.15039
                       0.04720                      -0.98757                       0.14992
                       0.04865                      -0.98753                       0.14974
        </DataArray>
        <DataArray type="Float32" Name="Force" NumberOfComponents="3" format="ascii">
                      27.16828                       1.22722                      11.88160
                     441.10299                      -7.02415                      34.40554
                     490.40697                      -1.66336                      71.88635
                     380.83463                       3.55524                      81.56138
                    2697.46323                    -151.68128                    -491.21724
                    2670.51219                    -135.46254                    -447.88857
                    2855.28430                    -135.23466                    -485.07810
                    2569.23393                    -106.52886                    -414.02219
                    2334.65486                     -78.17006                    -336.98627
                    2380.66619                     -66.54021                    -348.66106
                    2215.18238                     -39.34775                    -277.64077
                    2224.57981                     -24.09964                    -284.04973
                    1898.91805                      -1.72544                    -219.13111
                    1872.86338                      12.51252                    -222.76491
                    1873.74656                      22.77880                    -252.78842
                    1881.72119                      28.48042                    -292.57591
                    1859.01155                      29.50417                    -332.05861
                    1394.73825                      21.86370                    -282.84184
                    1244.06766                      18.21964                    -271.56502
        </DataArray>
        <DataArray type="Float32" Name="Moment" NumberOfComponents="3" format="ascii">
                       0.00000                       0.00000                       0.00000
                       0.00000                       0.00000                       0.00000
                       0.00000                       0.00000                       0.00000
                       0.00000                       0.00000                       0.00000
                      51.46790                    2041.83988                    -347.86262
                      47.75319                    2151.42189                    -365.96515
                      38.08932                    2056.76764                    -349.20242
                      28.34797                    2001.27977                    -339.01922
                      16.96212                    1864.99697                    -315.10550
                       5.65092                    1722.83090                    -290.20898
                      -4.66504                    1423.16031                    -238.91326
                     -13.63306                    1295.77045                    -216.70654
                     -21.12079                    1153.38492                    -192.10762
                     -27.01775                    1023.09263                    -169.68150
                     -30.71636                     891.95285                    -147.30519
                     -31.88901                     782.98231                    -128.87790
                     -29.65387                     656.03326                    -107.72545
                     -15.27404                     312.28878                     -51.17878
                      -8.97932                     178.19437                     -29.17992
        </DataArray>
      </PointData>
      <Lines>
        <DataArray type="Int32" Name="connectivity" format="ascii">
      0      1
      1      2
      2      3
      3      4
      4      5
      5      6
      6      7
      7      8
      8      9
      9     10
     10     11
     11     12
     12     13
     13     14
     14     15
     15     16
     16     17
     17     18
        </DataArray>
        <DataArray type="Int32" Name="offsets" format="ascii">
      2
      4
      6
      8
     10
     12
     14
     16
     18
     20
     22
     24
     26
     28
     30
     32
     34
     36
        </DataArray>
      </Lines>
    </Piece>
  </PolyData>
</VTKFile>
