<?xml version="1.0"?>
<VTKFile type="PolyData" version="0.1" byte_order="LittleEndian">
  <PolyData>
    <Piece NumberOfPoints="    625" NumberOfVerts="  0" NumberOfLines="      0"
           NumberOfStrips="  0" NumberOfPolys="    600">
      <Points>
        <DataArray type="Float32" NumberOfComponents="3" format="ascii">
                      -5.09849                      -0.98636                      88.87422
                      -5.09849                      -0.98636                      88.87422
                      -5.09849                      -0.98636                      88.87422
                      -5.09849                      -0.98636                      88.87422
                      -5.09849                      -0.98636                      88.87422
                      -5.09849                      -0.98636                      88.87422
                      -5.09849                      -0.98636                      88.87422
                      -5.09849                      -0.98636                      88.87422
                      -5.09849                      -0.98636                      88.87422
                      -5.09849                      -0.98636                      88.87422
                      -5.09849                      -0.98636                      88.87422
                      -5.09849                      -0.98636                      88.87422
                      -5.09849                      -0.98636                      88.87422
                      -5.09849                      -0.98636                      88.87422
                      -5.09849                      -0.98636                      88.87422
                      -5.09849                      -0.98636                      88.87422
                      -5.09849                      -0.98636                      88.87422
                      -5.09849                      -0.98636                      88.87422
                      -5.09849                      -0.98636                      88.87422
                      -5.09849                      -0.98636                      88.87422
                      -5.09849                      -0.98636                      88.87422
                      -5.09849                      -0.98636                      88.87422
                      -5.09849                      -0.98636                      88.87422
                      -5.09849                      -0.98636                      88.87422
                      -5.09849                      -0.98636                      88.87422
                      -4.49309                      -0.90416                      88.91578
                      -4.52040                      -0.79184                      88.81977
                      -4.58351                      -0.68658                      88.73306
                      -4.67847                      -0.59499                      88.66112
                      -4.79930                      -0.52283                      88.60847
                      -4.93842                      -0.47462                      88.57841
                      -5.08708                      -0.45341                      88.57283
                      -5.23594                      -0.46052                      88.59208
                      -5.37565                      -0.49550                      88.63495
                      -5.49743                      -0.55617                      88.69876
                      -5.59362                      -0.63869                      88.77948
                      -5.65819                      -0.73790                      88.87205
                      -5.68708                      -0.84756                      88.97065
                      -5.67847                      -0.96077                      89.06909
                      -5.63290                      -1.07042                      89.16117
                      -5.55324                      -1.16963                      89.24113
                      -5.44448                      -1.25216                      89.30392
                      -5.31347                      -1.31282                      89.34560
                      -5.16844                      -1.34780                      89.36357
                      -5.01850                      -1.35491                      89.35668
                      -4.87307                      -1.33370                      89.32537
                      -4.74128                      -1.28550                      89.27160
                      -4.63143                      -1.21333                      89.19877
                      -4.55041                      -1.12174                      89.11143
                      -4.50331                      -1.01648                      89.01509
                      -4.25608                      -0.82197                      88.98958
                      -4.29385                      -0.66661                      88.85678
                      -4.38114                      -0.52102                      88.73685
                      -4.51248                      -0.39434                      88.63735
                      -4.67961                      -0.29453                      88.56452
                      -4.87202                      -0.22786                      88.52294
                      -5.07764                      -0.19852                      88.51523
                      -5.28353                      -0.20835                      88.54185
                      -5.47677                      -0.25674                      88.60116
                      -5.64521                      -0.34064                      88.68940
                      -5.77826                      -0.45479                      88.80105
                      -5.86757                      -0.59201                      88.92909
                      -5.90752                      -0.74367                      89.06547
                      -5.89561                      -0.90026                      89.20162
                      -5.83258                      -1.05193                      89.32899
                      -5.72240                      -1.18914                      89.43957
                      -5.57198                      -1.30329                      89.52642
                      -5.39078                      -1.38719                      89.58408
                      -5.19018                      -1.43558                      89.60892
                      -4.98279                      -1.44541                      89.59939
                      -4.78164                      -1.41607                      89.55609
                      -4.59936                      -1.34940                      89.48173
                      -4.44742                      -1.24959                      89.38098
                      -4.33536                      -1.12291                      89.26019
                      -4.27021                      -0.97732                      89.12693
                      -4.08549                      -0.73977                      89.06919
                      -4.13068                      -0.55388                      88.91028
                      -4.23514                      -0.37967                      88.76678
                      -4.39230                      -0.22808                      88.64772
                      -4.59228                      -0.10865                      88.56057
                      -4.82252                      -0.02887                      88.51082
                      -5.06856                       0.00624                      88.50158
                      -5.31493                      -0.00553                      88.53345
                      -5.54615                      -0.06343                      88.60441
                      -5.74770                      -0.16382                      88.71000
                      -5.90691                      -0.30041                      88.84360
                      -6.01378                      -0.46460                      88.99681
                      -6.06159                      -0.64608                      89.16000
                      -6.04733                      -0.83345                      89.32291
                      -5.97191                      -1.01494                      89.47532
                      -5.84007                      -1.17913                      89.60764
                      -5.66008                      -1.31571                      89.71156
                      -5.44325                      -1.41611                      89.78056
                      -5.20322                      -1.47401                      89.81029
                      -4.95506                      -1.48578                      89.79888
                      -4.71437                      -1.45067                      89.74706
                      -4.49626                      -1.37089                      89.65809
                      -4.31445                      -1.25146                      89.53754
                      -4.18035                      -1.09987                      89.39299
                      -4.10240                      -0.92566                      89.23354
                      -3.95188                      -0.65757                      89.15204
                      -4.00281                      -0.44810                      88.97296
                      -4.12052                      -0.25178                      88.81126
                      -4.29762                      -0.08097                      88.67709
                      -4.52297                       0.05362                      88.57889
                      -4.78243                       0.14352                      88.52282
                      -5.05968                       0.18308                      88.51241
                      -5.33731                       0.16982                      88.54832
                      -5.59787                       0.10458                      88.62828
                      -5.82498                      -0.00856                      88.74727
                      -6.00439                      -0.16247                      88.89782
                      -6.12482                      -0.34749                      89.07047
                      -6.17869                      -0.55200                      89.25436
                      -6.16263                      -0.76314                      89.43795
                      -6.07764                      -0.96765                      89.60969
                      -5.92907                      -1.15267                      89.75880
                      -5.72624                      -1.30659                      89.87591
                      -5.48191                      -1.41972                      89.95366
                      -5.21142                      -1.48497                      89.98716
                      -4.93178                      -1.49823                      89.97431
                      -4.66055                      -1.45866                      89.91591
                      -4.41477                      -1.36876                      89.81564
                      -4.20989                      -1.23418                      89.67980
                      -4.05878                      -1.06336                      89.51692
                      -3.97094                      -0.86705                      89.33724
                      -3.84374                      -0.57538                      89.23711
                      -3.89924                      -0.34711                      89.04196
                      -4.02751                      -0.13318                      88.86575
                      -4.22050                       0.05297                      88.71955
                      -4.46607                       0.19963                      88.61254
                      -4.74881                       0.29759                      88.55144
                      -5.05093                       0.34071                      88.54010
                      -5.35347                       0.32626                      88.57922
                      -5.63741                       0.25516                      88.66636
                      -5.88491                       0.13187                      88.79603
                      -6.08041                      -0.03585                      88.96009
                      -6.21164                      -0.23748                      89.14822
                      -6.27035                      -0.46033                      89.34861
                      -6.25285                      -0.69042                      89.54867
                      -6.16023                      -0.91328                      89.73583
                      -5.99833                      -1.11490                      89.89831
                      -5.77730                      -1.28263                      90.02593
                      -5.51105                      -1.40591                      90.11065
                      -5.21629                      -1.47701                      90.14716
                      -4.91156                      -1.49146                      90.13316
                      -4.61599                      -1.44834                      90.06952
                      -4.34816                      -1.35038                      89.96026
                      -4.12490                      -1.20372                      89.81223
                      -3.96023                      -1.01757                      89.63473
                      -3.86451                      -0.80365                      89.43892
                      -3.75515                      -0.49318                      89.32389
                      -3.81432                      -0.24979                      89.11582
                      -3.95109                      -0.02169                      88.92794
                      -4.15686                       0.17678                      88.77205
                      -4.41870                       0.33315                      88.65795
                      -4.72016                       0.43760                      88.59281
                      -5.04229                       0.48357                      88.58072
                      -5.36487                       0.46817                      88.62244
                      -5.66761                       0.39236                      88.71534
                      -5.93150                       0.26091                      88.85360
                      -6.13995                       0.08208                      89.02852
                      -6.27987                      -0.13290                      89.22912
                      -6.34247                      -0.37052                      89.44278
                      -6.32381                      -0.61584                      89.65609
                      -6.22506                      -0.85346                      89.85564
                      -6.05243                      -1.06844                      90.02889
                      -5.81677                      -1.24727                      90.16496
                      -5.53288                      -1.37872                      90.25529
                      -5.21861                      -1.45453                      90.29421
                      -4.89369                      -1.46993                      90.27928
                      -4.57854                      -1.42396                      90.21144
                      -4.29298                      -1.31951                      90.09493
                      -4.05493                      -1.16313                      89.93710
                      -3.87936                      -0.96466                      89.74785
                      -3.77729                      -0.73657                      89.53907
                      -3.68264                      -0.41098                      89.41208
                      -3.74475                      -0.15550                      89.19367
                      -3.88831                       0.08393                      88.99646
                      -4.10431                       0.29226                      88.83282
                      -4.37916                       0.45641                      88.71305
                      -4.69560                       0.56605                      88.64467
                      -5.03374                       0.61431                      88.63198
                      -5.37234                       0.59814                      88.67577
                      -5.69013                       0.51856                      88.77329
                      -5.96713                       0.38058                      88.91842
                      -6.18594                       0.19286                      89.10204
                      -6.33282                      -0.03280                      89.31260
                      -6.39852                      -0.28223                      89.53688
                      -6.37893                      -0.53974                      89.76079
                      -6.27528                      -0.78916                      89.97025
                      -6.09407                      -1.01482                      90.15211
                      -5.84670                      -1.20254                      90.29494
                      -5.54871                      -1.34053                      90.38976
                      -5.21881                      -1.42010                      90.43062
                      -4.87775                      -1.43627                      90.41495
                      -4.54695                      -1.38802                      90.34373
                      -4.24719                      -1.27837                      90.22144
                      -3.99731                      -1.11423                      90.05576
                      -3.81302                      -0.90590                      89.85711
                      -3.70588                      -0.66647                      89.63796
                      -3.62400                      -0.32879                      89.50148
                      -3.68842                      -0.06382                      89.27497
                      -3.83731                       0.18450                      89.07043
                      -4.06132                       0.40057                      88.90072
                      -4.34638                       0.57081                      88.77650
                      -4.67456                       0.68452                      88.70559
                      -5.02526                       0.73457                      88.69242
                      -5.37644                       0.71780                      88.73784
                      -5.70602                       0.63527                      88.83898
                      -5.99331                       0.49216                      88.98950
                      -6.22024                       0.29747                      89.17993
                      -6.37257                       0.06343                      89.39831
                      -6.44071                      -0.19525                      89.63092
                      -6.42040                      -0.46232                      89.86314
                      -6.31289                      -0.72101                      90.08038
                      -6.12496                      -0.95505                      90.26899
                      -5.86840                      -1.14973                      90.41712
                      -5.55935                      -1.29284                      90.51546
                      -5.21721                      -1.37537                      90.55784
                      -4.86348                      -1.39214                      90.54158
                      -4.52040                      -1.34210                      90.46772
                      -4.20951                      -1.22838                      90.34089
                      -3.95036                      -1.05814                      90.16906
                      -3.75922                      -0.84207                      89.96303
                      -3.64810                      -0.59375                      89.73575
                      -3.57778                      -0.24659                      89.59197
                      -3.64394                       0.02553                      89.35935
                      -3.79685                       0.28055                      89.14929
                      -4.02690                       0.50244                      88.97500
                      -4.31965                       0.67728                      88.84743
                      -4.65669                       0.79406                      88.77460
                      -5.01685                       0.84545                      88.76108
                      -5.37750                       0.82823                      88.80772
                      -5.71597                       0.74347                      88.91160
                      -6.01101                       0.59651                      89.06617
                      -6.24407                       0.39657                      89.26174
                      -6.40051                       0.15621                      89.48601
                      -6.47049                      -0.10945                      89.72490
                      -6.44963                      -0.38373                      89.96338
                      -6.33922                      -0.64939                      90.18648
                      -6.14622                      -0.88975                      90.38019
                      -5.88274                      -1.08969                      90.53231
                      -5.56534                      -1.23665                      90.63331
                      -5.21397                      -1.32141                      90.67683
                      -4.85070                      -1.33863                      90.66013
                      -4.49836                      -1.28724                      90.58428
                      -4.17909                      -1.17046                      90.45403
                      -3.91294                      -0.99562                      90.27756
                      -3.71665                      -0.77373                      90.06597
                      -3.60254                      -0.51871                      89.83256
                      -3.54302                      -0.16439                      89.68347
                      -3.61039                       0.11272                      89.44657
                      -3.76611                       0.37242                      89.23266
                      -4.00039                       0.59838                      89.05517
                      -4.29850                       0.77643                      88.92526
                      -4.64173                       0.89535                      88.85110
                      -5.00850                       0.94769                      88.83733
                      -5.37577                       0.93015                      88.88483
                      -5.72045                       0.84384                      88.99061
                      -6.02090                       0.69417                      89.14802
                      -6.25824                       0.49056                      89.34718
                      -6.41755                       0.24580                      89.57556
                      -6.48881                      -0.02474                      89.81883
                      -6.46757                      -0.30405                      90.06169
                      -6.35514                      -0.57459                      90.28889
                      -6.15859                      -0.81935                      90.48614
                      -5.89028                      -1.02296                      90.64106
                      -5.56706                      -1.17262                      90.74391
                      -5.20924                      -1.25894                      90.78823
                      -4.83930                      -1.27648                      90.77123
                      -4.48050                      -1.22414                      90.69398
                      -4.15536                      -1.10521                      90.56134
                      -3.88433                      -0.92717                      90.38164
                      -3.68444                      -0.70120                      90.16616
                      -3.56823                      -0.44150                      89.92846
                      -3.51911                      -0.08220                      89.77591
                      -3.58720                       0.19787                      89.53649
                      -3.74458                       0.46033                      89.32030
                      -3.98135                       0.68871                      89.14092
                      -4.28264                       0.86865                      89.00963
                      -4.62953                       0.98884                      88.93467
                      -5.00021                       1.04174                      88.92075
                      -5.37139                       1.02401                      88.96876
                      -5.71975                       0.93678                      89.07566
                      -6.02340                       0.78552                      89.23475
                      -6.26327                       0.57974                      89.43603
                      -6.42427                       0.33237                      89.66686
                      -6.49630                       0.05895                      89.91271
                      -6.47482                      -0.22334                      90.15816
                      -6.36120                      -0.49676                      90.38778
                      -6.16256                      -0.74413                      90.58714
                      -5.89138                      -0.94991                      90.74371
                      -5.56472                      -1.10117                      90.84765
                      -5.20309                      -1.18841                      90.89244
                      -4.82921                      -1.20613                      90.87526
                      -4.46658                      -1.15323                      90.79719
                      -4.13798                      -1.03304                      90.66314
                      -3.86406                      -0.85310                      90.48152
                      -3.66203                      -0.62473                      90.26375
                      -3.54459                      -0.36226                      90.02352
                      -3.50571                       0.00000                      89.86927
                      -3.57403                       0.28104                      89.62901
                      -3.73196                       0.54442                      89.41207
                      -3.96956                       0.77360                      89.23206
                      -4.27190                       0.95416                      89.10031
                      -4.62000                       1.07478                      89.02509
                      -4.99197                       1.12786                      89.01113
                      -5.36445                       1.11007                      89.05930
                      -5.71402                       1.02253                      89.16658
                      -6.01874                       0.87075                      89.32623
                      -6.25944                       0.66425                      89.52821
                      -6.42100                       0.41601                      89.75984
                      -6.49328                       0.14164                      90.00655
                      -6.47174                      -0.14164                      90.25286
                      -6.35771                      -0.41601                      90.48328
                      -6.15838                      -0.66425                      90.68333
                      -5.88626                      -0.87075                      90.84045
                      -5.55845                      -1.02253                      90.94475
                      -5.19556                      -1.11007                      90.98970
                      -4.82038                      -1.12786                      90.97246
                      -4.45648                      -1.07478                      90.89412
                      -4.12674                      -0.95416                      90.75959
                      -3.85186                      -0.77360                      90.57734
                      -3.64913                      -0.54442                      90.35881
                      -3.53128                      -0.28104                      90.11774
                      -3.50270                       0.08220                      89.96354
                      -3.57079                       0.36226                      89.72412
                      -3.72816                       0.62473                      89.50793
                      -3.96493                       0.85310                      89.32855
                      -4.26623                       1.03304                      89.19726
                      -4.61311                       1.15323                      89.12230
                      -4.98379                       1.20613                      89.10838
                      -5.35497                       1.18841                      89.15639
                      -5.70333                       1.10117                      89.26329
                      -6.00699                       0.94991                      89.42238
                      -6.24685                       0.74413                      89.62366
                      -6.40785                       0.49676                      89.85449
                      -6.47988                       0.22334                      90.10035
                      -6.45841                      -0.05895                      90.34580
                      -6.34478                      -0.33237                      90.57541
                      -6.14614                      -0.57974                      90.77477
                      -5.87497                      -0.78552                      90.93134
                      -5.54830                      -0.93678                      91.03528
                      -5.18667                      -1.02401                      91.08007
                      -4.81279                      -1.04174                      91.06289
                      -4.45016                      -0.98884                      90.98482
                      -4.12156                      -0.86865                      90.85077
                      -3.84765                      -0.68871                      90.66915
                      -3.64562                      -0.46033                      90.45138
                      -3.52818                      -0.19787                      90.21115
                      -3.51019                       0.16439                      90.05873
                      -3.57756                       0.44150                      89.82183
                      -3.73328                       0.70120                      89.60792
                      -3.96755                       0.92717                      89.43044
                      -4.26567                       1.10521                      89.30053
                      -4.60890                       1.22414                      89.22636
                      -4.97567                       1.27647                      89.21259
                      -5.34293                       1.25894                      89.26009
                      -5.68762                       1.17262                      89.36587
                      -5.98807                       1.02296                      89.52328
                      -6.22541                       0.81935                      89.72244
                      -6.38471                       0.57459                      89.95083
                      -6.45598                       0.30405                      90.19409
                      -6.43474                       0.02474                      90.43695
                      -6.32231                      -0.24580                      90.66415
                      -6.12576                      -0.49056                      90.86140
                      -5.85745                      -0.69418                      91.01632
                      -5.53423                      -0.84384                      91.11917
                      -5.17641                      -0.93015                      91.16349
                      -4.80647                      -0.94769                      91.14649
                      -4.44767                      -0.89535                      91.06924
                      -4.12253                      -0.77643                      90.93660
                      -3.85150                      -0.59838                      90.75690
                      -3.65161                      -0.37242                      90.54143
                      -3.53540                      -0.11272                      90.30373
                      -3.52854                       0.24659                      90.15487
                      -3.59469                       0.51871                      89.92224
                      -3.74760                       0.77373                      89.71218
                      -3.97765                       0.99562                      89.53789
                      -4.27040                       1.17045                      89.41033
                      -4.60744                       1.28724                      89.33750
                      -4.96760                       1.33863                      89.32398
                      -5.32825                       1.32141                      89.37062
                      -5.66673                       1.23665                      89.47449
                      -5.96176                       1.08969                      89.62907
                      -6.19482                       0.88975                      89.82464
                      -6.35126                       0.64939                      90.04891
                      -6.42124                       0.38373                      90.28779
                      -6.40038                       0.10945                      90.52628
                      -6.28998                      -0.15621                      90.74938
                      -6.09697                      -0.39657                      90.94308
                      -5.83349                      -0.59651                      91.09521
                      -5.51610                      -0.74347                      91.19620
                      -5.16473                      -0.82823                      91.23972
                      -4.80146                      -0.84545                      91.22303
                      -4.44912                      -0.79406                      91.14717
                      -4.12984                      -0.67728                      91.01692
                      -3.86370                      -0.50244                      90.84046
                      -3.66740                      -0.28055                      90.62887
                      -3.55329                      -0.02553                      90.39545
                      -3.55834                       0.32879                      90.25201
                      -3.62276                       0.59375                      90.02549
                      -3.77165                       0.84207                      89.82095
                      -3.99566                       1.05814                      89.65124
                      -4.28071                       1.22838                      89.52703
                      -4.60890                       1.34210                      89.45611
                      -4.95960                       1.39214                      89.44295
                      -5.31077                       1.37537                      89.48836
                      -5.64036                       1.29284                      89.58951
                      -5.92764                       1.14973                      89.74002
                      -6.15458                       0.95505                      89.93045
                      -6.30691                       0.72101                      90.14883
                      -6.37505                       0.46232                      90.38144
                      -6.35473                       0.19525                      90.61366
                      -6.24723                      -0.06343                      90.83090
                      -6.05930                      -0.29747                      91.01951
                      -5.80274                      -0.49216                      91.16764
                      -5.49368                      -0.63527                      91.26599
                      -5.15154                      -0.71780                      91.30836
                      -4.79782                      -0.73457                      91.29211
                      -4.45473                      -0.68452                      91.21824
                      -4.14385                      -0.57081                      91.09141
                      -3.88469                      -0.40057                      90.91959
                      -3.69355                      -0.18450                      90.71356
                      -3.58244                       0.06382                      90.48627
                      -3.60056                       0.41098                      90.35024
                      -3.66267                       0.66647                      90.13183
                      -3.80624                       0.90590                      89.93461
                      -4.02223                       1.11423                      89.77098
                      -4.29708                       1.27837                      89.65121
                      -4.61352                       1.38802                      89.58283
                      -4.95166                       1.43627                      89.57013
                      -5.29027                       1.42010                      89.61393
                      -5.60805                       1.34053                      89.71145
                      -5.88505                       1.20254                      89.85658
                      -6.10387                       1.01482                      90.04019
                      -6.25074                       0.78916                      90.25075
                      -6.31645                       0.53974                      90.47504
                      -6.29686                       0.28223                      90.69894
                      -6.19320                       0.03280                      90.90841
                      -6.01200                      -0.19286                      91.09027
                      -5.76462                      -0.38058                      91.23309
                      -5.46663                      -0.51856                      91.32792
                      -5.13674                      -0.59814                      91.36878
                      -4.79567                      -0.61431                      91.35310
                      -4.46487                      -0.56605                      91.28188
                      -4.16511                      -0.45641                      91.15959
                      -3.91523                      -0.29226                      90.99392
                      -3.73094                      -0.08393                      90.79526
                      -3.62380                       0.15550                      90.57611
                      -3.65666                       0.49318                      90.44968
                      -3.71583                       0.73657                      90.24161
                      -3.85260                       0.96466                      90.05373
                      -4.05836                       1.16313                      89.89784
                      -4.32020                       1.31951                      89.78374
                      -4.62166                       1.42396                      89.71860
                      -4.94380                       1.46993                      89.70651
                      -5.26637                       1.45453                      89.74822
                      -5.56912                       1.37872                      89.84113
                      -5.83301                       1.24727                      89.97939
                      -6.04146                       1.06844                      90.15431
                      -6.18138                       0.85346                      90.35490
                      -6.24398                       0.61584                      90.56857
                      -6.22531                       0.37052                      90.78188
                      -6.12657                       0.13290                      90.98142
                      -5.95394                      -0.08208                      91.15467
                      -5.71828                      -0.26091                      91.29074
                      -5.43439                      -0.39236                      91.38108
                      -5.12011                      -0.46817                      91.42000
                      -4.79519                      -0.48357                      91.40507
                      -4.48005                      -0.43760                      91.33722
                      -4.19448                      -0.33315                      91.22072
                      -3.95644                      -0.17678                      91.06289
                      -3.78086                       0.02169                      90.87364
                      -3.67880                       0.24979                      90.66486
                      -3.72883                       0.57538                      90.55053
                      -3.78433                       0.80365                      90.35538
                      -3.91260                       1.01757                      90.17917
                      -4.10559                       1.20372                      90.03297
                      -4.35116                       1.35038                      89.92595
                      -4.63390                       1.44834                      89.86486
                      -4.93602                       1.49146                      89.85352
                      -5.23856                       1.47701                      89.89264
                      -5.52250                       1.40591                      89.97978
                      -5.77000                       1.28263                      90.10945
                      -5.96550                       1.11490                      90.27350
                      -6.09673                       0.91328                      90.46164
                      -6.15544                       0.69042                      90.66203
                      -6.13794                       0.46033                      90.86209
                      -6.04532                       0.23748                      91.04924
                      -5.88342                       0.03585                      91.21173
                      -5.66239                      -0.13187                      91.33935
                      -5.39614                      -0.25516                      91.42407
                      -5.10139                      -0.32626                      91.46058
                      -4.79665                      -0.34071                      91.44657
                      -4.50108                      -0.29759                      91.38294
                      -4.23325                      -0.19963                      91.27368
                      -4.00999                      -0.05297                      91.12565
                      -3.84532                       0.13318                      90.94815
                      -3.74960                       0.34711                      90.75234
                      -3.82056                       0.65757                      90.65308
                      -3.87149                       0.86705                      90.47401
                      -3.98919                       1.06336                      90.31231
                      -4.16629                       1.23418                      90.17814
                      -4.39165                       1.36876                      90.07994
                      -4.65110                       1.45866                      90.02387
                      -4.92835                       1.49823                      90.01346
                      -5.20598                       1.48497                      90.04937
                      -5.46654                       1.41972                      90.12933
                      -5.69366                       1.30659                      90.24832
                      -5.87307                       1.15267                      90.39887
                      -5.99349                       0.96765                      90.57152
                      -6.04737                       0.76314                      90.75541
                      -6.03130                       0.55200                      90.93900
                      -5.94632                       0.34749                      91.11074
                      -5.79774                       0.16247                      91.25985
                      -5.59492                       0.00856                      91.37696
                      -5.35059                      -0.10458                      91.45470
                      -5.08010                      -0.16982                      91.48820
                      -4.80045                      -0.18308                      91.47535
                      -4.52922                      -0.14352                      91.41696
                      -4.28344                      -0.05362                      91.31669
                      -4.07857                       0.08097                      91.18085
                      -3.92746                       0.25178                      91.01797
                      -3.83962                       0.44810                      90.83828
                      -3.93775                       0.73977                      90.75787
                      -3.98294                       0.92566                      90.59896
                      -4.08740                       1.09987                      90.45546
                      -4.24456                       1.25146                      90.33640
                      -4.44454                       1.37089                      90.24925
                      -4.67478                       1.45067                      90.19950
                      -4.92082                       1.48578                      90.19026
                      -5.16719                       1.47401                      90.22213
                      -5.39841                       1.41611                      90.29309
                      -5.59996                       1.31571                      90.39868
                      -5.75917                       1.17913                      90.53228
                      -5.86604                       1.01494                      90.68549
                      -5.91384                       0.83345                      90.84868
                      -5.89959                       0.64608                      91.01159
                      -5.82417                       0.46460                      91.16400
                      -5.69233                       0.30041                      91.29632
                      -5.51234                       0.16382                      91.40024
                      -5.29551                       0.06343                      91.46924
                      -5.05548                       0.00553                      91.49897
                      -4.80732                      -0.00624                      91.48756
                      -4.56663                       0.02887                      91.43574
                      -4.34852                       0.10865                      91.34677
                      -4.16671                       0.22808                      91.22622
                      -4.03261                       0.37967                      91.08167
                      -3.95466                       0.55388                      90.92222
                      -4.09192                       0.82197                      90.86589
                      -4.12969                       0.97732                      90.73309
                      -4.21699                       1.12291                      90.61316
                      -4.34832                       1.24959                      90.51366
                      -4.51545                       1.34940                      90.44084
                      -4.70787                       1.41607                      90.39926
                      -4.91348                       1.44541                      90.39154
                      -5.11938                       1.43558                      90.41817
                      -5.31261                       1.38719                      90.47747
                      -5.48105                       1.30329                      90.56571
                      -5.61410                       1.18914                      90.67736
                      -5.70341                       1.05193                      90.80540
                      -5.74337                       0.90026                      90.94178
                      -5.73145                       0.74367                      91.07793
                      -5.66843                       0.59201                      91.20530
                      -5.55824                       0.45479                      91.31588
                      -5.40782                       0.34064                      91.40273
                      -5.22662                       0.25674                      91.46039
                      -5.02602                       0.20835                      91.48523
                      -4.81863                       0.19852                      91.47570
                      -4.61748                       0.22786                      91.43240
                      -4.43521                       0.29453                      91.35804
                      -4.28326                       0.39434                      91.25730
                      -4.17120                       0.52102                      91.13650
                      -4.10605                       0.66661                      91.00324
                      -4.31252                       0.90416                      90.97973
                      -4.33982                       1.01648                      90.88371
                      -4.40294                       1.12174                      90.79700
                      -4.49790                       1.21333                      90.72506
                      -4.61873                       1.28550                      90.67241
                      -4.75785                       1.33370                      90.64235
                      -4.90651                       1.35491                      90.63677
                      -5.05537                       1.34780                      90.65602
                      -5.19508                       1.31282                      90.69889
                      -5.31686                       1.25216                      90.76270
                      -5.41305                       1.16963                      90.84342
                      -5.47762                       1.07042                      90.93599
                      -5.50651                       0.96077                      91.03459
                      -5.49790                       0.84756                      91.13303
                      -5.45233                       0.73790                      91.22512
                      -5.37266                       0.63869                      91.30507
                      -5.26391                       0.55617                      91.36786
                      -5.13290                       0.49550                      91.40955
                      -4.98787                       0.46052                      91.42751
                      -4.83793                       0.45341                      91.42062
                      -4.69250                       0.47462                      91.38931
                      -4.56071                       0.52283                      91.33555
                      -4.45086                       0.59499                      91.26271
                      -4.36984                       0.68658                      91.17537
                      -4.32274                       0.79184                      91.07903
                      -4.90151                       0.98636                      91.12579
                      -4.90151                       0.98636                      91.12579
                      -4.90151                       0.98636                      91.12579
                      -4.90151                       0.98636                      91.12579
                      -4.90151                       0.98636                      91.12579
                      -4.90151                       0.98636                      91.12579
                      -4.90151                       0.98636                      91.12579
                      -4.90151                       0.98636                      91.12579
                      -4.90151                       0.98636                      91.12579
                      -4.90151                       0.98636                      91.12579
                      -4.90151                       0.98636                      91.12579
                      -4.90151                       0.98636                      91.12579
                      -4.90151                       0.98636                      91.12579
                      -4.90151                       0.98636                      91.12579
                      -4.90151                       0.98636                      91.12579
                      -4.90151                       0.98636                      91.12579
                      -4.90151                       0.98636                      91.12579
                      -4.90151                       0.98636                      91.12579
                      -4.90151                       0.98636                      91.12579
                      -4.90151                       0.98636                      91.12579
                      -4.90151                       0.98636                      91.12579
                      -4.90151                       0.98636                      91.12579
                      -4.90151                       0.98636                      91.12579
                      -4.90151                       0.98636                      91.12579
                      -4.90151                       0.98636                      91.12579
        </DataArray>
      </Points>
      <Polys>
        <DataArray type="Int32" Name="connectivity" format="ascii">
      0      1     26     25
      1      2     27     26
      2      3     28     27
      3      4     29     28
      4      5     30     29
      5      6     31     30
      6      7     32     31
      7      8     33     32
      8      9     34     33
      9     10     35     34
     10     11     36     35
     11     12     37     36
     12     13     38     37
     13     14     39     38
     14     15     40     39
     15     16     41     40
     16     17     42     41
     17     18     43     42
     18     19     44     43
     19     20     45     44
     20     21     46     45
     21     22     47     46
     22     23     48     47
     23     24     49     48
     24      0     25     49
     25     26     51     50
     26     27     52     51
     27     28     53     52
     28     29     54     53
     29     30     55     54
     30     31     56     55
     31     32     57     56
     32     33     58     57
     33     34     59     58
     34     35     60     59
     35     36     61     60
     36     37     62     61
     37     38     63     62
     38     39     64     63
     39     40     65     64
     40     41     66     65
     41     42     67     66
     42     43     68     67
     43     44     69     68
     44     45     70     69
     45     46     71     70
     46     47     72     71
     47     48     73     72
     48     49     74     73
     49     25     50     74
     50     51     76     75
     51     52     77     76
     52     53     78     77
     53     54     79     78
     54     55     80     79
     55     56     81     80
     56     57     82     81
     57     58     83     82
     58     59     84     83
     59     60     85     84
     60     61     86     85
     61     62     87     86
     62     63     88     87
     63     64     89     88
     64     65     90     89
     65     66     91     90
     66     67     92     91
     67     68     93     92
     68     69     94     93
     69     70     95     94
     70     71     96     95
     71     72     97     96
     72     73     98     97
     73     74     99     98
     74     50     75     99
     75     76    101    100
     76     77    102    101
     77     78    103    102
     78     79    104    103
     79     80    105    104
     80     81    106    105
     81     82    107    106
     82     83    108    107
     83     84    109    108
     84     85    110    109
     85     86    111    110
     86     87    112    111
     87     88    113    112
     88     89    114    113
     89     90    115    114
     90     91    116    115
     91     92    117    116
     92     93    118    117
     93     94    119    118
     94     95    120    119
     95     96    121    120
     96     97    122    121
     97     98    123    122
     98     99    124    123
     99     75    100    124
    100    101    126    125
    101    102    127    126
    102    103    128    127
    103    104    129    128
    104    105    130    129
    105    106    131    130
    106    107    132    131
    107    108    133    132
    108    109    134    133
    109    110    135    134
    110    111    136    135
    111    112    137    136
    112    113    138    137
    113    114    139    138
    114    115    140    139
    115    116    141    140
    116    117    142    141
    117    118    143    142
    118    119    144    143
    119    120    145    144
    120    121    146    145
    121    122    147    146
    122    123    148    147
    123    124    149    148
    124    100    125    149
    125    126    151    150
    126    127    152    151
    127    128    153    152
    128    129    154    153
    129    130    155    154
    130    131    156    155
    131    132    157    156
    132    133    158    157
    133    134    159    158
    134    135    160    159
    135    136    161    160
    136    137    162    161
    137    138    163    162
    138    139    164    163
    139    140    165    164
    140    141    166    165
    141    142    167    166
    142    143    168    167
    143    144    169    168
    144    145    170    169
    145    146    171    170
    146    147    172    171
    147    148    173    172
    148    149    174    173
    149    125    150    174
    150    151    176    175
    151    152    177    176
    152    153    178    177
    153    154    179    178
    154    155    180    179
    155    156    181    180
    156    157    182    181
    157    158    183    182
    158    159    184    183
    159    160    185    184
    160    161    186    185
    161    162    187    186
    162    163    188    187
    163    164    189    188
    164    165    190    189
    165    166    191    190
    166    167    192    191
    167    168    193    192
    168    169    194    193
    169    170    195    194
    170    171    196    195
    171    172    197    196
    172    173    198    197
    173    174    199    198
    174    150    175    199
    175    176    201    200
    176    177    202    201
    177    178    203    202
    178    179    204    203
    179    180    205    204
    180    181    206    205
    181    182    207    206
    182    183    208    207
    183    184    209    208
    184    185    210    209
    185    186    211    210
    186    187    212    211
    187    188    213    212
    188    189    214    213
    189    190    215    214
    190    191    216    215
    191    192    217    216
    192    193    218    217
    193    194    219    218
    194    195    220    219
    195    196    221    220
    196    197    222    221
    197    198    223    222
    198    199    224    223
    199    175    200    224
    200    201    226    225
    201    202    227    226
    202    203    228    227
    203    204    229    228
    204    205    230    229
    205    206    231    230
    206    207    232    231
    207    208    233    232
    208    209    234    233
    209    210    235    234
    210    211    236    235
    211    212    237    236
    212    213    238    237
    213    214    239    238
    214    215    240    239
    215    216    241    240
    216    217    242    241
    217    218    243    242
    218    219    244    243
    219    220    245    244
    220    221    246    245
    221    222    247    246
    222    223    248    247
    223    224    249    248
    224    200    225    249
    225    226    251    250
    226    227    252    251
    227    228    253    252
    228    229    254    253
    229    230    255    254
    230    231    256    255
    231    232    257    256
    232    233    258    257
    233    234    259    258
    234    235    260    259
    235    236    261    260
    236    237    262    261
    237    238    263    262
    238    239    264    263
    239    240    265    264
    240    241    266    265
    241    242    267    266
    242    243    268    267
    243    244    269    268
    244    245    270    269
    245    246    271    270
    246    247    272    271
    247    248    273    272
    248    249    274    273
    249    225    250    274
    250    251    276    275
    251    252    277    276
    252    253    278    277
    253    254    279    278
    254    255    280    279
    255    256    281    280
    256    257    282    281
    257    258    283    282
    258    259    284    283
    259    260    285    284
    260    261    286    285
    261    262    287    286
    262    263    288    287
    263    264    289    288
    264    265    290    289
    265    266    291    290
    266    267    292    291
    267    268    293    292
    268    269    294    293
    269    270    295    294
    270    271    296    295
    271    272    297    296
    272    273    298    297
    273    274    299    298
    274    250    275    299
    275    276    301    300
    276    277    302    301
    277    278    303    302
    278    279    304    303
    279    280    305    304
    280    281    306    305
    281    282    307    306
    282    283    308    307
    283    284    309    308
    284    285    310    309
    285    286    311    310
    286    287    312    311
    287    288    313    312
    288    289    314    313
    289    290    315    314
    290    291    316    315
    291    292    317    316
    292    293    318    317
    293    294    319    318
    294    295    320    319
    295    296    321    320
    296    297    322    321
    297    298    323    322
    298    299    324    323
    299    275    300    324
    300    301    326    325
    301    302    327    326
    302    303    328    327
    303    304    329    328
    304    305    330    329
    305    306    331    330
    306    307    332    331
    307    308    333    332
    308    309    334    333
    309    310    335    334
    310    311    336    335
    311    312    337    336
    312    313    338    337
    313    314    339    338
    314    315    340    339
    315    316    341    340
    316    317    342    341
    317    318    343    342
    318    319    344    343
    319    320    345    344
    320    321    346    345
    321    322    347    346
    322    323    348    347
    323    324    349    348
    324    300    325    349
    325    326    351    350
    326    327    352    351
    327    328    353    352
    328    329    354    353
    329    330    355    354
    330    331    356    355
    331    332    357    356
    332    333    358    357
    333    334    359    358
    334    335    360    359
    335    336    361    360
    336    337    362    361
    337    338    363    362
    338    339    364    363
    339    340    365    364
    340    341    366    365
    341    342    367    366
    342    343    368    367
    343    344    369    368
    344    345    370    369
    345    346    371    370
    346    347    372    371
    347    348    373    372
    348    349    374    373
    349    325    350    374
    350    351    376    375
    351    352    377    376
    352    353    378    377
    353    354    379    378
    354    355    380    379
    355    356    381    380
    356    357    382    381
    357    358    383    382
    358    359    384    383
    359    360    385    384
    360    361    386    385
    361    362    387    386
    362    363    388    387
    363    364    389    388
    364    365    390    389
    365    366    391    390
    366    367    392    391
    367    368    393    392
    368    369    394    393
    369    370    395    394
    370    371    396    395
    371    372    397    396
    372    373    398    397
    373    374    399    398
    374    350    375    399
    375    376    401    400
    376    377    402    401
    377    378    403    402
    378    379    404    403
    379    380    405    404
    380    381    406    405
    381    382    407    406
    382    383    408    407
    383    384    409    408
    384    385    410    409
    385    386    411    410
    386    387    412    411
    387    388    413    412
    388    389    414    413
    389    390    415    414
    390    391    416    415
    391    392    417    416
    392    393    418    417
    393    394    419    418
    394    395    420    419
    395    396    421    420
    396    397    422    421
    397    398    423    422
    398    399    424    423
    399    375    400    424
    400    401    426    425
    401    402    427    426
    402    403    428    427
    403    404    429    428
    404    405    430    429
    405    406    431    430
    406    407    432    431
    407    408    433    432
    408    409    434    433
    409    410    435    434
    410    411    436    435
    411    412    437    436
    412    413    438    437
    413    414    439    438
    414    415    440    439
    415    416    441    440
    416    417    442    441
    417    418    443    442
    418    419    444    443
    419    420    445    444
    420    421    446    445
    421    422    447    446
    422    423    448    447
    423    424    449    448
    424    400    425    449
    425    426    451    450
    426    427    452    451
    427    428    453    452
    428    429    454    453
    429    430    455    454
    430    431    456    455
    431    432    457    456
    432    433    458    457
    433    434    459    458
    434    435    460    459
    435    436    461    460
    436    437    462    461
    437    438    463    462
    438    439    464    463
    439    440    465    464
    440    441    466    465
    441    442    467    466
    442    443    468    467
    443    444    469    468
    444    445    470    469
    445    446    471    470
    446    447    472    471
    447    448    473    472
    448    449    474    473
    449    425    450    474
    450    451    476    475
    451    452    477    476
    452    453    478    477
    453    454    479    478
    454    455    480    479
    455    456    481    480
    456    457    482    481
    457    458    483    482
    458    459    484    483
    459    460    485    484
    460    461    486    485
    461    462    487    486
    462    463    488    487
    463    464    489    488
    464    465    490    489
    465    466    491    490
    466    467    492    491
    467    468    493    492
    468    469    494    493
    469    470    495    494
    470    471    496    495
    471    472    497    496
    472    473    498    497
    473    474    499    498
    474    450    475    499
    475    476    501    500
    476    477    502    501
    477    478    503    502
    478    479    504    503
    479    480    505    504
    480    481    506    505
    481    482    507    506
    482    483    508    507
    483    484    509    508
    484    485    510    509
    485    486    511    510
    486    487    512    511
    487    488    513    512
    488    489    514    513
    489    490    515    514
    490    491    516    515
    491    492    517    516
    492    493    518    517
    493    494    519    518
    494    495    520    519
    495    496    521    520
    496    497    522    521
    497    498    523    522
    498    499    524    523
    499    475    500    524
    500    501    526    525
    501    502    527    526
    502    503    528    527
    503    504    529    528
    504    505    530    529
    505    506    531    530
    506    507    532    531
    507    508    533    532
    508    509    534    533
    509    510    535    534
    510    511    536    535
    511    512    537    536
    512    513    538    537
    513    514    539    538
    514    515    540    539
    515    516    541    540
    516    517    542    541
    517    518    543    542
    518    519    544    543
    519    520    545    544
    520    521    546    545
    521    522    547    546
    522    523    548    547
    523    524    549    548
    524    500    525    549
    525    526    551    550
    526    527    552    551
    527    528    553    552
    528    529    554    553
    529    530    555    554
    530    531    556    555
    531    532    557    556
    532    533    558    557
    533    534    559    558
    534    535    560    559
    535    536    561    560
    536    537    562    561
    537    538    563    562
    538    539    564    563
    539    540    565    564
    540    541    566    565
    541    542    567    566
    542    543    568    567
    543    544    569    568
    544    545    570    569
    545    546    571    570
    546    547    572    571
    547    548    573    572
    548    549    574    573
    549    525    550    574
    550    551    576    575
    551    552    577    576
    552    553    578    577
    553    554    579    578
    554    555    580    579
    555    556    581    580
    556    557    582    581
    557    558    583    582
    558    559    584    583
    559    560    585    584
    560    561    586    585
    561    562    587    586
    562    563    588    587
    563    564    589    588
    564    565    590    589
    565    566    591    590
    566    567    592    591
    567    568    593    592
    568    569    594    593
    569    570    595    594
    570    571    596    595
    571    572    597    596
    572    573    598    597
    573    574    599    598
    574    550    575    599
    575    576    601    600
    576    577    602    601
    577    578    603    602
    578    579    604    603
    579    580    605    604
    580    581    606    605
    581    582    607    606
    582    583    608    607
    583    584    609    608
    584    585    610    609
    585    586    611    610
    586    587    612    611
    587    588    613    612
    588    589    614    613
    589    590    615    614
    590    591    616    615
    591    592    617    616
    592    593    618    617
    593    594    619    618
    594    595    620    619
    595    596    621    620
    596    597    622    621
    597    598    623    622
    598    599    624    623
    599    575    600    624
        </DataArray>
        <DataArray type="Int32" Name="offsets" format="ascii">
      4
      8
     12
     16
     20
     24
     28
     32
     36
     40
     44
     48
     52
     56
     60
     64
     68
     72
     76
     80
     84
     88
     92
     96
    100
    104
    108
    112
    116
    120
    124
    128
    132
    136
    140
    144
    148
    152
    156
    160
    164
    168
    172
    176
    180
    184
    188
    192
    196
    200
    204
    208
    212
    216
    220
    224
    228
    232
    236
    240
    244
    248
    252
    256
    260
    264
    268
    272
    276
    280
    284
    288
    292
    296
    300
    304
    308
    312
    316
    320
    324
    328
    332
    336
    340
    344
    348
    352
    356
    360
    364
    368
    372
    376
    380
    384
    388
    392
    396
    400
    404
    408
    412
    416
    420
    424
    428
    432
    436
    440
    444
    448
    452
    456
    460
    464
    468
    472
    476
    480
    484
    488
    492
    496
    500
    504
    508
    512
    516
    520
    524
    528
    532
    536
    540
    544
    548
    552
    556
    560
    564
    568
    572
    576
    580
    584
    588
    592
    596
    600
    604
    608
    612
    616
    620
    624
    628
    632
    636
    640
    644
    648
    652
    656
    660
    664
    668
    672
    676
    680
    684
    688
    692
    696
    700
    704
    708
    712
    716
    720
    724
    728
    732
    736
    740
    744
    748
    752
    756
    760
    764
    768
    772
    776
    780
    784
    788
    792
    796
    800
    804
    808
    812
    816
    820
    824
    828
    832
    836
    840
    844
    848
    852
    856
    860
    864
    868
    872
    876
    880
    884
    888
    892
    896
    900
    904
    908
    912
    916
    920
    924
    928
    932
    936
    940
    944
    948
    952
    956
    960
    964
    968
    972
    976
    980
    984
    988
    992
    996
   1000
   1004
   1008
   1012
   1016
   1020
   1024
   1028
   1032
   1036
   1040
   1044
   1048
   1052
   1056
   1060
   1064
   1068
   1072
   1076
   1080
   1084
   1088
   1092
   1096
   1100
   1104
   1108
   1112
   1116
   1120
   1124
   1128
   1132
   1136
   1140
   1144
   1148
   1152
   1156
   1160
   1164
   1168
   1172
   1176
   1180
   1184
   1188
   1192
   1196
   1200
   1204
   1208
   1212
   1216
   1220
   1224
   1228
   1232
   1236
   1240
   1244
   1248
   1252
   1256
   1260
   1264
   1268
   1272
   1276
   1280
   1284
   1288
   1292
   1296
   1300
   1304
   1308
   1312
   1316
   1320
   1324
   1328
   1332
   1336
   1340
   1344
   1348
   1352
   1356
   1360
   1364
   1368
   1372
   1376
   1380
   1384
   1388
   1392
   1396
   1400
   1404
   1408
   1412
   1416
   1420
   1424
   1428
   1432
   1436
   1440
   1444
   1448
   1452
   1456
   1460
   1464
   1468
   1472
   1476
   1480
   1484
   1488
   1492
   1496
   1500
   1504
   1508
   1512
   1516
   1520
   1524
   1528
   1532
   1536
   1540
   1544
   1548
   1552
   1556
   1560
   1564
   1568
   1572
   1576
   1580
   1584
   1588
   1592
   1596
   1600
   1604
   1608
   1612
   1616
   1620
   1624
   1628
   1632
   1636
   1640
   1644
   1648
   1652
   1656
   1660
   1664
   1668
   1672
   1676
   1680
   1684
   1688
   1692
   1696
   1700
   1704
   1708
   1712
   1716
   1720
   1724
   1728
   1732
   1736
   1740
   1744
   1748
   1752
   1756
   1760
   1764
   1768
   1772
   1776
   1780
   1784
   1788
   1792
   1796
   1800
   1804
   1808
   1812
   1816
   1820
   1824
   1828
   1832
   1836
   1840
   1844
   1848
   1852
   1856
   1860
   1864
   1868
   1872
   1876
   1880
   1884
   1888
   1892
   1896
   1900
   1904
   1908
   1912
   1916
   1920
   1924
   1928
   1932
   1936
   1940
   1944
   1948
   1952
   1956
   1960
   1964
   1968
   1972
   1976
   1980
   1984
   1988
   1992
   1996
   2000
   2004
   2008
   2012
   2016
   2020
   2024
   2028
   2032
   2036
   2040
   2044
   2048
   2052
   2056
   2060
   2064
   2068
   2072
   2076
   2080
   2084
   2088
   2092
   2096
   2100
   2104
   2108
   2112
   2116
   2120
   2124
   2128
   2132
   2136
   2140
   2144
   2148
   2152
   2156
   2160
   2164
   2168
   2172
   2176
   2180
   2184
   2188
   2192
   2196
   2200
   2204
   2208
   2212
   2216
   2220
   2224
   2228
   2232
   2236
   2240
   2244
   2248
   2252
   2256
   2260
   2264
   2268
   2272
   2276
   2280
   2284
   2288
   2292
   2296
   2300
   2304
   2308
   2312
   2316
   2320
   2324
   2328
   2332
   2336
   2340
   2344
   2348
   2352
   2356
   2360
   2364
   2368
   2372
   2376
   2380
   2384
   2388
   2392
   2396
   2400
        </DataArray>
      </Polys>
    </Piece>
  </PolyData>
</VTKFile>
