<?xml version="1.0"?>
<VTKFile type="PolyData" version="0.1" byte_order="LittleEndian">
  <PolyData>
    <Piece NumberOfPoints="     19" NumberOfVerts="  0" NumberOfLines="     18"
           NumberOfStrips="  0" NumberOfPolys="      0">
      <Points>
        <DataArray type="Float32" NumberOfComponents="3" format="ascii">
                      -4.93942                      -0.40451                      91.44316
                      -4.88497                      -0.77646                      92.75715
                      -4.79885                      -1.61159                      95.36039
                      -4.72158                      -2.49033                      97.95179
                      -4.62691                      -3.61539                     101.18379
                      -4.44808                      -4.82968                     105.09741
                      -4.22981                      -5.92061                     109.04385
                      -3.99850                      -7.01058                     112.98986
                      -3.74892                      -8.09777                     116.93556
                      -3.47919                      -9.18388                     120.88024
                      -3.18820                     -10.27224                     124.82276
                      -2.87294                     -11.36124                     128.76322
                      -2.53225                     -12.45071                     132.70142
                      -2.16560                     -13.54056                     136.63720
                      -1.77069                     -14.63080                     140.57012
                      -1.41957                     -15.53965                     143.84519
                      -1.12536                     -16.25931                     146.46575
                      -0.81892                     -16.92628                     149.09985
                      -0.66353                     -17.29994                     150.40503
        </DataArray>
      </Points>
      <PointData>
        <DataArray type="Float32" Name="TranslationalVelocity" NumberOfComponents="3" format="ascii">
                      -0.01846                      -0.75552                      -0.21099
                      -0.03540                      -1.44359                      -0.40506
                      -0.07328                      -2.80667                      -0.84109
                      -0.11283                      -4.16454                      -1.30043
                      -0.16287                      -5.86028                      -1.88948
                      -0.21567                      -7.92021                      -2.52670
                      -0.26145                     -10.00341                      -3.10060
                      -0.30569                     -12.09130                      -3.67524
                      -0.34824                     -14.18399                      -4.24962
                      -0.38916                     -16.28084                      -4.82454
                      -0.42862                     -18.38084                      -5.40165
                      -0.46657                     -20.48366                      -5.98000
                      -0.50307                     -22.58871                      -6.55938
                      -0.53816                     -24.69542                      -7.13961
                      -0.57185                     -26.80325                      -7.72064
                      -0.59883                     -28.56032                      -8.20539
                      -0.61938                     -29.96728                      -8.58950
                      -0.63688                     -31.38238                      -8.94580
                      -0.64718                     -32.08386                      -9.14540
        </DataArray>
        <DataArray type="Float32" Name="RotationalVelocity" NumberOfComponents="3" format="ascii">
                       0.52161                       0.00000                      -0.04563
                       0.52177                       0.00003                      -0.04564
                       0.52220                       0.00012                      -0.04564
                       0.52276                       0.00026                      -0.04564
                       0.52357                       0.00049                      -0.04565
                       0.52462                       0.00082                      -0.04568
                       0.52569                       0.00120                      -0.04573
                       0.52672                       0.00160                      -0.04579
                       0.52767                       0.00201                      -0.04584
                       0.52851                       0.00241                      -0.04585
                       0.52926                       0.00279                      -0.04581
                       0.52990                       0.00314                      -0.04569
                       0.53045                       0.00345                      -0.04548
                       0.53091                       0.00373                      -0.04517
                       0.53129                       0.00398                      -0.04478
                       0.53155                       0.00417                      -0.04441
                       0.53171                       0.00432                      -0.04411
                       0.53182                       0.00446                      -0.04381
                       0.53185                       0.00454                      -0.04366
        </DataArray>
        <DataArray type="Float32" Name="TranslationalAcceleration" NumberOfComponents="3" format="ascii">
                      -0.03448                       0.11090                      -0.39409
                      -0.04167                       0.13498                      -0.47648
                      -0.11593                       0.41100                      -1.35751
                      -0.18018                       0.67826                      -2.16552
                      -0.24894                       0.99963                      -3.10927
                      -0.31739                       1.32879                      -4.19758
                      -0.36995                       1.61295                      -5.27371
                      -0.40275                       1.89267                      -6.35374
                      -0.41100                       2.17098                      -7.45149
                      -0.38830                       2.44948                      -8.57145
                      -0.32736                       2.72854                      -9.71147
                      -0.22045                       3.00618                     -10.86596
                      -0.05998                       3.28057                     -12.02799
                       0.16097                       3.55039                     -13.19197
                       0.44807                       3.81562                     -14.35658
                       0.74200                       4.03438                     -15.33130
                       1.01209                       4.20738                     -16.11904
                       1.31465                       4.36744                     -16.92431
                       1.47670                       4.46068                     -17.33186
        </DataArray>
        <DataArray type="Float32" Name="OrientationX" NumberOfComponents="3" format="ascii">
                       0.99891                      -0.01177                      -0.04523
                       0.99890                      -0.01171                      -0.04546
                       0.99887                      -0.01153                      -0.04621
                       0.99882                      -0.01128                      -0.04730
                       0.99874                      -0.01089                      -0.04908
                       0.99860                      -0.01034                      -0.05180
                       0.99843                      -0.00972                      -0.05513
                       0.99821                      -0.00904                      -0.05907
                       0.99794                      -0.00832                      -0.06367
                       0.99759                      -0.00756                      -0.06893
                       0.99717                      -0.00675                      -0.07485
                       0.99667                      -0.00589                      -0.08136
                       0.99608                      -0.00499                      -0.08835
                       0.99541                      -0.00406                      -0.09557
                       0.99471                      -0.00313                      -0.10268
                       0.99412                      -0.00238                      -0.10822
                       0.99369                      -0.00182                      -0.11212
                       0.99333                      -0.00131                      -0.11530
                       0.99318                      -0.00108                      -0.11655
        </DataArray>
        <DataArray type="Float32" Name="OrientationY" NumberOfComponents="3" format="ascii">
                       0.02353                       0.96288                       0.26890
                       0.02353                       0.96286                       0.26896
                       0.02357                       0.96282                       0.26911
                       0.02363                       0.96277                       0.26930
                       0.02374                       0.96269                       0.26957
                       0.02396                       0.96259                       0.26991
                       0.02429                       0.96249                       0.27024
                       0.02473                       0.96239                       0.27053
                       0.02530                       0.96231                       0.27078
                       0.02601                       0.96223                       0.27098
                       0.02686                       0.96217                       0.27113
                       0.02783                       0.96211                       0.27123
                       0.02888                       0.96207                       0.27129
                       0.02997                       0.96203                       0.27131
                       0.03104                       0.96199                       0.27130
                       0.03184                       0.96197                       0.27129
                       0.03237                       0.96196                       0.27128
                       0.03275                       0.96195                       0.27127
                       0.03288                       0.96194                       0.27126
        </DataArray>
        <DataArray type="Float32" Name="OrientationZ" NumberOfComponents="3" format="ascii">
                       0.04039                      -0.26967                       0.96211
                       0.04062                      -0.26973                       0.96208
                       0.04139                      -0.26990                       0.96200
                       0.04250                      -0.27010                       0.96189
                       0.04431                      -0.27040                       0.96173
                       0.04707                      -0.27078                       0.96149
                       0.05043                      -0.27115                       0.96121
                       0.05440                      -0.27151                       0.96090
                       0.05901                      -0.27184                       0.96053
                       0.06428                      -0.27212                       0.96011
                       0.07019                      -0.27238                       0.95963
                       0.07668                      -0.27259                       0.95907
                       0.08364                      -0.27277                       0.95844
                       0.09084                      -0.27293                       0.95774
                       0.09793                      -0.27305                       0.95700
                       0.10346                      -0.27314                       0.95640
                       0.10736                      -0.27319                       0.95595
                       0.11056                      -0.27323                       0.95557
                       0.11182                      -0.27325                       0.95542
        </DataArray>
        <DataArray type="Float32" Name="Force" NumberOfComponents="3" format="ascii">
                      31.03339                       6.73871                       0.58609
                     440.83551                      36.46449                      -8.39383
                     490.35391                      73.72443                      -0.43017
                     380.92111                      82.73755                       6.36294
                    2593.82136                    -275.49971                    -196.78789
                    2641.05618                    -242.04860                    -197.21390
                    2846.96555                    -263.58596                    -223.36513
                    2596.32039                    -215.16814                    -207.42510
                    2380.45524                    -153.25080                    -189.30887
                    2440.00396                    -156.57480                    -207.35878
                    2288.73371                     -95.40069                    -194.22608
                    2303.79765                     -93.60782                    -210.53765
                    1971.57262                     -50.11824                    -186.15664
                    1944.43309                     -48.49721                    -198.05811
                    1898.90121                     -45.23213                    -207.03211
                    1848.41063                     -45.34733                    -212.69117
                    1780.37002                     -58.67433                    -216.44381
                    1303.05127                     -62.95046                    -168.48266
                    1336.30037                    -211.17332                    -215.93769
        </DataArray>
        <DataArray type="Float32" Name="Moment" NumberOfComponents="3" format="ascii">
                       0.00000                       0.00000                       0.00000
                       0.00000                       0.00000                       0.00000
                       0.00000                       0.00000                       0.00000
                       0.00000                       0.00000                       0.00000
                     -95.65292                     581.96173                   -2075.51837
                    -107.26431                     614.35183                   -2190.48489
                    -110.13655                     588.74326                   -2098.53451
                    -115.68615                     573.29360                   -2042.72688
                    -117.16149                     535.31129                   -1906.59087
                    -118.24129                     496.05218                   -1765.91747
                    -107.36161                     412.52006                   -1467.75776
                    -107.03894                     376.45524                   -1338.64518
                    -103.88519                     334.98601                   -1190.42819
                    -100.34553                     297.94361                   -1058.09655
                     -94.54992                     260.38139                    -924.10090
                     -87.88908                     229.09466                    -812.65220
                     -76.58686                     192.36400                    -682.11597
                     -37.69049                      91.91829                    -325.84327
                     -18.08504                      43.60547                    -154.56010
        </DataArray>
      </PointData>
      <Lines>
        <DataArray type="Int32" Name="connectivity" format="ascii">
      0      1
      1      2
      2      3
      3      4
      4      5
      5      6
      6      7
      7      8
      8      9
      9     10
     10     11
     11     12
     12     13
     13     14
     14     15
     15     16
     16     17
     17     18
        </DataArray>
        <DataArray type="Int32" Name="offsets" format="ascii">
      2
      4
      6
      8
     10
     12
     14
     16
     18
     20
     22
     24
     26
     28
     30
     32
     34
     36
        </DataArray>
      </Lines>
    </Piece>
  </PolyData>
</VTKFile>
