<?xml version="1.0"?>
<VTKFile type="PolyData" version="0.1" byte_order="LittleEndian">
  <PolyData>
    <Piece NumberOfPoints="     19" NumberOfVerts="  0" NumberOfLines="     18"
           NumberOfStrips="  0" NumberOfPolys="      0">
      <Points>
        <DataArray type="Float32" NumberOfComponents="3" format="ascii">
                      -5.09819                       1.44992                      89.62839
                      -5.18805                       2.77178                      89.29293
                      -5.38038                       5.43829                      88.71424
                      -5.57689                       8.11564                      88.17790
                      -5.82192                      11.46894                      87.53070
                      -6.06696                      15.45831                      86.60616
                      -6.28736                      19.41467                      85.54846
                      -6.49570                      23.36949                      84.48275
                      -6.68695                      27.32245                      83.40717
                      -6.85901                      31.27409                      82.32388
                      -7.01033                      35.22542                      81.23689
                      -7.13802                      39.17617                      80.14510
                      -7.24085                      43.12637                      79.04903
                      -7.31824                      47.07605                      77.94924
                      -7.36783                      51.02516                      76.84608
                      -7.38744                      54.31556                      75.92437
                      -7.39086                      56.94530                      75.17807
                      -7.38835                      59.56011                      74.37770
                      -7.38031                      60.87817                      74.01720
        </DataArray>
      </Points>
      <PointData>
        <DataArray type="Float32" Name="TranslationalVelocity" NumberOfComponents="3" format="ascii">
                       0.06617                       0.19832                       0.75629
                       0.12650                       0.37736                       1.44569
                       0.24825                       0.68783                       2.83586
                       0.37060                       0.97628                       4.23084
                       0.52407                       1.32455                       5.97656
                       0.70716                       1.81686                       8.05106
                       0.88942                       2.37665                      10.10564
                       1.07235                       2.93928                      12.15656
                       1.25593                       3.50548                      14.20367
                       1.44009                       4.07401                      16.24740
                       1.62471                       4.64277                      18.28846
                       1.80949                       5.21225                      20.32698
                       1.99408                       5.78219                      22.36329
                       2.17799                       6.35238                      24.39776
                       2.36064                       6.92262                      26.43070
                       2.51132                       7.39782                      28.12382
                       2.63046                       7.78193                      29.47668
                       2.74738                       8.19352                      30.82168
                       2.80578                       8.37858                      31.49961
        </DataArray>
        <DataArray type="Float32" Name="RotationalVelocity" NumberOfComponents="3" format="ascii">
                       0.52161                      -0.00000                      -0.04563
                       0.52152                      -0.00001                      -0.04564
                       0.52127                      -0.00003                      -0.04567
                       0.52094                      -0.00005                      -0.04571
                       0.52046                      -0.00009                      -0.04579
                       0.51980                      -0.00013                      -0.04592
                       0.51911                      -0.00014                      -0.04609
                       0.51841                      -0.00012                      -0.04628
                       0.51774                      -0.00004                      -0.04648
                       0.51711                       0.00010                      -0.04666
                       0.51653                       0.00031                      -0.04680
                       0.51602                       0.00059                      -0.04689
                       0.51557                       0.00093                      -0.04688
                       0.51520                       0.00130                      -0.04677
                       0.51492                       0.00167                      -0.04651
                       0.51475                       0.00195                      -0.04617
                       0.51468                       0.00213                      -0.04580
                       0.51465                       0.00224                      -0.04533
                       0.51467                       0.00227                      -0.04506
        </DataArray>
        <DataArray type="Float32" Name="TranslationalAcceleration" NumberOfComponents="3" format="ascii">
                       0.00905                      -0.39750                       0.10344
                       0.01053                      -0.48071                       0.12457
                       0.02598                      -1.38105                       0.33373
                       0.03530                      -2.21111                       0.51624
                       0.03858                      -3.18062                       0.72666
                       0.03326                      -4.26910                       1.01189
                       0.01570                      -5.31384                       1.33614
                      -0.01699                      -6.34900                       1.67318
                      -0.06480                      -7.38759                       2.02671
                      -0.12786                      -8.43401                       2.39683
                      -0.20669                      -9.48645                       2.78126
                      -0.30250                     -10.53881                       3.17778
                      -0.41764                     -11.58391                       3.58338
                      -0.55602                     -12.61595                       3.99540
                      -0.72347                     -13.63296                       4.41226
                      -0.89201                     -14.47189                       4.76371
                      -1.04900                     -15.14146                       5.05027
                      -1.22828                     -15.81176                       5.35533
                      -1.33031                     -16.15586                       5.50008
        </DataArray>
        <DataArray type="Float32" Name="OrientationX" NumberOfComponents="3" format="ascii">
                       0.99429                       0.04220                      -0.09806
                       0.99430                       0.04198                      -0.09800
                       0.99435                       0.04126                      -0.09781
                       0.99442                       0.04021                      -0.09752
                       0.99453                       0.03851                      -0.09705
                       0.99470                       0.03591                      -0.09633
                       0.99490                       0.03275                      -0.09543
                       0.99512                       0.02902                      -0.09433
                       0.99536                       0.02469                      -0.09300
                       0.99562                       0.01974                      -0.09142
                       0.99588                       0.01420                      -0.08957
                       0.99613                       0.00812                      -0.08747
                       0.99637                       0.00161                      -0.08514
                       0.99657                      -0.00511                      -0.08266
                       0.99671                      -0.01173                      -0.08015
                       0.99680                      -0.01688                      -0.07816
                       0.99684                      -0.02051                      -0.07673
                       0.99687                      -0.02349                      -0.07555
                       0.99687                      -0.02466                      -0.07508
        </DataArray>
        <DataArray type="Float32" Name="OrientationY" NumberOfComponents="3" format="ascii">
                      -0.08433                      -0.25274                      -0.96385
                      -0.08431                      -0.25292                      -0.96381
                      -0.08427                      -0.25340                      -0.96368
                      -0.08422                      -0.25399                      -0.96353
                      -0.08414                      -0.25483                      -0.96332
                      -0.08402                      -0.25590                      -0.96304
                      -0.08389                      -0.25696                      -0.96277
                      -0.08372                      -0.25795                      -0.96252
                      -0.08349                      -0.25884                      -0.96231
                      -0.08320                      -0.25960                      -0.96213
                      -0.08281                      -0.26024                      -0.96199
                      -0.08234                      -0.26076                      -0.96189
                      -0.08176                      -0.26118                      -0.96182
                      -0.08111                      -0.26152                      -0.96178
                      -0.08042                      -0.26179                      -0.96177
                      -0.07985                      -0.26197                      -0.96177
                      -0.07942                      -0.26208                      -0.96177
                      -0.07907                      -0.26215                      -0.96178
                      -0.07892                      -0.26217                      -0.96179
        </DataArray>
        <DataArray type="Float32" Name="OrientationZ" NumberOfComponents="3" format="ascii">
                      -0.06546                       0.96661                      -0.24774
                      -0.06525                       0.96657                      -0.24794
                      -0.06455                       0.96648                      -0.24849
                      -0.06352                       0.96637                      -0.24918
                      -0.06182                       0.96622                      -0.25019
                      -0.05924                       0.96604                      -0.25153
                      -0.05605                       0.96587                      -0.25290
                      -0.05226                       0.96572                      -0.25426
                      -0.04783                       0.96561                      -0.25557
                      -0.04273                       0.96551                      -0.25682
                      -0.03697                       0.96544                      -0.25799
                      -0.03061                       0.96537                      -0.25908
                      -0.02378                       0.96529                      -0.26010
                      -0.01670                       0.96518                      -0.26104
                      -0.00970                       0.96505                      -0.26188
                      -0.00424                       0.96493                      -0.26248
                      -0.00038                       0.96483                      -0.26288
                       0.00278                       0.96474                      -0.26319
                       0.00403                       0.96471                      -0.26330
        </DataArray>
        <DataArray type="Float32" Name="Force" NumberOfComponents="3" format="ascii">
                      27.82494                       2.41773                       2.08107
                     423.72596                      18.94902                     -37.62835
                     461.28196                      12.57074                     -70.99909
                     356.18481                       3.08783                     -79.04866
                    2134.59891                     134.65310                      -5.66566
                    2232.66273                     126.53824                     -37.42501
                    2387.64611                     128.63199                     -34.46410
                    2181.41124                     104.83224                     -46.68745
                    1989.73498                      78.19772                     -74.03933
                    2019.55470                      69.43288                     -71.69674
                    1885.03592                      43.78930                    -104.19215
                    1894.03598                      32.54857                    -100.25413
                    1629.57819                      11.44014                    -105.25544
                    1604.20912                       0.30595                    -100.16217
                    1566.91667                      -8.31356                     -87.04527
                    1574.58920                      -7.72839                     -50.91929
                    1574.52727                      -6.98282                     -24.02319
                    1144.22023                      -1.57050                      10.19428
                    1106.00778                      10.38704                      60.61331
        </DataArray>
        <DataArray type="Float32" Name="Moment" NumberOfComponents="3" format="ascii">
                       0.00000                       0.00000                       0.00000
                       0.00000                       0.00000                       0.00000
                       0.00000                       0.00000                       0.00000
                       0.00000                       0.00000                       0.00000
                     127.97335                   -2007.03453                     515.09634
                     124.19748                   -2036.62411                     523.18578
                     108.82857                   -1889.83503                     486.03877
                      95.96471                   -1791.42270                     461.35814
                      80.17196                   -1639.54512                     422.91389
                      65.13437                   -1495.47534                     386.45096
                      46.20770                   -1230.81406                     318.70629
                      34.44093                   -1113.81901                     289.05685
                      23.55187                    -988.62375                     257.18032
                      14.38790                    -873.41033                     227.77034
                       6.99858                    -759.34750                     198.50682
                       2.36867                    -665.06368                     174.18840
                      -0.25402                    -586.05449                     153.69976
                      -0.98115                    -264.33974                      69.40206
                      -0.69579                    -139.06522                      36.52711
        </DataArray>
      </PointData>
      <Lines>
        <DataArray type="Int32" Name="connectivity" format="ascii">
      0      1
      1      2
      2      3
      3      4
      4      5
      5      6
      6      7
      7      8
      8      9
      9     10
     10     11
     11     12
     12     13
     13     14
     14     15
     15     16
     16     17
     17     18
        </DataArray>
        <DataArray type="Int32" Name="offsets" format="ascii">
      2
      4
      6
      8
     10
     12
     14
     16
     18
     20
     22
     24
     26
     28
     30
     32
     34
     36
        </DataArray>
      </Lines>
    </Piece>
  </PolyData>
</VTKFile>
