<?xml version="1.0"?>
<VTKFile type="PolyData" version="0.1" byte_order="LittleEndian">
  <PolyData>
    <Piece NumberOfPoints="     19" NumberOfVerts="  0" NumberOfLines="     18"
           NumberOfStrips="  0" NumberOfPolys="      0">
      <Points>
        <DataArray type="Float32" NumberOfComponents="3" format="ascii">
                      -5.12445                      -1.33542                      89.32831
                      -5.23877                      -2.55047                      88.71307
                      -5.49520                      -4.93617                      87.39977
                      -5.76284                      -7.30036                      86.04602
                      -6.10078                     -10.24203                      84.32776
                      -6.43366                     -13.83730                      82.38245
                      -6.72019                     -17.49092                      80.54426
                      -6.99336                     -21.14396                      78.70269
                      -7.24765                     -24.79746                      76.85910
                      -7.48105                     -28.45068                      75.01203
                      -7.69234                     -32.10208                      73.15864
                      -7.87813                     -35.75251                      71.30050
                      -8.03694                     -39.40204                      69.43805
                      -8.16792                     -43.05070                      67.57166
                      -8.26843                     -46.69835                      65.70138
                      -8.32823                     -49.73713                      64.13994
                      -8.36099                     -52.17102                      62.89607
                      -8.37735                     -54.62961                      61.69926
                      -8.38504                     -55.83919                      61.06356
        </DataArray>
      </Points>
      <PointData>
        <DataArray type="Float32" Name="TranslationalVelocity" NumberOfComponents="3" format="ascii">
                      -0.06094                       0.35604                      -0.69656
                      -0.11638                       0.68211                      -1.33024
                      -0.22524                       1.37837                      -2.57387
                      -0.33311                       2.09570                      -3.80544
                      -0.46733                       3.00514                      -5.33642
                      -0.63139                       4.03102                      -7.20523
                      -0.79819                       4.99761                      -9.10153
                      -0.96511                       5.96389                     -10.99455
                      -1.13231                       6.92894                     -12.88490
                      -1.29984                       7.89351                     -14.77234
                      -1.46774                       8.85913                     -16.65631
                      -1.63615                       9.82496                     -18.53754
                      -1.80515                      10.79086                     -20.41637
                      -1.97483                      11.75675                     -22.29316
                      -2.14522                      12.72261                     -24.16811
                      -2.28778                      13.52748                     -25.72926
                      -2.40237                      14.16777                     -26.97923
                      -2.51856                      14.78296                     -28.24152
                      -2.57576                      15.10964                     -28.86243
        </DataArray>
        <DataArray type="Float32" Name="RotationalVelocity" NumberOfComponents="3" format="ascii">
                       0.52161                      -0.00000                      -0.04563
                       0.52150                       0.00000                      -0.04563
                       0.52120                       0.00001                      -0.04562
                       0.52082                       0.00002                      -0.04562
                       0.52025                       0.00001                      -0.04563
                       0.51949                      -0.00003                      -0.04567
                       0.51869                      -0.00011                      -0.04575
                       0.51791                      -0.00023                      -0.04588
                       0.51717                      -0.00041                      -0.04605
                       0.51648                      -0.00062                      -0.04627
                       0.51585                      -0.00085                      -0.04653
                       0.51530                      -0.00110                      -0.04683
                       0.51481                      -0.00135                      -0.04714
                       0.51441                      -0.00157                      -0.04745
                       0.51408                      -0.00174                      -0.04774
                       0.51386                      -0.00182                      -0.04795
                       0.51374                      -0.00184                      -0.04808
                       0.51367                      -0.00179                      -0.04816
                       0.51366                      -0.00175                      -0.04818
        </DataArray>
        <DataArray type="Float32" Name="TranslationalAcceleration" NumberOfComponents="3" format="ascii">
                       0.01625                       0.36611                       0.18571
                       0.01972                       0.44202                       0.22565
                       0.05838                       1.25114                       0.67015
                       0.09490                       1.98557                       1.09386
                       0.13793                       2.83309                       1.60168
                       0.18313                       3.80555                       2.15430
                       0.22288                       4.76086                       2.67024
                       0.26024                       5.70565                       3.19236
                       0.29516                       6.65258                       3.72645
                       0.32748                       7.60563                       4.27468
                       0.35704                       8.56273                       4.83627
                       0.38378                       9.51902                       5.40718
                       0.40805                      10.46838                       5.98299
                       0.43078                      11.40592                       6.55976
                       0.45368                      12.33037                       7.13536
                       0.47486                      13.09384                       7.61466
                       0.49447                      13.70581                       7.99769
                       0.51699                      14.33209                       8.37240
                       0.53108                      14.64410                       8.57176
        </DataArray>
        <DataArray type="Float32" Name="OrientationX" NumberOfComponents="3" format="ascii">
                       0.99352                      -0.03887                      -0.10679
                       0.99354                      -0.03864                      -0.10668
                       0.99361                      -0.03792                      -0.10635
                       0.99370                      -0.03685                      -0.10589
                       0.99384                      -0.03511                      -0.10515
                       0.99404                      -0.03244                      -0.10409
                       0.99427                      -0.02915                      -0.10285
                       0.99452                      -0.02523                      -0.10143
                       0.99479                      -0.02065                      -0.09981
                       0.99507                      -0.01539                      -0.09796
                       0.99535                      -0.00944                      -0.09587
                       0.99561                      -0.00289                      -0.09351
                       0.99585                       0.00415                      -0.09092
                       0.99604                       0.01143                      -0.08814
                       0.99618                       0.01863                      -0.08526
                       0.99626                       0.02423                      -0.08289
                       0.99631                       0.02819                      -0.08111
                       0.99634                       0.03144                      -0.07951
                       0.99635                       0.03272                      -0.07880
        </DataArray>
        <DataArray type="Float32" Name="OrientationY" NumberOfComponents="3" format="ascii">
                       0.07767                      -0.45376                       0.88773
                       0.07766                      -0.45393                       0.88765
                       0.07765                      -0.45439                       0.88741
                       0.07766                      -0.45496                       0.88712
                       0.07771                      -0.45578                       0.88669
                       0.07788                      -0.45683                       0.88614
                       0.07818                      -0.45788                       0.88557
                       0.07862                      -0.45887                       0.88502
                       0.07920                      -0.45977                       0.88450
                       0.07991                      -0.46056                       0.88402
                       0.08073                      -0.46124                       0.88360
                       0.08162                      -0.46180                       0.88322
                       0.08253                      -0.46227                       0.88289
                       0.08341                      -0.46266                       0.88260
                       0.08417                      -0.46297                       0.88237
                       0.08467                      -0.46318                       0.88221
                       0.08492                      -0.46331                       0.88212
                       0.08501                      -0.46339                       0.88207
                       0.08498                      -0.46342                       0.88205
        </DataArray>
        <DataArray type="Float32" Name="OrientationZ" NumberOfComponents="3" format="ascii">
                      -0.08296                      -0.89028                      -0.44780
                      -0.08273                      -0.89020                      -0.44800
                      -0.08198                      -0.89000                      -0.44854
                      -0.08087                      -0.88975                      -0.44923
                      -0.07906                      -0.88940                      -0.45024
                      -0.07629                      -0.88896                      -0.45159
                      -0.07291                      -0.88853                      -0.45298
                      -0.06887                      -0.88814                      -0.45438
                      -0.06415                      -0.88780                      -0.45574
                      -0.05872                      -0.88749                      -0.45706
                      -0.05256                      -0.88723                      -0.45833
                      -0.04574                      -0.88698                      -0.45954
                      -0.03837                      -0.88673                      -0.46070
                      -0.03068                      -0.88646                      -0.46178
                      -0.02303                      -0.88618                      -0.46277
                      -0.01701                      -0.88593                      -0.46350
                      -0.01271                      -0.88575                      -0.46399
                      -0.00911                      -0.88559                      -0.46437
                      -0.00766                      -0.88553                      -0.46451
        </DataArray>
        <DataArray type="Float32" Name="Force" NumberOfComponents="3" format="ascii">
                      30.72017                      -7.52714                       9.27336
                     413.81468                     -47.80583                      18.60618
                     477.84296                     -73.09955                      57.90623
                     378.87413                     -67.00270                      64.85645
                    2677.57320                      28.69143                    -528.19938
                    2603.39369                      16.98901                    -475.01409
                    2746.07779                      28.53256                    -500.41839
                    2442.82432                      23.91303                    -419.44779
                    2197.15428                      13.06242                    -336.71694
                    2227.36029                      25.89425                    -338.75182
                    2055.05624                      13.89293                    -264.05925
                    2055.80528                      28.02211                    -260.35374
                    1743.52066                      24.46734                    -193.29064
                    1732.97481                      43.01198                    -199.07370
                    1760.26983                      76.69036                    -236.94113
                    1814.76145                     113.16739                    -286.77649
                    1811.34472                     139.69598                    -321.22063
                    1370.80427                     124.00676                    -267.88447
                    1217.38115                     107.69200                    -229.16852
        </DataArray>
        <DataArray type="Float32" Name="Moment" NumberOfComponents="3" format="ascii">
                       0.00000                       0.00000                       0.00000
                       0.00000                       0.00000                       0.00000
                       0.00000                       0.00000                       0.00000
                       0.00000                       0.00000                       0.00000
                     162.00884                    1828.80381                     920.60226
                     161.88579                    1896.19606                     955.05994
                     145.40464                    1785.06224                     899.69683
                     131.69355                    1714.25018                     864.70147
                     112.84756                    1579.83074                     797.64302
                      94.36102                    1446.27798                     730.99613
                      68.98414                    1184.02482                     599.16803
                      54.17145                    1071.81521                     543.10907
                      39.94684                     946.08311                     480.08676
                      27.97981                     833.73109                     423.70604
                      18.01718                     722.39200                     367.66771
                      11.45830                     630.88688                     321.46954
                       7.00698                     526.23145                     268.36532
                       2.30957                     249.23531                     127.19227
                       1.16751                     152.95452                      78.07915
        </DataArray>
      </PointData>
      <Lines>
        <DataArray type="Int32" Name="connectivity" format="ascii">
      0      1
      1      2
      2      3
      3      4
      4      5
      5      6
      6      7
      7      8
      8      9
      9     10
     10     11
     11     12
     12     13
     13     14
     14     15
     15     16
     16     17
     17     18
        </DataArray>
        <DataArray type="Int32" Name="offsets" format="ascii">
      2
      4
      6
      8
     10
     12
     14
     16
     18
     20
     22
     24
     26
     28
     30
     32
     34
     36
        </DataArray>
      </Lines>
    </Piece>
  </PolyData>
</VTKFile>
