<?xml version="1.0"?>
<VTKFile type="PolyData" version="0.1" byte_order="LittleEndian">
  <PolyData>
    <Piece NumberOfPoints="     19" NumberOfVerts="  0" NumberOfLines="     18"
           NumberOfStrips="  0" NumberOfPolys="      0">
      <Points>
        <DataArray type="Float32" NumberOfComponents="3" format="ascii">
                      -4.97540                      -1.08838                      91.03191
                      -4.95387                      -2.08253                      91.96951
                      -4.93723                      -4.13577                      93.77663
                      -4.93105                      -6.22046                      95.55073
                      -4.92604                      -8.84617                      97.74744
                      -4.84862                     -11.90283                     100.48093
                      -4.72577                     -14.87391                     103.30368
                      -4.58858                     -17.84608                     106.12471
                      -4.43141                     -20.81798                     108.94509
                      -4.25210                     -23.79062                     111.76345
                      -4.04929                     -26.76612                     114.57719
                      -3.81960                     -29.74307                     117.38736
                      -3.56156                     -32.72105                     120.19400
                      -3.27443                     -35.69972                     122.99713
                      -2.95579                     -38.67884                     125.79640
                      -2.66569                     -41.16161                     128.12600
                      -2.41842                     -43.14244                     129.99334
                      -2.15535                     -45.08581                     131.89889
                      -2.02288                     -46.08589                     132.82056
        </DataArray>
      </Points>
      <PointData>
        <DataArray type="Float32" Name="TranslationalVelocity" NumberOfComponents="3" format="ascii">
                      -0.04967                      -0.53937                      -0.56770
                      -0.09504                      -1.02950                      -1.08634
                      -0.18879                      -1.97341                      -2.15793
                      -0.28405                      -2.90015                      -3.24661
                      -0.40416                      -4.04838                      -4.61898
                      -0.54424                      -5.48185                      -6.21836
                      -0.68070                      -6.96584                      -7.77484
                      -0.81758                      -8.45141                      -9.33375
                      -0.95484                      -9.93930                     -10.89427
                      -1.09256                     -11.42875                     -12.45676
                      -1.23087                     -12.91828                     -14.02216
                      -1.36969                     -14.40840                     -15.58952
                      -1.50898                     -15.89898                     -17.15839
                      -1.64869                     -17.38987                     -18.72841
                      -1.78873                     -18.88084                     -20.29926
                      -1.90560                     -20.12323                     -21.60880
                      -1.99889                     -21.12000                     -22.65380
                      -2.09040                     -22.13788                     -23.67925
                      -2.13747                     -22.63054                     -24.20703
        </DataArray>
        <DataArray type="Float32" Name="RotationalVelocity" NumberOfComponents="3" format="ascii">
                       0.52161                      -0.00000                      -0.04563
                       0.52170                      -0.00000                      -0.04564
                       0.52196                      -0.00001                      -0.04566
                       0.52229                      -0.00001                      -0.04570
                       0.52276                      -0.00001                      -0.04575
                       0.52337                       0.00000                      -0.04585
                       0.52399                       0.00003                      -0.04598
                       0.52458                       0.00007                      -0.04614
                       0.52513                       0.00012                      -0.04632
                       0.52561                       0.00017                      -0.04651
                       0.52603                       0.00022                      -0.04671
                       0.52640                       0.00025                      -0.04689
                       0.52670                       0.00027                      -0.04705
                       0.52696                       0.00026                      -0.04717
                       0.52716                       0.00023                      -0.04724
                       0.52730                       0.00018                      -0.04724
                       0.52739                       0.00013                      -0.04720
                       0.52745                       0.00007                      -0.04713
                       0.52747                       0.00003                      -0.04707
        </DataArray>
        <DataArray type="Float32" Name="TranslationalAcceleration" NumberOfComponents="3" format="ascii">
                      -0.02461                       0.29838                      -0.28134
                      -0.02973                       0.36154                      -0.33960
                      -0.08340                       1.05255                      -0.95340
                      -0.13186                       1.69815                      -1.50822
                      -0.18790                       2.45966                      -2.15010
                      -0.25409                       3.30146                      -2.90906
                      -0.32089                       4.09737                      -3.67764
                      -0.38743                       4.89016                      -4.44869
                      -0.45426                       5.68917                      -5.23214
                      -0.52120                       6.49764                      -6.03065
                      -0.58764                       7.31431                      -6.84174
                      -0.65275                       8.13400                      -7.66109
                      -0.71564                       8.95099                      -8.48305
                      -0.77548                       9.76063                      -9.30282
                      -0.83179                      10.56141                     -10.11827
                      -0.87592                      11.22428                     -10.79615
                      -0.90977                      11.75374                     -11.34181
                      -0.94331                      12.27815                     -11.90451
                      -0.95933                      12.55290                     -12.18173
        </DataArray>
        <DataArray type="Float32" Name="OrientationX" NumberOfComponents="3" format="ascii">
                       0.99786                      -0.03168                      -0.05720
                       0.99786                      -0.03150                      -0.05739
                       0.99784                      -0.03092                      -0.05798
                       0.99781                      -0.03008                      -0.05886
                       0.99777                      -0.02874                      -0.06031
                       0.99768                      -0.02673                      -0.06256
                       0.99757                      -0.02432                      -0.06536
                       0.99740                      -0.02150                      -0.06872
                       0.99719                      -0.01827                      -0.07268
                       0.99691                      -0.01458                      -0.07724
                       0.99654                      -0.01045                      -0.08241
                       0.99609                      -0.00590                      -0.08810
                       0.99555                      -0.00100                      -0.09420
                       0.99493                       0.00410                      -0.10049
                       0.99425                       0.00918                      -0.10665
                       0.99369                       0.01319                      -0.11141
                       0.99327                       0.01606                      -0.11472
                       0.99291                       0.01848                      -0.11739
                       0.99277                       0.01946                      -0.11841
        </DataArray>
        <DataArray type="Float32" Name="OrientationY" NumberOfComponents="3" format="ascii">
                       0.06330                       0.68740                       0.72351
                       0.06331                       0.68729                       0.72362
                       0.06335                       0.68700                       0.72389
                       0.06342                       0.68664                       0.72423
                       0.06357                       0.68612                       0.72471
                       0.06384                       0.68545                       0.72531
                       0.06425                       0.68479                       0.72590
                       0.06480                       0.68417                       0.72644
                       0.06550                       0.68361                       0.72690
                       0.06635                       0.68313                       0.72728
                       0.06733                       0.68271                       0.72758
                       0.06841                       0.68237                       0.72780
                       0.06957                       0.68209                       0.72795
                       0.07073                       0.68187                       0.72805
                       0.07181                       0.68169                       0.72811
                       0.07259                       0.68158                       0.72814
                       0.07308                       0.68150                       0.72816
                       0.07341                       0.68145                       0.72817
                       0.07349                       0.68144                       0.72818
        </DataArray>
        <DataArray type="Float32" Name="OrientationZ" NumberOfComponents="3" format="ascii">
                       0.01640                      -0.72558                       0.68794
                       0.01665                      -0.72570                       0.68781
                       0.01745                      -0.72600                       0.68748
                       0.01863                      -0.72638                       0.68704
                       0.02055                      -0.72692                       0.68641
                       0.02349                      -0.72763                       0.68557
                       0.02710                      -0.72833                       0.68469
                       0.03139                      -0.72900                       0.68379
                       0.03641                      -0.72962                       0.68289
                       0.04216                      -0.73016                       0.68198
                       0.04866                      -0.73061                       0.68106
                       0.05582                      -0.73098                       0.68011
                       0.06352                      -0.73126                       0.67913
                       0.07150                      -0.73146                       0.67812
                       0.07939                      -0.73158                       0.67712
                       0.08553                      -0.73163                       0.67632
                       0.08988                      -0.73164                       0.67574
                       0.09345                      -0.73163                       0.67527
                       0.09486                      -0.73162                       0.67509
        </DataArray>
        <DataArray type="Float32" Name="Force" NumberOfComponents="3" format="ascii">
                      23.98573                       6.72039                       6.51630
                     442.84909                      27.95609                      18.76299
                     493.72134                      55.07550                      45.54748
                     384.39974                      61.30562                      54.23159
                    2689.30345                    -265.67651                    -361.17755
                    2696.85693                    -231.92038                    -337.65825
                    2899.41888                    -244.54091                    -373.57694
                    2631.22350                    -196.78672                    -329.27361
                    2399.60540                    -141.09096                    -277.56805
                    2453.00936                    -135.33800                    -295.25474
                    2299.47550                     -82.42924                    -251.82710
                    2307.58812                     -70.65773                    -264.40282
                    1980.25919                     -32.06013                    -219.15235
                    1951.50605                     -20.93974                    -227.72923
                    1909.00008                     -13.09755                    -237.26241
                    1902.19690                     -23.58124                    -265.01859
                    1839.44780                     -36.38695                    -282.65835
                    1363.48583                     -43.18678                    -234.06468
                    1246.40537                     -82.64335                    -262.58293
        </DataArray>
        <DataArray type="Float32" Name="Moment" NumberOfComponents="3" format="ascii">
                       0.00000                       0.00000                       0.00000
                       0.00000                       0.00000                       0.00000
                       0.00000                       0.00000                       0.00000
                       0.00000                       0.00000                       0.00000
                     -43.96555                    1544.02778                   -1463.12698
                     -53.25760                    1633.54857                   -1547.36732
                     -59.02507                    1567.74364                   -1484.34178
                     -66.76476                    1530.28313                   -1448.07359
                     -72.33458                    1429.81304                   -1352.13014
                     -77.58666                    1324.71512                   -1251.81760
                     -74.33319                    1100.32850                   -1038.91358
                     -77.74164                    1003.56626                    -946.68203
                     -78.95437                     896.16248                    -844.53211
                     -78.94013                     796.34206                    -749.69444
                     -76.57160                     695.93835                    -654.50858
                     -72.51309                     611.78063                    -574.90581
                     -63.92463                     513.28425                    -482.07625
                     -31.69448                     244.78102                    -229.79238
                     -16.59914                     126.29564                    -118.54065
        </DataArray>
      </PointData>
      <Lines>
        <DataArray type="Int32" Name="connectivity" format="ascii">
      0      1
      1      2
      2      3
      3      4
      4      5
      5      6
      6      7
      7      8
      8      9
      9     10
     10     11
     11     12
     12     13
     13     14
     14     15
     15     16
     16     17
     17     18
        </DataArray>
        <DataArray type="Int32" Name="offsets" format="ascii">
      2
      4
      6
      8
     10
     12
     14
     16
     18
     20
     22
     24
     26
     28
     30
     32
     34
     36
        </DataArray>
      </Lines>
    </Piece>
  </PolyData>
</VTKFile>
