<?xml version="1.0"?>
<VTKFile type="PolyData" version="0.1" byte_order="LittleEndian">
  <PolyData>
    <Piece NumberOfPoints="    625" NumberOfVerts="  0" NumberOfLines="      0"
           NumberOfStrips="  0" NumberOfPolys="    600">
      <Points>
        <DataArray type="Float32" NumberOfComponents="3" format="ascii">
                      -4.88589                       0.73190                      91.30434
                      -4.88589                       0.73190                      91.30434
                      -4.88589                       0.73190                      91.30434
                      -4.88589                       0.73190                      91.30434
                      -4.88589                       0.73190                      91.30434
                      -4.88589                       0.73190                      91.30434
                      -4.88589                       0.73190                      91.30434
                      -4.88589                       0.73190                      91.30434
                      -4.88589                       0.73190                      91.30434
                      -4.88589                       0.73190                      91.30434
                      -4.88589                       0.73190                      91.30434
                      -4.88589                       0.73190                      91.30434
                      -4.88589                       0.73190                      91.30434
                      -4.88589                       0.73190                      91.30434
                      -4.88589                       0.73190                      91.30434
                      -4.88589                       0.73190                      91.30434
                      -4.88589                       0.73190                      91.30434
                      -4.88589                       0.73190                      91.30434
                      -4.88589                       0.73190                      91.30434
                      -4.88589                       0.73190                      91.30434
                      -4.88589                       0.73190                      91.30434
                      -4.88589                       0.73190                      91.30434
                      -4.88589                       0.73190                      91.30434
                      -4.88589                       0.73190                      91.30434
                      -4.88589                       0.73190                      91.30434
                      -4.29820                       0.67091                      91.14340
                      -4.31062                       0.54078                      91.21751
                      -4.35979                       0.41882                      91.29024
                      -4.44261                       0.31271                      91.35703
                      -4.55388                       0.22910                      91.41368
                      -4.68661                       0.17325                      91.45663
                      -4.83245                       0.14867                      91.48318
                      -4.98226                       0.15691                      91.49167
                      -5.12660                       0.19744                      91.48155
                      -5.25642                       0.26772                      91.45347
                      -5.36355                       0.36334                      91.40919
                      -5.44127                       0.47828                      91.35149
                      -5.48469                       0.60533                      91.28400
                      -5.49108                       0.73650                      91.21096
                      -5.46004                       0.86354                      91.13696
                      -5.39352                       0.97848                      91.06664
                      -5.29571                       1.07410                      91.00443
                      -5.17274                       1.14438                      90.95423
                      -5.03234                       1.18492                      90.91920
                      -4.88334                       1.19315                      90.90155
                      -4.73510                       1.16857                      90.90237
                      -4.59693                       1.11273                      90.92162
                      -4.47751                       1.02912                      90.95809
                      -4.38435                       0.92300                      91.00948
                      -4.32330                       0.80104                      91.07257
                      -4.07890                       0.60992                      91.01469
                      -4.09609                       0.42993                      91.11719
                      -4.16409                       0.26125                      91.21779
                      -4.27864                       0.11448                      91.31017
                      -4.43254                      -0.00117                      91.38852
                      -4.61612                      -0.07841                      91.44793
                      -4.81785                      -0.11241                      91.48465
                      -5.02505                      -0.10101                      91.49639
                      -5.22469                      -0.04495                      91.48240
                      -5.40425                       0.05226                      91.44356
                      -5.55243                       0.18451                      91.38231
                      -5.65992                       0.34349                      91.30251
                      -5.71997                       0.51921                      91.20916
                      -5.72881                       0.70063                      91.10813
                      -5.68588                       0.87635                      91.00577
                      -5.59388                       1.03533                      90.90852
                      -5.45859                       1.16758                      90.82247
                      -5.28850                       1.26479                      90.75304
                      -5.09432                       1.32085                      90.70460
                      -4.88823                       1.33225                      90.68017
                      -4.68319                       1.29825                      90.68131
                      -4.49208                       1.22101                      90.70793
                      -4.32691                       1.10536                      90.75837
                      -4.19806                       0.95859                      90.82946
                      -4.11362                       0.78991                      90.91672
                      -3.92603                       0.54893                      90.89178
                      -3.94659                       0.33355                      91.01444
                      -4.02796                       0.13171                      91.13481
                      -4.16503                      -0.04391                      91.24535
                      -4.34919                      -0.18229                      91.33911
                      -4.56886                      -0.27472                      91.41020
                      -4.81024                      -0.31540                      91.45414
                      -5.05817                      -0.30177                      91.46818
                      -5.29707                      -0.23468                      91.45144
                      -5.51192                      -0.11836                      91.40497
                      -5.68923                       0.03989                      91.33168
                      -5.81786                       0.23012                      91.23619
                      -5.88971                       0.44039                      91.12449
                      -5.90029                       0.65747                      91.00360
                      -5.84892                       0.86774                      90.88112
                      -5.73883                       1.05797                      90.76474
                      -5.57694                       1.21622                      90.66178
                      -5.37342                       1.33254                      90.57871
                      -5.14106                       1.39962                      90.52073
                      -4.89446                       1.41325                      90.49151
                      -4.64912                       1.37257                      90.49287
                      -4.42044                       1.28014                      90.52473
                      -4.22280                       1.14177                      90.58509
                      -4.06862                       0.96614                      90.67015
                      -3.96758                       0.76430                      90.77457
                      -3.81014                       0.48794                      90.77212
                      -3.83331                       0.24524                      90.91033
                      -3.92501                       0.01779                      91.04598
                      -4.07947                      -0.18012                      91.17055
                      -4.28699                      -0.33605                      91.27620
                      -4.53453                      -0.44021                      91.35630
                      -4.80654                      -0.48605                      91.40582
                      -5.08592                      -0.47069                      91.42165
                      -5.35513                      -0.39509                      91.40278
                      -5.59724                      -0.26401                      91.35041
                      -5.79704                      -0.08569                      91.26783
                      -5.94199                       0.12868                      91.16022
                      -6.02296                       0.36562                      91.03435
                      -6.03488                       0.61025                      90.89812
                      -5.97699                       0.84719                      90.76010
                      -5.85294                       1.06156                      90.62896
                      -5.67051                       1.23989                      90.51294
                      -5.44117                       1.37096                      90.41932
                      -5.17933                       1.44656                      90.35399
                      -4.90144                       1.46192                      90.32106
                      -4.62497                       1.41608                      90.32260
                      -4.36728                       1.31192                      90.35850
                      -4.14456                       1.15599                      90.42651
                      -3.97082                       0.95808                      90.52236
                      -3.85696                       0.73063                      90.64003
                      -3.71972                       0.42694                      90.65468
                      -3.74497                       0.16247                      90.80529
                      -3.84489                      -0.08539                      90.95312
                      -4.01321                      -0.30105                      91.08886
                      -4.23935                      -0.47098                      91.20399
                      -4.50910                      -0.58448                      91.29128
                      -4.80551                      -0.63443                      91.34524
                      -5.10997                      -0.61769                      91.36249
                      -5.40333                      -0.53531                      91.34193
                      -5.66716                      -0.39248                      91.28486
                      -5.88489                      -0.19815                      91.19487
                      -6.04284                       0.03545                      91.07760
                      -6.13108                       0.29366                      90.94044
                      -6.14407                       0.56023                      90.79199
                      -6.08099                       0.81843                      90.64159
                      -5.94580                       1.05204                      90.49868
                      -5.74701                       1.24636                      90.37224
                      -5.49709                       1.38920                      90.27023
                      -5.21176                       1.47158                      90.19904
                      -4.90893                       1.48832                      90.16315
                      -4.60765                       1.43837                      90.16482
                      -4.32684                       1.32486                      90.20395
                      -4.08414                       1.15494                      90.27806
                      -3.89481                       0.93928                      90.38251
                      -3.77074                       0.69142                      90.51074
                      -3.64885                       0.36595                      90.53895
                      -3.67577                       0.08396                      90.69954
                      -3.78231                      -0.18031                      90.85715
                      -3.96177                      -0.41026                      91.00189
                      -4.20289                      -0.59143                      91.12464
                      -4.49051                      -0.71245                      91.21772
                      -4.80655                      -0.76571                      91.27525
                      -5.13117                      -0.74787                      91.29364
                      -5.44396                      -0.66003                      91.27172
                      -5.72526                      -0.50774                      91.21087
                      -5.95742                      -0.30054                      91.11492
                      -6.12583                      -0.05147                      90.98989
                      -6.21991                       0.22384                      90.84364
                      -6.23376                       0.50807                      90.68536
                      -6.16650                       0.78337                      90.52499
                      -6.02236                       1.03244                      90.37262
                      -5.81040                       1.23964                      90.23781
                      -5.54393                       1.39194                      90.12904
                      -5.23970                       1.47977                      90.05314
                      -4.91682                       1.49762                      90.01487
                      -4.59559                       1.44436                      90.01665
                      -4.29618                       1.32334                      90.05837
                      -4.03741                       1.14216                      90.13739
                      -3.83553                       0.91221                      90.24876
                      -3.70324                       0.64794                      90.38548
                      -3.59405                       0.30496                      90.42463
                      -3.62231                       0.00896                      90.59320
                      -3.73414                      -0.26845                      90.75864
                      -3.92253                      -0.50982                      90.91057
                      -4.17562                      -0.70000                      91.03943
                      -4.47753                      -0.82703                      91.13712
                      -4.80928                      -0.88294                      91.19752
                      -5.15003                      -0.86421                      91.21682
                      -5.47836                      -0.77201                      91.19381
                      -5.77365                      -0.61214                      91.12994
                      -6.01734                      -0.39465                      91.02922
                      -6.19411                      -0.13320                      90.89797
                      -6.29287                       0.15578                      90.74446
                      -6.30741                       0.45414                      90.57831
                      -6.23681                       0.74312                      90.40998
                      -6.08551                       1.00457                      90.25003
                      -5.86301                       1.22206                      90.10853
                      -5.58330                       1.38193                      89.99435
                      -5.26395                       1.47413                      89.91467
                      -4.92503                       1.49286                      89.87451
                      -4.58783                       1.43695                      89.87638
                      -4.27355                       1.30992                      89.92017
                      -4.00192                       1.11974                      90.00312
                      -3.79001                       0.87837                      90.12002
                      -3.65115                       0.60096                      90.26353
                      -3.55313                       0.24397                      90.31153
                      -3.58244                      -0.06302                      90.48635
                      -3.69842                      -0.35073                      90.65794
                      -3.89380                      -0.60106                      90.81550
                      -4.15629                      -0.79830                      90.94915
                      -4.46941                      -0.93005                      91.05047
                      -4.81348                      -0.98803                      91.11311
                      -5.16688                      -0.96860                      91.13312
                      -5.50740                      -0.87298                      91.10926
                      -5.81365                      -0.70718                      91.04302
                      -6.06638                      -0.48162                      90.93855
                      -6.24972                      -0.21046                      90.80244
                      -6.35215                       0.08925                      90.64322
                      -6.36722                       0.39868                      90.47091
                      -6.29400                       0.69839                      90.29633
                      -6.13708                       0.96955                      90.13044
                      -5.90633                       1.19512                      89.98368
                      -5.61623                       1.36092                      89.86527
                      -5.28503                       1.45654                      89.78263
                      -4.93352                       1.47597                      89.74098
                      -4.58381                       1.41799                      89.74292
                      -4.25785                       1.28624                      89.78833
                      -3.97614                       1.08900                      89.87436
                      -3.75637                       0.83866                      89.99560
                      -3.61235                       0.55096                      90.14444
                      -3.52463                       0.18298                      90.19951
                      -3.55473                      -0.13230                      90.37905
                      -3.67384                      -0.42776                      90.55526
                      -3.87449                      -0.68485                      90.71708
                      -4.14407                      -0.88741                      90.85433
                      -4.46563                      -1.02272                      90.95839
                      -4.81898                      -1.08227                      91.02271
                      -5.18191                      -1.06231                      91.04327
                      -5.53162                      -0.96411                      91.01876
                      -5.84613                      -0.79384                      90.95073
                      -6.10569                      -0.56218                      90.84345
                      -6.29397                      -0.28371                      90.70366
                      -6.39916                       0.02409                      90.54015
                      -6.41465                       0.34187                      90.36319
                      -6.33945                       0.64966                      90.18390
                      -6.17830                       0.92814                      90.01354
                      -5.94131                       1.15979                      89.86282
                      -5.64339                       1.33006                      89.74121
                      -5.30325                       1.42826                      89.65635
                      -4.94227                       1.44822                      89.61357
                      -4.58311                       1.38867                      89.61556
                      -4.24836                       1.25337                      89.66219
                      -3.95905                       1.05081                      89.75055
                      -3.73335                       0.79372                      89.87506
                      -3.58545                       0.49825                      90.02792
                      -3.50759                       0.12198                      90.08849
                      -3.53824                      -0.19908                      90.27133
                      -3.65954                      -0.49996                      90.45078
                      -3.86387                      -0.76177                      90.61556
                      -4.13839                      -0.96805                      90.75533
                      -4.46586                      -1.10584                      90.86129
                      -4.82569                      -1.16647                      90.92680
                      -5.19528                      -1.14615                      90.94773
                      -5.55141                      -1.04615                      90.92278
                      -5.87169                      -0.87275                      90.85350
                      -6.13601                      -0.63685                      90.74425
                      -6.32775                      -0.35327                      90.60190
                      -6.43487                      -0.03982                      90.43539
                      -6.45064                       0.28379                      90.25518
                      -6.37406                       0.59724                      90.07259
                      -6.20995                       0.88082                      89.89911
                      -5.96862                       1.11672                      89.74562
                      -5.66523                       1.29012                      89.62178
                      -5.31885                       1.39012                      89.53536
                      -4.95124                       1.41044                      89.49180
                      -4.58550                       1.34980                      89.49382
                      -4.24461                       1.21202                      89.54132
                      -3.94998                       1.00574                      89.63129
                      -3.72014                       0.74393                      89.75809
                      -3.56952                       0.44304                      89.91375
                      -3.50140                       0.06099                      89.97842
                      -3.53237                      -0.26349                      90.16321
                      -3.65496                      -0.56758                      90.34457
                      -3.86147                      -0.83218                      90.51111
                      -4.13892                      -1.04066                      90.65237
                      -4.46988                      -1.17991                      90.75946
                      -4.83355                      -1.24120                      90.82567
                      -5.20708                      -1.22066                      90.84682
                      -5.56700                      -1.11959                      90.82160
                      -5.89070                      -0.94435                      90.75158
                      -6.15783                      -0.70593                      90.64117
                      -6.35162                      -0.41932                      90.49730
                      -6.45988                      -0.10254                      90.32901
                      -6.47581                       0.22452                      90.14688
                      -6.39842                       0.54131                      89.96236
                      -6.23256                       0.82791                      89.78702
                      -5.98866                       1.06633                      89.63190
                      -5.68203                       1.24158                      89.50674
                      -5.33196                       1.34265                      89.41940
                      -4.96043                       1.36318                      89.37537
                      -4.59079                       1.30190                      89.37742
                      -4.24627                       1.16264                      89.42542
                      -3.94850                       0.95417                      89.51635
                      -3.71621                       0.68957                      89.64450
                      -3.56399                       0.38547                      89.80182
                      -3.50571                       0.00000                      89.86927
                      -3.53679                      -0.32561                      90.05470
                      -3.65981                      -0.63077                      90.23670
                      -3.86704                      -0.89629                      90.40382
                      -4.14546                      -1.10549                      90.54557
                      -4.47757                      -1.24524                      90.65304
                      -4.84251                      -1.30674                      90.71947
                      -5.21734                      -1.28613                      90.74070
                      -5.57852                      -1.18471                      90.71539
                      -5.90335                      -1.00885                      90.64513
                      -6.17141                      -0.76960                      90.53433
                      -6.36588                      -0.48199                      90.38996
                      -6.47451                      -0.16410                      90.22109
                      -6.49050                       0.16410                      90.03832
                      -6.41284                       0.48199                      89.85315
                      -6.24640                       0.76960                      89.67720
                      -6.00165                       1.00885                      89.52154
                      -5.69396                       1.18471                      89.39594
                      -5.34266                       1.28613                      89.30830
                      -4.96984                       1.30674                      89.26411
                      -4.59891                       1.24524                      89.26617
                      -4.25318                       1.10550                      89.31434
                      -3.95438                       0.89629                      89.40559
                      -3.72127                       0.63077                      89.53419
                      -3.56852                       0.32561                      89.69205
                      -3.52042                      -0.06099                      89.76103
                      -3.55139                      -0.38547                      89.94582
                      -3.67398                      -0.68957                      90.12718
                      -3.88049                      -0.95417                      90.29372
                      -4.15794                      -1.16264                      90.43498
                      -4.48890                      -1.30190                      90.54207
                      -4.85257                      -1.36318                      90.60828
                      -5.22610                      -1.34265                      90.62943
                      -5.58602                      -1.24158                      90.60421
                      -5.90972                      -1.06633                      90.53419
                      -6.17685                      -0.82791                      90.42378
                      -6.37063                      -0.54131                      90.27991
                      -6.47890                      -0.22452                      90.11163
                      -6.49483                       0.10254                      89.92950
                      -6.41744                       0.41932                      89.74497
                      -6.25158                       0.70593                      89.56963
                      -6.00767                       0.94435                      89.41451
                      -5.70105                       1.11959                      89.28935
                      -5.35098                       1.22066                      89.20201
                      -4.97945                       1.24120                      89.15798
                      -4.60981                       1.17991                      89.16003
                      -4.26529                       1.04066                      89.20803
                      -3.96752                       0.83218                      89.29896
                      -3.73523                       0.56758                      89.42711
                      -3.58301                       0.26349                      89.58443
                      -3.54563                      -0.12198                      89.65371
                      -3.57628                      -0.44304                      89.83655
                      -3.69758                      -0.74393                      90.01600
                      -3.90191                      -1.00574                      90.18078
                      -4.17643                      -1.21202                      90.32055
                      -4.50390                      -1.34980                      90.42651
                      -4.86373                      -1.41044                      90.49202
                      -5.23332                      -1.39012                      90.51295
                      -5.58945                      -1.29012                      90.48800
                      -5.90973                      -1.11672                      90.41872
                      -6.17405                      -0.88082                      90.30947
                      -6.36579                      -0.59724                      90.16712
                      -6.47291                      -0.28379                      90.00061
                      -6.48868                       0.03982                      89.82040
                      -6.41210                       0.35327                      89.63781
                      -6.24799                       0.63685                      89.46433
                      -6.00666                       0.87275                      89.31084
                      -5.70327                       1.04615                      89.18700
                      -5.35689                       1.14615                      89.10058
                      -4.98928                       1.16647                      89.05702
                      -4.62354                       1.10584                      89.05905
                      -4.28264                       0.96805                      89.10654
                      -3.98802                       0.76177                      89.19651
                      -3.75818                       0.49996                      89.32331
                      -3.60756                       0.19908                      89.47897
                      -3.58169                      -0.18298                      89.54734
                      -3.61178                      -0.49825                      89.72688
                      -3.73090                      -0.79372                      89.90310
                      -3.93155                      -1.05081                      90.06491
                      -4.20112                      -1.25337                      90.20216
                      -4.52269                      -1.38867                      90.30622
                      -4.87604                      -1.44822                      90.37054
                      -5.23897                      -1.42826                      90.39110
                      -5.58868                      -1.33006                      90.36659
                      -5.90319                      -1.15979                      90.29856
                      -6.16275                      -0.92814                      90.19128
                      -6.35103                      -0.64966                      90.05150
                      -6.45622                      -0.34187                      89.88798
                      -6.47170                      -0.02409                      89.71102
                      -6.39651                       0.28371                      89.53173
                      -6.23535                       0.56218                      89.36137
                      -5.99837                       0.79384                      89.21065
                      -5.70045                       0.96411                      89.08904
                      -5.36031                       1.06231                      89.00418
                      -4.99932                       1.08227                      88.96140
                      -4.64017                       1.02272                      88.96339
                      -4.30542                       0.88741                      89.01003
                      -4.01611                       0.68485                      89.09838
                      -3.79041                       0.42776                      89.22289
                      -3.64250                       0.13230                      89.37575
                      -3.62921                      -0.24397                      89.44197
                      -3.65851                      -0.55096                      89.61679
                      -3.77450                      -0.83866                      89.78838
                      -3.96988                      -1.08900                      89.94595
                      -4.23237                      -1.28624                      90.07959
                      -4.54549                      -1.41799                      90.18091
                      -4.88956                      -1.47597                      90.24355
                      -5.24295                      -1.45654                      90.26356
                      -5.58347                      -1.36092                      90.23970
                      -5.88972                      -1.19512                      90.17346
                      -6.14246                      -0.96955                      90.06900
                      -6.32580                      -0.69839                      89.93288
                      -6.42822                      -0.39868                      89.77367
                      -6.44330                      -0.08925                      89.60135
                      -6.37008                       0.21046                      89.42677
                      -6.21316                       0.48162                      89.26089
                      -5.98240                       0.70718                      89.11413
                      -5.69231                       0.87298                      88.99571
                      -5.36110                       0.96860                      88.91308
                      -5.00960                       0.98803                      88.87142
                      -4.65988                       0.93005                      88.87336
                      -4.33393                       0.79830                      88.91877
                      -4.05221                       0.60106                      89.00480
                      -3.83244                       0.35073                      89.12605
                      -3.68842                       0.06302                      89.27489
                      -3.68915                      -0.30496                      89.33769
                      -3.71740                      -0.60096                      89.50625
                      -3.82924                      -0.87837                      89.67170
                      -4.01762                      -1.11974                      89.82362
                      -4.27072                      -1.30992                      89.95248
                      -4.57263                      -1.43695                      90.05018
                      -4.90438                      -1.49286                      90.11057
                      -5.24513                      -1.47413                      90.12987
                      -5.57346                      -1.38193                      90.10686
                      -5.86874                      -1.22206                      90.04299
                      -6.11243                      -1.00457                      89.94227
                      -6.28921                      -0.74312                      89.81103
                      -6.38797                      -0.45414                      89.65751
                      -6.40251                      -0.15578                      89.49136
                      -6.33190                       0.13320                      89.32303
                      -6.18060                       0.39465                      89.16309
                      -5.95811                       0.61214                      89.02158
                      -5.67840                       0.77201                      88.90740
                      -5.35905                       0.86421                      88.82773
                      -5.02013                       0.88294                      88.78756
                      -4.68293                       0.82703                      88.78943
                      -4.36864                       0.70000                      88.83322
                      -4.09701                       0.50982                      88.91617
                      -3.88511                       0.26845                      89.03307
                      -3.74625                      -0.00896                      89.17658
                      -3.76296                      -0.36595                      89.23462
                      -3.78988                      -0.64794                      89.39520
                      -3.89642                      -0.91221                      89.55282
                      -4.07589                      -1.14216                      89.69755
                      -4.31700                      -1.32334                      89.82031
                      -4.60462                      -1.44436                      89.91338
                      -4.92067                      -1.49762                      89.97092
                      -5.24528                      -1.47977                      89.98930
                      -5.55807                      -1.39194                      89.96738
                      -5.83938                      -1.23964                      89.90653
                      -6.07153                      -1.03244                      89.81058
                      -6.23994                      -0.78337                      89.68555
                      -6.33402                      -0.50807                      89.53930
                      -6.34787                      -0.22384                      89.38102
                      -6.28061                       0.05147                      89.22066
                      -6.13647                       0.30054                      89.06828
                      -5.92451                       0.50774                      88.93347
                      -5.65804                       0.66003                      88.82470
                      -5.35381                       0.74787                      88.74880
                      -5.03094                       0.76571                      88.71054
                      -4.70970                       0.71245                      88.71232
                      -4.41029                       0.59143                      88.75403
                      -4.15152                       0.41026                      88.83305
                      -3.94965                       0.18031                      88.94442
                      -3.81736                      -0.08396                      89.08114
                      -3.85285                      -0.42694                      89.13295
                      -3.87810                      -0.69142                      89.28357
                      -3.97802                      -0.93928                      89.43139
                      -4.14634                      -1.15494                      89.56713
                      -4.37248                      -1.32486                      89.68227
                      -4.64223                      -1.43837                      89.76956
                      -4.93865                      -1.48832                      89.82352
                      -5.24310                      -1.47158                      89.84076
                      -5.53646                      -1.38920                      89.82020
                      -5.80030                      -1.24636                      89.76313
                      -6.01803                      -1.05204                      89.67314
                      -6.17598                      -0.81843                      89.55588
                      -6.26422                      -0.56023                      89.41871
                      -6.27720                      -0.29366                      89.27026
                      -6.21412                      -0.03545                      89.11986
                      -6.07894                       0.19815                      88.97695
                      -5.88014                       0.39248                      88.85052
                      -5.63022                       0.53531                      88.74850
                      -5.34489                       0.61769                      88.67731
                      -5.04207                       0.63443                      88.64143
                      -4.74079                       0.58448                      88.64310
                      -4.45997                       0.47098                      88.68222
                      -4.21728                       0.30105                      88.75634
                      -4.02794                       0.08539                      88.86079
                      -3.90387                      -0.16247                      88.98901
                      -3.96230                      -0.48794                      89.03300
                      -3.98546                      -0.73063                      89.17122
                      -4.07716                      -0.95808                      89.30687
                      -4.23162                      -1.15599                      89.43143
                      -4.43914                      -1.31192                      89.53709
                      -4.68668                      -1.41608                      89.61719
                      -4.95869                      -1.46192                      89.66671
                      -5.23807                      -1.44656                      89.68253
                      -5.50728                      -1.37096                      89.66367
                      -5.74939                      -1.23989                      89.61130
                      -5.94920                      -1.06156                      89.52871
                      -6.09414                      -0.84719                      89.42110
                      -6.17512                      -0.61025                      89.29523
                      -6.18703                      -0.36562                      89.15901
                      -6.12915                      -0.12868                      89.02099
                      -6.00509                       0.08569                      88.88984
                      -5.82266                       0.26402                      88.77382
                      -5.59332                       0.39509                      88.68020
                      -5.33148                       0.47069                      88.61488
                      -5.05359                       0.48605                      88.58195
                      -4.77712                       0.44021                      88.58348
                      -4.51943                       0.33605                      88.61938
                      -4.29671                       0.18012                      88.68739
                      -4.12297                      -0.01779                      88.78325
                      -4.00911                      -0.24524                      88.90091
                      -4.09721                      -0.54893                      88.93528
                      -4.11776                      -0.76430                      89.05793
                      -4.19914                      -0.96614                      89.17831
                      -4.33620                      -1.14177                      89.28885
                      -4.52036                      -1.28014                      89.38261
                      -4.74003                      -1.37257                      89.45369
                      -4.98142                      -1.41325                      89.49764
                      -5.22935                      -1.39962                      89.51168
                      -5.46824                      -1.33254                      89.49494
                      -5.68309                      -1.21622                      89.44846
                      -5.86040                      -1.05797                      89.37518
                      -5.98903                      -0.86774                      89.27968
                      -6.06089                      -0.65747                      89.16799
                      -6.07146                      -0.44039                      89.04710
                      -6.02009                      -0.23012                      88.92462
                      -5.91000                      -0.03989                      88.80824
                      -5.74811                       0.11836                      88.70528
                      -5.54460                       0.23468                      88.62220
                      -5.31224                       0.30177                      88.56423
                      -5.06564                       0.31540                      88.53501
                      -4.82029                       0.27472                      88.53637
                      -4.59161                       0.18229                      88.56823
                      -4.39397                       0.04391                      88.62858
                      -4.23979                      -0.13171                      88.71364
                      -4.13875                      -0.33355                      88.81806
                      -4.26910                      -0.60992                      88.84079
                      -4.28628                      -0.78991                      88.94329
                      -4.35428                      -0.95859                      89.04389
                      -4.46883                      -1.10536                      89.13627
                      -4.62273                      -1.22100                      89.21463
                      -4.80631                      -1.29825                      89.27403
                      -5.00804                      -1.33224                      89.31076
                      -5.21524                      -1.32085                      89.32249
                      -5.41489                      -1.26479                      89.30850
                      -5.59444                      -1.16758                      89.26966
                      -5.74262                      -1.03533                      89.20842
                      -5.85011                      -0.87635                      89.12861
                      -5.91016                      -0.70063                      89.03527
                      -5.91900                      -0.51921                      88.93424
                      -5.87607                      -0.34349                      88.83188
                      -5.78407                      -0.18451                      88.73462
                      -5.64878                      -0.05226                      88.64858
                      -5.47870                       0.04495                      88.57915
                      -5.28451                       0.10101                      88.53070
                      -5.07842                       0.11241                      88.50628
                      -4.87338                       0.07841                      88.50742
                      -4.68227                       0.00117                      88.53404
                      -4.51711                      -0.11448                      88.58448
                      -4.38825                      -0.26125                      88.65557
                      -4.30381                      -0.42993                      88.74283
                      -4.50741                      -0.67091                      88.75211
                      -4.51983                      -0.80104                      88.82622
                      -4.56900                      -0.92300                      88.89896
                      -4.65182                      -1.02912                      88.96575
                      -4.76309                      -1.11273                      89.02240
                      -4.89582                      -1.16857                      89.06535
                      -5.04166                      -1.19315                      89.09190
                      -5.19147                      -1.18492                      89.10038
                      -5.33581                      -1.14438                      89.09027
                      -5.46563                      -1.07410                      89.06219
                      -5.57276                      -0.97848                      89.01791
                      -5.65048                      -0.86354                      88.96021
                      -5.69390                      -0.73650                      88.89272
                      -5.70029                      -0.60533                      88.81968
                      -5.66925                      -0.47828                      88.74567
                      -5.60273                      -0.36334                      88.67535
                      -5.50492                      -0.26772                      88.61314
                      -5.38195                      -0.19744                      88.56295
                      -5.24155                      -0.15691                      88.52792
                      -5.09255                      -0.14867                      88.51026
                      -4.94431                      -0.17325                      88.51108
                      -4.80614                      -0.22910                      88.53033
                      -4.68672                      -0.31271                      88.56680
                      -4.59356                      -0.41882                      88.61820
                      -4.53251                      -0.54078                      88.68129
                      -5.11412                      -0.73190                      88.69567
                      -5.11412                      -0.73190                      88.69567
                      -5.11412                      -0.73190                      88.69567
                      -5.11412                      -0.73190                      88.69567
                      -5.11412                      -0.73190                      88.69567
                      -5.11412                      -0.73190                      88.69567
                      -5.11412                      -0.73190                      88.69567
                      -5.11412                      -0.73190                      88.69567
                      -5.11412                      -0.73190                      88.69567
                      -5.11412                      -0.73190                      88.69567
                      -5.11412                      -0.73190                      88.69567
                      -5.11412                      -0.73190                      88.69567
                      -5.11412                      -0.73190                      88.69567
                      -5.11412                      -0.73190                      88.69567
                      -5.11412                      -0.73190                      88.69567
                      -5.11412                      -0.73190                      88.69567
                      -5.11412                      -0.73190                      88.69567
                      -5.11412                      -0.73190                      88.69567
                      -5.11412                      -0.73190                      88.69567
                      -5.11412                      -0.73190                      88.69567
                      -5.11412                      -0.73190                      88.69567
                      -5.11412                      -0.73190                      88.69567
                      -5.11412                      -0.73190                      88.69567
                      -5.11412                      -0.73190                      88.69567
                      -5.11412                      -0.73190                      88.69567
        </DataArray>
      </Points>
      <Polys>
        <DataArray type="Int32" Name="connectivity" format="ascii">
      0      1     26     25
      1      2     27     26
      2      3     28     27
      3      4     29     28
      4      5     30     29
      5      6     31     30
      6      7     32     31
      7      8     33     32
      8      9     34     33
      9     10     35     34
     10     11     36     35
     11     12     37     36
     12     13     38     37
     13     14     39     38
     14     15     40     39
     15     16     41     40
     16     17     42     41
     17     18     43     42
     18     19     44     43
     19     20     45     44
     20     21     46     45
     21     22     47     46
     22     23     48     47
     23     24     49     48
     24      0     25     49
     25     26     51     50
     26     27     52     51
     27     28     53     52
     28     29     54     53
     29     30     55     54
     30     31     56     55
     31     32     57     56
     32     33     58     57
     33     34     59     58
     34     35     60     59
     35     36     61     60
     36     37     62     61
     37     38     63     62
     38     39     64     63
     39     40     65     64
     40     41     66     65
     41     42     67     66
     42     43     68     67
     43     44     69     68
     44     45     70     69
     45     46     71     70
     46     47     72     71
     47     48     73     72
     48     49     74     73
     49     25     50     74
     50     51     76     75
     51     52     77     76
     52     53     78     77
     53     54     79     78
     54     55     80     79
     55     56     81     80
     56     57     82     81
     57     58     83     82
     58     59     84     83
     59     60     85     84
     60     61     86     85
     61     62     87     86
     62     63     88     87
     63     64     89     88
     64     65     90     89
     65     66     91     90
     66     67     92     91
     67     68     93     92
     68     69     94     93
     69     70     95     94
     70     71     96     95
     71     72     97     96
     72     73     98     97
     73     74     99     98
     74     50     75     99
     75     76    101    100
     76     77    102    101
     77     78    103    102
     78     79    104    103
     79     80    105    104
     80     81    106    105
     81     82    107    106
     82     83    108    107
     83     84    109    108
     84     85    110    109
     85     86    111    110
     86     87    112    111
     87     88    113    112
     88     89    114    113
     89     90    115    114
     90     91    116    115
     91     92    117    116
     92     93    118    117
     93     94    119    118
     94     95    120    119
     95     96    121    120
     96     97    122    121
     97     98    123    122
     98     99    124    123
     99     75    100    124
    100    101    126    125
    101    102    127    126
    102    103    128    127
    103    104    129    128
    104    105    130    129
    105    106    131    130
    106    107    132    131
    107    108    133    132
    108    109    134    133
    109    110    135    134
    110    111    136    135
    111    112    137    136
    112    113    138    137
    113    114    139    138
    114    115    140    139
    115    116    141    140
    116    117    142    141
    117    118    143    142
    118    119    144    143
    119    120    145    144
    120    121    146    145
    121    122    147    146
    122    123    148    147
    123    124    149    148
    124    100    125    149
    125    126    151    150
    126    127    152    151
    127    128    153    152
    128    129    154    153
    129    130    155    154
    130    131    156    155
    131    132    157    156
    132    133    158    157
    133    134    159    158
    134    135    160    159
    135    136    161    160
    136    137    162    161
    137    138    163    162
    138    139    164    163
    139    140    165    164
    140    141    166    165
    141    142    167    166
    142    143    168    167
    143    144    169    168
    144    145    170    169
    145    146    171    170
    146    147    172    171
    147    148    173    172
    148    149    174    173
    149    125    150    174
    150    151    176    175
    151    152    177    176
    152    153    178    177
    153    154    179    178
    154    155    180    179
    155    156    181    180
    156    157    182    181
    157    158    183    182
    158    159    184    183
    159    160    185    184
    160    161    186    185
    161    162    187    186
    162    163    188    187
    163    164    189    188
    164    165    190    189
    165    166    191    190
    166    167    192    191
    167    168    193    192
    168    169    194    193
    169    170    195    194
    170    171    196    195
    171    172    197    196
    172    173    198    197
    173    174    199    198
    174    150    175    199
    175    176    201    200
    176    177    202    201
    177    178    203    202
    178    179    204    203
    179    180    205    204
    180    181    206    205
    181    182    207    206
    182    183    208    207
    183    184    209    208
    184    185    210    209
    185    186    211    210
    186    187    212    211
    187    188    213    212
    188    189    214    213
    189    190    215    214
    190    191    216    215
    191    192    217    216
    192    193    218    217
    193    194    219    218
    194    195    220    219
    195    196    221    220
    196    197    222    221
    197    198    223    222
    198    199    224    223
    199    175    200    224
    200    201    226    225
    201    202    227    226
    202    203    228    227
    203    204    229    228
    204    205    230    229
    205    206    231    230
    206    207    232    231
    207    208    233    232
    208    209    234    233
    209    210    235    234
    210    211    236    235
    211    212    237    236
    212    213    238    237
    213    214    239    238
    214    215    240    239
    215    216    241    240
    216    217    242    241
    217    218    243    242
    218    219    244    243
    219    220    245    244
    220    221    246    245
    221    222    247    246
    222    223    248    247
    223    224    249    248
    224    200    225    249
    225    226    251    250
    226    227    252    251
    227    228    253    252
    228    229    254    253
    229    230    255    254
    230    231    256    255
    231    232    257    256
    232    233    258    257
    233    234    259    258
    234    235    260    259
    235    236    261    260
    236    237    262    261
    237    238    263    262
    238    239    264    263
    239    240    265    264
    240    241    266    265
    241    242    267    266
    242    243    268    267
    243    244    269    268
    244    245    270    269
    245    246    271    270
    246    247    272    271
    247    248    273    272
    248    249    274    273
    249    225    250    274
    250    251    276    275
    251    252    277    276
    252    253    278    277
    253    254    279    278
    254    255    280    279
    255    256    281    280
    256    257    282    281
    257    258    283    282
    258    259    284    283
    259    260    285    284
    260    261    286    285
    261    262    287    286
    262    263    288    287
    263    264    289    288
    264    265    290    289
    265    266    291    290
    266    267    292    291
    267    268    293    292
    268    269    294    293
    269    270    295    294
    270    271    296    295
    271    272    297    296
    272    273    298    297
    273    274    299    298
    274    250    275    299
    275    276    301    300
    276    277    302    301
    277    278    303    302
    278    279    304    303
    279    280    305    304
    280    281    306    305
    281    282    307    306
    282    283    308    307
    283    284    309    308
    284    285    310    309
    285    286    311    310
    286    287    312    311
    287    288    313    312
    288    289    314    313
    289    290    315    314
    290    291    316    315
    291    292    317    316
    292    293    318    317
    293    294    319    318
    294    295    320    319
    295    296    321    320
    296    297    322    321
    297    298    323    322
    298    299    324    323
    299    275    300    324
    300    301    326    325
    301    302    327    326
    302    303    328    327
    303    304    329    328
    304    305    330    329
    305    306    331    330
    306    307    332    331
    307    308    333    332
    308    309    334    333
    309    310    335    334
    310    311    336    335
    311    312    337    336
    312    313    338    337
    313    314    339    338
    314    315    340    339
    315    316    341    340
    316    317    342    341
    317    318    343    342
    318    319    344    343
    319    320    345    344
    320    321    346    345
    321    322    347    346
    322    323    348    347
    323    324    349    348
    324    300    325    349
    325    326    351    350
    326    327    352    351
    327    328    353    352
    328    329    354    353
    329    330    355    354
    330    331    356    355
    331    332    357    356
    332    333    358    357
    333    334    359    358
    334    335    360    359
    335    336    361    360
    336    337    362    361
    337    338    363    362
    338    339    364    363
    339    340    365    364
    340    341    366    365
    341    342    367    366
    342    343    368    367
    343    344    369    368
    344    345    370    369
    345    346    371    370
    346    347    372    371
    347    348    373    372
    348    349    374    373
    349    325    350    374
    350    351    376    375
    351    352    377    376
    352    353    378    377
    353    354    379    378
    354    355    380    379
    355    356    381    380
    356    357    382    381
    357    358    383    382
    358    359    384    383
    359    360    385    384
    360    361    386    385
    361    362    387    386
    362    363    388    387
    363    364    389    388
    364    365    390    389
    365    366    391    390
    366    367    392    391
    367    368    393    392
    368    369    394    393
    369    370    395    394
    370    371    396    395
    371    372    397    396
    372    373    398    397
    373    374    399    398
    374    350    375    399
    375    376    401    400
    376    377    402    401
    377    378    403    402
    378    379    404    403
    379    380    405    404
    380    381    406    405
    381    382    407    406
    382    383    408    407
    383    384    409    408
    384    385    410    409
    385    386    411    410
    386    387    412    411
    387    388    413    412
    388    389    414    413
    389    390    415    414
    390    391    416    415
    391    392    417    416
    392    393    418    417
    393    394    419    418
    394    395    420    419
    395    396    421    420
    396    397    422    421
    397    398    423    422
    398    399    424    423
    399    375    400    424
    400    401    426    425
    401    402    427    426
    402    403    428    427
    403    404    429    428
    404    405    430    429
    405    406    431    430
    406    407    432    431
    407    408    433    432
    408    409    434    433
    409    410    435    434
    410    411    436    435
    411    412    437    436
    412    413    438    437
    413    414    439    438
    414    415    440    439
    415    416    441    440
    416    417    442    441
    417    418    443    442
    418    419    444    443
    419    420    445    444
    420    421    446    445
    421    422    447    446
    422    423    448    447
    423    424    449    448
    424    400    425    449
    425    426    451    450
    426    427    452    451
    427    428    453    452
    428    429    454    453
    429    430    455    454
    430    431    456    455
    431    432    457    456
    432    433    458    457
    433    434    459    458
    434    435    460    459
    435    436    461    460
    436    437    462    461
    437    438    463    462
    438    439    464    463
    439    440    465    464
    440    441    466    465
    441    442    467    466
    442    443    468    467
    443    444    469    468
    444    445    470    469
    445    446    471    470
    446    447    472    471
    447    448    473    472
    448    449    474    473
    449    425    450    474
    450    451    476    475
    451    452    477    476
    452    453    478    477
    453    454    479    478
    454    455    480    479
    455    456    481    480
    456    457    482    481
    457    458    483    482
    458    459    484    483
    459    460    485    484
    460    461    486    485
    461    462    487    486
    462    463    488    487
    463    464    489    488
    464    465    490    489
    465    466    491    490
    466    467    492    491
    467    468    493    492
    468    469    494    493
    469    470    495    494
    470    471    496    495
    471    472    497    496
    472    473    498    497
    473    474    499    498
    474    450    475    499
    475    476    501    500
    476    477    502    501
    477    478    503    502
    478    479    504    503
    479    480    505    504
    480    481    506    505
    481    482    507    506
    482    483    508    507
    483    484    509    508
    484    485    510    509
    485    486    511    510
    486    487    512    511
    487    488    513    512
    488    489    514    513
    489    490    515    514
    490    491    516    515
    491    492    517    516
    492    493    518    517
    493    494    519    518
    494    495    520    519
    495    496    521    520
    496    497    522    521
    497    498    523    522
    498    499    524    523
    499    475    500    524
    500    501    526    525
    501    502    527    526
    502    503    528    527
    503    504    529    528
    504    505    530    529
    505    506    531    530
    506    507    532    531
    507    508    533    532
    508    509    534    533
    509    510    535    534
    510    511    536    535
    511    512    537    536
    512    513    538    537
    513    514    539    538
    514    515    540    539
    515    516    541    540
    516    517    542    541
    517    518    543    542
    518    519    544    543
    519    520    545    544
    520    521    546    545
    521    522    547    546
    522    523    548    547
    523    524    549    548
    524    500    525    549
    525    526    551    550
    526    527    552    551
    527    528    553    552
    528    529    554    553
    529    530    555    554
    530    531    556    555
    531    532    557    556
    532    533    558    557
    533    534    559    558
    534    535    560    559
    535    536    561    560
    536    537    562    561
    537    538    563    562
    538    539    564    563
    539    540    565    564
    540    541    566    565
    541    542    567    566
    542    543    568    567
    543    544    569    568
    544    545    570    569
    545    546    571    570
    546    547    572    571
    547    548    573    572
    548    549    574    573
    549    525    550    574
    550    551    576    575
    551    552    577    576
    552    553    578    577
    553    554    579    578
    554    555    580    579
    555    556    581    580
    556    557    582    581
    557    558    583    582
    558    559    584    583
    559    560    585    584
    560    561    586    585
    561    562    587    586
    562    563    588    587
    563    564    589    588
    564    565    590    589
    565    566    591    590
    566    567    592    591
    567    568    593    592
    568    569    594    593
    569    570    595    594
    570    571    596    595
    571    572    597    596
    572    573    598    597
    573    574    599    598
    574    550    575    599
    575    576    601    600
    576    577    602    601
    577    578    603    602
    578    579    604    603
    579    580    605    604
    580    581    606    605
    581    582    607    606
    582    583    608    607
    583    584    609    608
    584    585    610    609
    585    586    611    610
    586    587    612    611
    587    588    613    612
    588    589    614    613
    589    590    615    614
    590    591    616    615
    591    592    617    616
    592    593    618    617
    593    594    619    618
    594    595    620    619
    595    596    621    620
    596    597    622    621
    597    598    623    622
    598    599    624    623
    599    575    600    624
        </DataArray>
        <DataArray type="Int32" Name="offsets" format="ascii">
      4
      8
     12
     16
     20
     24
     28
     32
     36
     40
     44
     48
     52
     56
     60
     64
     68
     72
     76
     80
     84
     88
     92
     96
    100
    104
    108
    112
    116
    120
    124
    128
    132
    136
    140
    144
    148
    152
    156
    160
    164
    168
    172
    176
    180
    184
    188
    192
    196
    200
    204
    208
    212
    216
    220
    224
    228
    232
    236
    240
    244
    248
    252
    256
    260
    264
    268
    272
    276
    280
    284
    288
    292
    296
    300
    304
    308
    312
    316
    320
    324
    328
    332
    336
    340
    344
    348
    352
    356
    360
    364
    368
    372
    376
    380
    384
    388
    392
    396
    400
    404
    408
    412
    416
    420
    424
    428
    432
    436
    440
    444
    448
    452
    456
    460
    464
    468
    472
    476
    480
    484
    488
    492
    496
    500
    504
    508
    512
    516
    520
    524
    528
    532
    536
    540
    544
    548
    552
    556
    560
    564
    568
    572
    576
    580
    584
    588
    592
    596
    600
    604
    608
    612
    616
    620
    624
    628
    632
    636
    640
    644
    648
    652
    656
    660
    664
    668
    672
    676
    680
    684
    688
    692
    696
    700
    704
    708
    712
    716
    720
    724
    728
    732
    736
    740
    744
    748
    752
    756
    760
    764
    768
    772
    776
    780
    784
    788
    792
    796
    800
    804
    808
    812
    816
    820
    824
    828
    832
    836
    840
    844
    848
    852
    856
    860
    864
    868
    872
    876
    880
    884
    888
    892
    896
    900
    904
    908
    912
    916
    920
    924
    928
    932
    936
    940
    944
    948
    952
    956
    960
    964
    968
    972
    976
    980
    984
    988
    992
    996
   1000
   1004
   1008
   1012
   1016
   1020
   1024
   1028
   1032
   1036
   1040
   1044
   1048
   1052
   1056
   1060
   1064
   1068
   1072
   1076
   1080
   1084
   1088
   1092
   1096
   1100
   1104
   1108
   1112
   1116
   1120
   1124
   1128
   1132
   1136
   1140
   1144
   1148
   1152
   1156
   1160
   1164
   1168
   1172
   1176
   1180
   1184
   1188
   1192
   1196
   1200
   1204
   1208
   1212
   1216
   1220
   1224
   1228
   1232
   1236
   1240
   1244
   1248
   1252
   1256
   1260
   1264
   1268
   1272
   1276
   1280
   1284
   1288
   1292
   1296
   1300
   1304
   1308
   1312
   1316
   1320
   1324
   1328
   1332
   1336
   1340
   1344
   1348
   1352
   1356
   1360
   1364
   1368
   1372
   1376
   1380
   1384
   1388
   1392
   1396
   1400
   1404
   1408
   1412
   1416
   1420
   1424
   1428
   1432
   1436
   1440
   1444
   1448
   1452
   1456
   1460
   1464
   1468
   1472
   1476
   1480
   1484
   1488
   1492
   1496
   1500
   1504
   1508
   1512
   1516
   1520
   1524
   1528
   1532
   1536
   1540
   1544
   1548
   1552
   1556
   1560
   1564
   1568
   1572
   1576
   1580
   1584
   1588
   1592
   1596
   1600
   1604
   1608
   1612
   1616
   1620
   1624
   1628
   1632
   1636
   1640
   1644
   1648
   1652
   1656
   1660
   1664
   1668
   1672
   1676
   1680
   1684
   1688
   1692
   1696
   1700
   1704
   1708
   1712
   1716
   1720
   1724
   1728
   1732
   1736
   1740
   1744
   1748
   1752
   1756
   1760
   1764
   1768
   1772
   1776
   1780
   1784
   1788
   1792
   1796
   1800
   1804
   1808
   1812
   1816
   1820
   1824
   1828
   1832
   1836
   1840
   1844
   1848
   1852
   1856
   1860
   1864
   1868
   1872
   1876
   1880
   1884
   1888
   1892
   1896
   1900
   1904
   1908
   1912
   1916
   1920
   1924
   1928
   1932
   1936
   1940
   1944
   1948
   1952
   1956
   1960
   1964
   1968
   1972
   1976
   1980
   1984
   1988
   1992
   1996
   2000
   2004
   2008
   2012
   2016
   2020
   2024
   2028
   2032
   2036
   2040
   2044
   2048
   2052
   2056
   2060
   2064
   2068
   2072
   2076
   2080
   2084
   2088
   2092
   2096
   2100
   2104
   2108
   2112
   2116
   2120
   2124
   2128
   2132
   2136
   2140
   2144
   2148
   2152
   2156
   2160
   2164
   2168
   2172
   2176
   2180
   2184
   2188
   2192
   2196
   2200
   2204
   2208
   2212
   2216
   2220
   2224
   2228
   2232
   2236
   2240
   2244
   2248
   2252
   2256
   2260
   2264
   2268
   2272
   2276
   2280
   2284
   2288
   2292
   2296
   2300
   2304
   2308
   2312
   2316
   2320
   2324
   2328
   2332
   2336
   2340
   2344
   2348
   2352
   2356
   2360
   2364
   2368
   2372
   2376
   2380
   2384
   2388
   2392
   2396
   2400
        </DataArray>
      </Polys>
    </Piece>
  </PolyData>
</VTKFile>
