<?xml version="1.0"?>
<VTKFile type="PolyData" version="0.1" byte_order="LittleEndian">
  <PolyData>
    <Piece NumberOfPoints="     19" NumberOfVerts="  0" NumberOfLines="     18"
           NumberOfStrips="  0" NumberOfPolys="      0">
      <Points>
        <DataArray type="Float32" NumberOfComponents="3" format="ascii">
                      -5.00741                       1.34403                      90.66599
                      -5.01459                       2.56718                      91.27570
                      -5.04217                       4.97124                      92.58020
                      -5.07420                       7.35603                      93.92404
                      -5.11375                      10.32674                      95.62593
                      -5.11114                      13.95894                      97.53276
                      -5.08296                      17.65149                      99.31694
                      -5.04262                      21.34729                     101.09407
                      -4.98507                      25.04702                     102.86240
                      -4.90822                      28.74958                     104.62384
                      -4.81056                      32.45307                     106.38201
                      -4.68922                      36.15783                     108.13580
                      -4.54304                      39.86351                     109.88555
                      -4.37150                      43.56976                     111.63166
                      -4.17233                      47.27620                     113.37432
                      -3.98488                      50.36483                     114.82395
                      -3.82283                      52.83893                     115.97497
                      -3.65474                      55.33671                     117.07522
                      -3.56431                      56.56737                     117.66224
        </DataArray>
      </Points>
      <PointData>
        <DataArray type="Float32" Name="TranslationalVelocity" NumberOfComponents="3" format="ascii">
                       0.06133                      -0.34704                       0.70105
                       0.11716                      -0.66481                       1.33917
                       0.22704                      -1.34446                       2.59395
                       0.33627                      -2.04501                       3.83957
                       0.47272                      -2.93325                       5.39275
                       0.64023                      -3.93212                       7.29428
                       0.81151                      -4.86950                       9.23043
                       0.98423                      -5.80527                      11.17145
                       1.15870                      -6.73868                      13.11764
                       1.33515                      -7.67076                      15.06822
                       1.51374                      -8.60336                      17.02193
                       1.69470                      -9.53591                      18.97861
                       1.87815                     -10.46849                      20.93772
                       2.06412                     -11.40119                      22.89868
                       2.25255                     -12.33409                      24.86094
                       2.41136                     -13.11163                      26.49683
                       2.53955                     -13.72990                      27.80755
                       2.66973                     -14.32176                      29.13104
                       2.73411                     -14.63762                      29.78322
        </DataArray>
        <DataArray type="Float32" Name="RotationalVelocity" NumberOfComponents="3" format="ascii">
                       0.52161                       0.00000                      -0.04563
                       0.52172                       0.00001                      -0.04565
                       0.52203                       0.00003                      -0.04572
                       0.52244                       0.00005                      -0.04580
                       0.52304                       0.00007                      -0.04596
                       0.52384                       0.00008                      -0.04620
                       0.52467                       0.00007                      -0.04652
                       0.52548                       0.00003                      -0.04692
                       0.52624                      -0.00002                      -0.04739
                       0.52694                      -0.00008                      -0.04793
                       0.52756                      -0.00014                      -0.04854
                       0.52810                      -0.00019                      -0.04921
                       0.52856                      -0.00022                      -0.04990
                       0.52894                      -0.00023                      -0.05058
                       0.52924                      -0.00020                      -0.05120
                       0.52943                      -0.00015                      -0.05164
                       0.52953                      -0.00009                      -0.05191
                       0.52958                      -0.00002                      -0.05207
                       0.52959                       0.00002                      -0.05210
        </DataArray>
        <DataArray type="Float32" Name="TranslationalAcceleration" NumberOfComponents="3" format="ascii">
                      -0.01584                      -0.36847                      -0.18102
                      -0.01908                      -0.44539                      -0.21954
                      -0.05669                      -1.26428                      -0.65017
                      -0.09215                      -2.01327                      -1.05712
                      -0.13357                      -2.88748                      -1.53840
                      -0.17627                      -3.90418                      -2.04776
                      -0.21340                      -4.91747                      -2.50496
                      -0.24949                      -5.93595                      -2.95235
                      -0.28641                      -6.97218                      -3.39522
                      -0.32633                      -8.02965                      -3.83578
                      -0.37174                      -9.10533                      -4.27395
                      -0.42537                     -10.19295                      -4.70665
                      -0.49038                     -11.28469                      -5.13072
                      -0.57044                     -12.37377                      -5.54373
                      -0.66976                     -13.45697                      -5.94506
                      -0.77120                     -14.35688                      -6.27208
                      -0.86587                     -15.07940                      -6.52920
                      -0.97271                     -15.81497                      -6.77288
                      -1.03381                     -16.18362                      -6.90728
        </DataArray>
        <DataArray type="Float32" Name="OrientationX" NumberOfComponents="3" format="ascii">
                       0.99693                       0.03912                      -0.06785
                       0.99693                       0.03891                      -0.06796
                       0.99693                       0.03824                      -0.06828
                       0.99694                       0.03726                      -0.06874
                       0.99695                       0.03566                      -0.06949
                       0.99695                       0.03321                      -0.07062
                       0.99695                       0.03020                      -0.07198
                       0.99694                       0.02663                      -0.07355
                       0.99691                       0.02244                      -0.07533
                       0.99685                       0.01762                      -0.07729
                       0.99677                       0.01217                      -0.07943
                       0.99664                       0.00613                      -0.08171
                       0.99646                      -0.00037                      -0.08407
                       0.99623                      -0.00711                      -0.08644
                       0.99596                      -0.01377                      -0.08870
                       0.99572                      -0.01896                      -0.09042
                       0.99554                      -0.02261                      -0.09160
                       0.99538                      -0.02559                      -0.09253
                       0.99532                      -0.02675                      -0.09289
        </DataArray>
        <DataArray type="Float32" Name="OrientationY" NumberOfComponents="3" format="ascii">
                      -0.07817                       0.44229                      -0.89346
                      -0.07817                       0.44214                      -0.89354
                      -0.07815                       0.44173                      -0.89374
                      -0.07813                       0.44122                      -0.89399
                      -0.07809                       0.44050                      -0.89435
                      -0.07803                       0.43958                      -0.89481
                      -0.07793                       0.43866                      -0.89527
                      -0.07778                       0.43780                      -0.89570
                      -0.07755                       0.43704                      -0.89609
                      -0.07722                       0.43637                      -0.89645
                      -0.07678                       0.43581                      -0.89676
                      -0.07622                       0.43535                      -0.89703
                      -0.07554                       0.43498                      -0.89727
                      -0.07477                       0.43467                      -0.89748
                      -0.07394                       0.43442                      -0.89767
                      -0.07326                       0.43425                      -0.89781
                      -0.07275                       0.43415                      -0.89790
                      -0.07232                       0.43408                      -0.89797
                      -0.07214                       0.43406                      -0.89799
        </DataArray>
        <DataArray type="Float32" Name="OrientationZ" NumberOfComponents="3" format="ascii">
                      -0.00494                       0.89602                       0.44399
                      -0.00472                       0.89610                       0.44382
                      -0.00402                       0.89633                       0.44336
                      -0.00298                       0.89662                       0.44278
                      -0.00128                       0.89704                       0.44194
                       0.00133                       0.89759                       0.44083
                       0.00453                       0.89815                       0.43968
                       0.00835                       0.89868                       0.43853
                       0.01281                       0.89916                       0.43742
                       0.01793                       0.89959                       0.43636
                       0.02371                       0.89995                       0.43534
                       0.03007                       0.90024                       0.43436
                       0.03690                       0.90044                       0.43341
                       0.04395                       0.90056                       0.43250
                       0.05090                       0.90060                       0.43165
                       0.05629                       0.90059                       0.43101
                       0.06007                       0.90056                       0.43057
                       0.06314                       0.90051                       0.43023
                       0.06434                       0.90049                       0.43010
        </DataArray>
        <DataArray type="Float32" Name="Force" NumberOfComponents="3" format="ascii">
                      17.43214                      -0.83367                       1.87648
                     432.45619                      16.22288                     -28.15182
                     471.76777                      32.44345                     -61.26593
                     359.80494                      35.94157                     -70.22086
                    2203.54943                     -16.52368                      38.95744
                    2320.11200                      -7.51871                       7.01823
                    2505.13352                     -17.36685                       7.70933
                    2308.91655                     -15.67822                     -13.83668
                    2124.48699                      -6.56358                     -50.38698
                    2170.30092                     -17.27172                     -55.51490
                    2042.05082                      -7.60375                     -96.75293
                    2059.84618                     -20.29745                    -101.94767
                    1773.53520                     -17.05523                    -116.33694
                    1751.70313                     -28.89426                    -118.69156
                    1710.39958                     -39.47305                    -120.18880
                    1666.08320                     -48.24433                    -117.70460
                    1598.53916                     -59.67404                     -99.47896
                    1170.36255                     -55.06017                     -57.84895
                    1053.63652                     -83.98158                      15.44657
        </DataArray>
        <DataArray type="Float32" Name="Moment" NumberOfComponents="3" format="ascii">
                       0.00000                       0.00000                       0.00000
                       0.00000                       0.00000                       0.00000
                       0.00000                       0.00000                       0.00000
                       0.00000                       0.00000                       0.00000
                       2.36100                   -1881.12996                    -931.42075
                      -3.39563                   -1947.38357                    -963.71458
                      -9.93731                   -1836.65369                    -908.32774
                     -17.19804                   -1763.58446                    -871.52110
                     -24.13958                   -1631.10725                    -805.33372
                     -30.87701                   -1500.72740                    -740.20244
                     -33.72098                   -1245.87925                    -613.79636
                     -38.81344                   -1134.69157                    -558.30968
                     -42.26944                   -1010.06302                    -496.31255
                     -44.62205                    -897.06687                    -440.17034
                     -45.03035                    -782.99872                    -383.66755
                     -43.74785                    -688.54578                    -337.02280
                     -39.15776                    -577.82389                    -282.61382
                     -19.62770                    -275.64718                    -134.73619
                      -9.44752                    -130.23487                     -63.64351
        </DataArray>
      </PointData>
      <Lines>
        <DataArray type="Int32" Name="connectivity" format="ascii">
      0      1
      1      2
      2      3
      3      4
      4      5
      5      6
      6      7
      7      8
      8      9
      9     10
     10     11
     11     12
     12     13
     13     14
     14     15
     15     16
     16     17
     17     18
        </DataArray>
        <DataArray type="Int32" Name="offsets" format="ascii">
      2
      4
      6
      8
     10
     12
     14
     16
     18
     20
     22
     24
     26
     28
     30
     32
     34
     36
        </DataArray>
      </Lines>
    </Piece>
  </PolyData>
</VTKFile>
