<?xml version="1.0"?>
<VTKFile type="PolyData" version="0.1" byte_order="LittleEndian">
  <PolyData>
    <Piece NumberOfPoints="     19" NumberOfVerts="  0" NumberOfLines="     18"
           NumberOfStrips="  0" NumberOfPolys="      0">
      <Points>
        <DataArray type="Float32" NumberOfComponents="3" format="ascii">
                      -5.11608                       1.38011                      89.42395
                      -5.22225                       2.63881                      88.90210
                      -5.44764                       5.19191                      87.94656
                      -5.67749                       7.76183                      87.03162
                      -5.96451                      10.98422                      85.91041
                      -6.25976                      14.79644                      84.42416
                      -6.53042                      18.55751                      82.81161
                      -6.78974                      22.31637                      81.19215
                      -7.03286                      26.07251                      79.56398
                      -7.25785                      29.82679                      77.92915
                      -7.46333                      33.58080                      76.29140
                      -7.64652                      37.33412                      74.64964
                      -7.80629                      41.08686                      73.00431
                      -7.94207                      44.83911                      71.35584
                      -8.05147                      48.59090                      69.70451
                      -8.12196                      51.71697                      68.32635
                      -8.16661                      54.21425                      67.21545
                      -8.20554                      56.68926                      66.05324
                      -8.21853                      57.94305                      65.50992
        </DataArray>
      </Points>
      <PointData>
        <DataArray type="Float32" Name="TranslationalVelocity" NumberOfComponents="3" format="ascii">
                       0.06298                       0.30577                       0.71987
                       0.12043                       0.58281                       1.37642
                       0.23714                       1.09153                       2.70824
                       0.35492                       1.57936                       4.04901
                       0.50316                       2.17755                       5.73054
                       0.67964                       2.96688                       7.72048
                       0.85535                       3.82143                       9.68449
                       1.03299                       4.67954                      11.64819
                       1.21300                       5.54198                      13.61137
                       1.39583                       6.40760                      15.57449
                       1.58193                       7.27434                      17.53835
                       1.77155                       8.14263                      19.50269
                       1.96485                       9.01212                      21.46750
                       2.16184                       9.88247                      23.43272
                       2.36234                      10.75331                      25.39826
                       2.53186                      11.47921                      27.03632
                       2.66861                      12.06375                      28.34503
                       2.80539                      12.67489                      29.64213
                       2.87465                      12.96030                      30.29924
        </DataArray>
        <DataArray type="Float32" Name="RotationalVelocity" NumberOfComponents="3" format="ascii">
                       0.52161                      -0.00000                      -0.04563
                       0.52162                      -0.00001                      -0.04566
                       0.52168                      -0.00004                      -0.04573
                       0.52176                      -0.00009                      -0.04584
                       0.52189                      -0.00018                      -0.04603
                       0.52209                      -0.00034                      -0.04633
                       0.52231                      -0.00056                      -0.04672
                       0.52254                      -0.00084                      -0.04718
                       0.52278                      -0.00119                      -0.04772
                       0.52301                      -0.00163                      -0.04834
                       0.52324                      -0.00215                      -0.04901
                       0.52344                      -0.00274                      -0.04973
                       0.52363                      -0.00339                      -0.05045
                       0.52379                      -0.00407                      -0.05114
                       0.52391                      -0.00476                      -0.05174
                       0.52398                      -0.00530                      -0.05213
                       0.52402                      -0.00569                      -0.05232
                       0.52403                      -0.00601                      -0.05238
                       0.52403                      -0.00614                      -0.05234
        </DataArray>
        <DataArray type="Float32" Name="TranslationalAcceleration" NumberOfComponents="3" format="ascii">
                       0.01395                      -0.37836                       0.15949
                       0.01700                      -0.45805                       0.19164
                       0.04797                      -1.32141                       0.52198
                       0.07718                      -2.12194                       0.80823
                       0.11253                      -3.06280                       1.12528
                       0.15676                      -4.12393                       1.50725
                       0.20094                      -5.15130                       1.89920
                       0.23943                      -6.18231                       2.27871
                       0.26955                      -7.22952                       2.65217
                       0.28927                      -8.29688                       3.02173
                       0.29790                      -9.38199                       3.38666
                       0.29713                     -10.47807                       3.74611
                       0.29158                     -11.57715                       4.09823
                       0.28955                     -12.67245                       4.44145
                       0.30376                     -13.76092                       4.77549
                       0.34155                     -14.66487                       5.04795
                       0.39823                     -15.38934                       5.26590
                       0.49195                     -16.11739                       5.49863
                       0.54990                     -16.49009                       5.60513
        </DataArray>
        <DataArray type="Float32" Name="OrientationX" NumberOfComponents="3" format="ascii">
                       0.99377                       0.04017                      -0.10401
                       0.99378                       0.03997                      -0.10392
                       0.99384                       0.03932                      -0.10364
                       0.99392                       0.03837                      -0.10322
                       0.99405                       0.03684                      -0.10254
                       0.99424                       0.03451                      -0.10148
                       0.99446                       0.03168                      -0.10018
                       0.99472                       0.02836                      -0.09861
                       0.99501                       0.02451                      -0.09674
                       0.99532                       0.02014                      -0.09454
                       0.99564                       0.01523                      -0.09202
                       0.99597                       0.00985                      -0.08919
                       0.99628                       0.00409                      -0.08610
                       0.99656                      -0.00187                      -0.08285
                       0.99680                      -0.00776                      -0.07960
                       0.99695                      -0.01236                      -0.07706
                       0.99704                      -0.01563                      -0.07525
                       0.99711                      -0.01834                      -0.07377
                       0.99713                      -0.01943                      -0.07319
        </DataArray>
        <DataArray type="Float32" Name="OrientationY" NumberOfComponents="3" format="ascii">
                      -0.08027                      -0.38969                      -0.91744
                      -0.08025                      -0.38983                      -0.91738
                      -0.08021                      -0.39022                      -0.91722
                      -0.08015                      -0.39070                      -0.91702
                      -0.08006                      -0.39137                      -0.91674
                      -0.07992                      -0.39222                      -0.91639
                      -0.07976                      -0.39306                      -0.91605
                      -0.07955                      -0.39383                      -0.91574
                      -0.07928                      -0.39451                      -0.91547
                      -0.07895                      -0.39508                      -0.91525
                      -0.07853                      -0.39554                      -0.91508
                      -0.07802                      -0.39592                      -0.91497
                      -0.07744                      -0.39621                      -0.91489
                      -0.07680                      -0.39644                      -0.91484
                      -0.07615                      -0.39662                      -0.91482
                      -0.07563                      -0.39673                      -0.91481
                      -0.07526                      -0.39681                      -0.91481
                      -0.07498                      -0.39686                      -0.91481
                      -0.07488                      -0.39687                      -0.91481
        </DataArray>
        <DataArray type="Float32" Name="OrientationZ" NumberOfComponents="3" format="ascii">
                      -0.07738                       0.92007                      -0.38403
                      -0.07718                       0.92002                      -0.38420
                      -0.07650                       0.91988                      -0.38466
                      -0.07552                       0.91972                      -0.38525
                      -0.07390                       0.91950                      -0.38609
                      -0.07143                       0.91922                      -0.38721
                      -0.06840                       0.91897                      -0.38836
                      -0.06480                       0.91875                      -0.38949
                      -0.06060                       0.91857                      -0.39059
                      -0.05578                       0.91843                      -0.39164
                      -0.05034                       0.91832                      -0.39262
                      -0.04432                       0.91823                      -0.39355
                      -0.03785                       0.91815                      -0.39442
                      -0.03113                       0.91806                      -0.39522
                      -0.02447                       0.91795                      -0.39594
                      -0.01926                       0.91785                      -0.39646
                      -0.01556                       0.91777                      -0.39681
                      -0.01249                       0.91770                      -0.39709
                      -0.01127                       0.91767                      -0.39719
        </DataArray>
        <DataArray type="Float32" Name="Force" NumberOfComponents="3" format="ascii">
                      27.35097                       2.84007                       1.29291
                     411.75633                      18.54076                     -38.31186
                     457.60730                      10.30797                     -66.39314
                     355.01797                      -3.33491                     -77.67864
                    2122.61439                     158.86052                     -26.95480
                    2221.33744                     147.89206                     -57.37989
                    2373.59316                     152.90394                     -54.35173
                    2165.15805                     125.17748                     -63.05824
                    1973.63180                      93.06658                     -85.80685
                    2002.17366                      85.74344                     -82.32014
                    1864.86526                      54.42489                    -110.67075
                    1871.31750                      44.37117                    -106.01842
                    1601.64514                      19.63036                    -107.34419
                    1572.86456                      10.11901                     -99.68751
                    1550.41577                       6.33610                     -80.14678
                    1571.41907                      12.66767                     -45.32018
                    1585.61733                      24.68729                      -2.49582
                    1193.97998                      26.85118                      27.00878
                    1113.05103                      34.45181                      50.88890
        </DataArray>
        <DataArray type="Float32" Name="Moment" NumberOfComponents="3" format="ascii">
                       0.00000                       0.00000                       0.00000
                       0.00000                       0.00000                       0.00000
                       0.00000                       0.00000                       0.00000
                       0.00000                       0.00000                       0.00000
                     151.71391                   -1892.95147                     790.76338
                     148.48075                   -1918.97664                     802.10051
                     131.58606                   -1778.26862                     743.81247
                     117.86495                   -1683.62538                     704.81292
                     100.62663                   -1539.26535                     645.00374
                      84.23823                   -1402.26518                     588.24631
                      62.31777                   -1151.67716                     483.72612
                      49.45444                   -1040.27696                     437.53396
                      37.24614                    -919.96623                     387.49971
                      26.90118                    -811.00380                     342.12267
                      18.26387                    -704.44722                     297.61812
                      12.48361                    -616.16509                     260.62573
                       8.57254                    -528.00060                     223.51979
                       3.17989                    -246.38636                     104.37512
                       1.56390                    -135.06169                      57.23102
        </DataArray>
      </PointData>
      <Lines>
        <DataArray type="Int32" Name="connectivity" format="ascii">
      0      1
      1      2
      2      3
      3      4
      4      5
      5      6
      6      7
      7      8
      8      9
      9     10
     10     11
     11     12
     12     13
     13     14
     14     15
     15     16
     16     17
     17     18
        </DataArray>
        <DataArray type="Int32" Name="offsets" format="ascii">
      2
      4
      6
      8
     10
     12
     14
     16
     18
     20
     22
     24
     26
     28
     30
     32
     34
     36
        </DataArray>
      </Lines>
    </Piece>
  </PolyData>
</VTKFile>
