<?xml version="1.0"?>
<VTKFile type="PolyData" version="0.1" byte_order="LittleEndian">
  <PolyData>
    <Piece NumberOfPoints="     19" NumberOfVerts="  0" NumberOfLines="     18"
           NumberOfStrips="  0" NumberOfPolys="      0">
      <Points>
        <DataArray type="Float32" NumberOfComponents="3" format="ascii">
                      -5.10109                       1.44081                      89.59522
                      -5.19360                       2.75445                      89.22953
                      -5.39131                       5.40661                      88.58994
                      -5.59329                       8.07060                      87.99260
                      -5.84528                      11.40776                      87.26930
                      -6.09883                      15.37458                      86.25474
                      -6.32799                      19.30558                      85.10837
                      -6.54548                      23.23504                      83.95462
                      -6.74636                      27.16261                      82.79165
                      -6.92861                      31.08890                      81.62159
                      -7.09074                      35.01502                      80.44839
                      -7.22992                      38.94064                      79.27092
                      -7.34498                      42.86581                      78.08963
                      -7.43536                      46.79057                      76.90501
                      -7.49868                      50.71488                      75.71736
                      -7.53030                      53.98469                      74.72545
                      -7.54366                      56.59785                      73.92314
                      -7.55132                      59.19498                      73.06716
                      -7.54850                      60.50508                      72.67862
        </DataArray>
      </Points>
      <PointData>
        <DataArray type="Float32" Name="TranslationalVelocity" NumberOfComponents="3" format="ascii">
                       0.06575                       0.21575                       0.75153
                       0.12569                       0.41068                       1.43665
                       0.24670                       0.75313                       2.81930
                       0.36827                       1.07357                       4.20724
                       0.52067                       1.46172                       5.94439
                       0.70217                       2.00112                       8.00682
                       0.88262                       2.60720                      10.04773
                       1.06386                       3.21570                      12.08479
                       1.24610                       3.82733                      14.11781
                       1.42954                       4.44089                      16.14720
                       1.61433                       5.05429                      18.17371
                       1.80041                       5.66806                      20.19743
                       1.98764                       6.28197                      22.21870
                       2.17563                       6.89585                      24.23789
                       2.36382                       7.50951                      26.25537
                       2.52017                       8.02072                      27.93550
                       2.64439                       8.43350                      29.27787
                       2.76671                       8.87349                      30.61179
                       2.82793                       9.07286                      31.28463
        </DataArray>
        <DataArray type="Float32" Name="RotationalVelocity" NumberOfComponents="3" format="ascii">
                       0.52161                       0.00000                      -0.04563
                       0.52151                      -0.00000                      -0.04563
                       0.52125                      -0.00001                      -0.04564
                       0.52091                      -0.00000                      -0.04565
                       0.52039                       0.00002                      -0.04570
                       0.51969                       0.00009                      -0.04583
                       0.51894                       0.00021                      -0.04604
                       0.51818                       0.00035                      -0.04632
                       0.51745                       0.00052                      -0.04666
                       0.51675                       0.00068                      -0.04703
                       0.51611                       0.00082                      -0.04742
                       0.51552                       0.00092                      -0.04778
                       0.51501                       0.00099                      -0.04807
                       0.51458                       0.00102                      -0.04824
                       0.51424                       0.00105                      -0.04824
                       0.51404                       0.00109                      -0.04808
                       0.51394                       0.00118                      -0.04781
                       0.51391                       0.00133                      -0.04741
                       0.51392                       0.00144                      -0.04716
        </DataArray>
        <DataArray type="Float32" Name="TranslationalAcceleration" NumberOfComponents="3" format="ascii">
                       0.00985                      -0.39501                       0.11254
                       0.01209                      -0.47793                       0.13476
                       0.03267                      -1.37437                       0.35792
                       0.05102                      -2.20203                       0.54472
                       0.07238                      -3.17037                       0.74484
                       0.09945                      -4.26186                       0.99434
                       0.12472                      -5.31705                       1.25736
                       0.13994                      -6.36995                       1.50763
                       0.13912                      -7.43365                       1.75036
                       0.11615                      -8.51229                       1.98771
                       0.06583                      -9.60345                       2.21981
                      -0.01504                     -10.70042                       2.44720
                      -0.12690                     -11.79521                       2.66958
                      -0.26647                     -12.88117                       2.88673
                      -0.42580                     -13.95540                       3.09907
                      -0.56394                     -14.84393                       3.27345
                      -0.66907                     -15.55438                       3.41454
                      -0.75487                     -16.26887                       3.57068
                      -0.79542                     -16.63299                       3.63902
        </DataArray>
        <DataArray type="Float32" Name="OrientationX" NumberOfComponents="3" format="ascii">
                       0.99420                       0.04194                      -0.09902
                       0.99422                       0.04172                      -0.09896
                       0.99427                       0.04103                      -0.09875
                       0.99434                       0.04002                      -0.09845
                       0.99445                       0.03837                      -0.09795
                       0.99462                       0.03588                      -0.09717
                       0.99482                       0.03284                      -0.09620
                       0.99505                       0.02925                      -0.09502
                       0.99529                       0.02509                      -0.09359
                       0.99556                       0.02034                      -0.09191
                       0.99583                       0.01502                      -0.08995
                       0.99610                       0.00917                      -0.08772
                       0.99635                       0.00291                      -0.08527
                       0.99657                      -0.00356                      -0.08269
                       0.99674                      -0.00994                      -0.08009
                       0.99684                      -0.01491                      -0.07804
                       0.99689                      -0.01842                      -0.07659
                       0.99693                      -0.02131                      -0.07539
                       0.99694                      -0.02245                      -0.07493
        </DataArray>
        <DataArray type="Float32" Name="OrientationY" NumberOfComponents="3" format="ascii">
                      -0.08380                      -0.27497                      -0.95780
                      -0.08378                      -0.27513                      -0.95775
                      -0.08374                      -0.27555                      -0.95763
                      -0.08369                      -0.27608                      -0.95748
                      -0.08360                      -0.27682                      -0.95728
                      -0.08348                      -0.27776                      -0.95702
                      -0.08332                      -0.27869                      -0.95676
                      -0.08312                      -0.27954                      -0.95653
                      -0.08286                      -0.28029                      -0.95633
                      -0.08253                      -0.28093                      -0.95617
                      -0.08211                      -0.28145                      -0.95606
                      -0.08159                      -0.28188                      -0.95598
                      -0.08099                      -0.28221                      -0.95593
                      -0.08032                      -0.28247                      -0.95591
                      -0.07962                      -0.28268                      -0.95590
                      -0.07907                      -0.28282                      -0.95591
                      -0.07867                      -0.28290                      -0.95592
                      -0.07834                      -0.28296                      -0.95593
                      -0.07822                      -0.28298                      -0.95593
        </DataArray>
        <DataArray type="Float32" Name="OrientationZ" NumberOfComponents="3" format="ascii">
                      -0.06740                       0.96054                      -0.26986
                      -0.06718                       0.96050                      -0.27004
                      -0.06650                       0.96041                      -0.27054
                      -0.06550                       0.96030                      -0.27117
                      -0.06385                       0.96015                      -0.27208
                      -0.06133                       0.95998                      -0.27327
                      -0.05823                       0.95982                      -0.27451
                      -0.05454                       0.95969                      -0.27572
                      -0.05023                       0.95959                      -0.27689
                      -0.04527                       0.95951                      -0.27800
                      -0.03968                       0.95946                      -0.27905
                      -0.03349                       0.95941                      -0.28003
                      -0.02685                       0.95935                      -0.28094
                      -0.01996                       0.95927                      -0.28179
                      -0.01314                       0.95916                      -0.28255
                      -0.00782                       0.95906                      -0.28310
                      -0.00406                       0.95897                      -0.28347
                      -0.00096                       0.95889                      -0.28376
                       0.00026                       0.95886                      -0.28387
        </DataArray>
        <DataArray type="Float32" Name="Force" NumberOfComponents="3" format="ascii">
                      27.42467                       2.47846                       1.97275
                     422.40577                      18.87395                     -37.95748
                     461.02931                      12.09334                     -70.45396
                     356.82160                       2.15231                     -78.75482
                    2132.42314                     138.87804                      -8.83326
                    2230.42656                     130.42904                     -40.39503
                    2385.16605                     133.15847                     -37.50949
                    2178.49051                     108.87769                     -49.09341
                    1986.33263                      81.44931                     -75.72636
                    2015.52171                      73.13203                     -73.15851
                    1880.30365                      46.73069                    -104.98811
                    1888.33127                      35.94444                    -100.88225
                    1622.14631                      14.25223                    -105.32154
                    1595.28413                       3.57159                     -99.74708
                    1557.73511                      -4.41636                     -86.11921
                    1569.37784                      -2.71817                     -50.20530
                    1547.63371                      -0.02889                     -19.04976
                    1151.55842                       3.32466                      10.42197
                    1098.96147                      15.69536                      58.41855
        </DataArray>
        <DataArray type="Float32" Name="Moment" NumberOfComponents="3" format="ascii">
                       0.00000                       0.00000                       0.00000
                       0.00000                       0.00000                       0.00000
                       0.00000                       0.00000                       0.00000
                       0.00000                       0.00000                       0.00000
                     132.02610                   -1991.58302                     560.19772
                     128.45826                   -2020.55400                     568.82693
                     112.96034                   -1874.56325                     528.27144
                     100.08844                   -1776.60295                     501.27490
                      84.16319                   -1625.49944                     459.28902
                      69.00379                   -1482.13691                     419.45843
                      49.60142                   -1219.20388                     345.67246
                      37.72662                   -1102.72368                     313.27195
                      26.67382                    -978.11615                     278.46631
                      17.33820                    -863.49173                     246.37641
                       9.73345                    -750.25901                     214.53462
                       4.88094                    -656.82334                     188.13542
                       1.95963                    -558.10362                     160.05030
                       0.07607                    -263.09897                      75.52444
                      -0.13530                    -137.59925                      39.51416
        </DataArray>
      </PointData>
      <Lines>
        <DataArray type="Int32" Name="connectivity" format="ascii">
      0      1
      1      2
      2      3
      3      4
      4      5
      5      6
      6      7
      7      8
      8      9
      9     10
     10     11
     11     12
     12     13
     13     14
     14     15
     15     16
     16     17
     17     18
        </DataArray>
        <DataArray type="Int32" Name="offsets" format="ascii">
      2
      4
      6
      8
     10
     12
     14
     16
     18
     20
     22
     24
     26
     28
     30
     32
     34
     36
        </DataArray>
      </Lines>
    </Piece>
  </PolyData>
</VTKFile>
