<?xml version="1.0"?>
<VTKFile type="PolyData" version="0.1" byte_order="LittleEndian">
  <PolyData>
    <Piece NumberOfPoints="     19" NumberOfVerts="  0" NumberOfLines="     18"
           NumberOfStrips="  0" NumberOfPolys="      0">
      <Points>
        <DataArray type="Float32" NumberOfComponents="3" format="ascii">
                      -5.16575                       0.95613                      88.85618
                      -5.31726                       1.82983                      87.81615
                      -5.63555                       3.64908                      85.79842
                      -5.95930                       5.50208                      83.80945
                      -6.36420                       7.83811                      81.33922
                      -6.79724                      10.53123                      78.27530
                      -7.20223                      13.12321                      75.12322
                      -7.59547                      15.71169                      71.96680
                      -7.97199                      18.29551                      68.80456
                      -8.32982                      20.87637                      65.63778
                      -8.66757                      23.45730                      62.46898
                      -8.98232                      26.03741                      59.29722
                      -9.27281                      28.61690                      56.12271
                      -9.53835                      31.19594                      52.94570
                      -9.77641                      33.77467                      49.76634
                      -9.95315                      35.92335                      47.11518
                     -10.08194                      37.63590                      44.98842
                     -10.20301                      39.30560                      42.82618
                     -10.25784                      40.17247                      41.77125
        </DataArray>
      </Points>
      <PointData>
        <DataArray type="Float32" Name="TranslationalVelocity" NumberOfComponents="3" format="ascii">
                       0.04363                       0.60419                       0.49872
                       0.08351                       1.15351                       0.95439
                       0.16632                       2.22004                       1.90297
                       0.25036                       3.27142                       2.86879
                       0.35583                       4.57667                       4.08578
                       0.47648                       6.19149                       5.48799
                       0.59117                       7.84980                       6.83677
                       0.70376                       9.50873                       8.18310
                       0.81351                      11.16898                       9.52656
                       0.91974                      12.82994                      10.86821
                       1.02175                      14.49044                      12.20983
                       1.11869                      16.15105                      13.55113
                       1.20973                      17.81178                      14.89233
                       1.29415                      19.47262                      16.23364
                       1.37127                      21.13351                      17.57511
                       1.42945                      22.51757                      18.69306
                       1.47174                      23.62734                      19.58414
                       1.50829                      24.75519                      20.45297
                       1.52678                      25.30525                      20.90394
        </DataArray>
        <DataArray type="Float32" Name="RotationalVelocity" NumberOfComponents="3" format="ascii">
                       0.52161                      -0.00000                      -0.04563
                       0.52154                       0.00002                      -0.04561
                       0.52138                       0.00007                      -0.04555
                       0.52117                       0.00015                      -0.04547
                       0.52090                       0.00028                      -0.04535
                       0.52055                       0.00052                      -0.04516
                       0.52023                       0.00085                      -0.04493
                       0.51995                       0.00132                      -0.04465
                       0.51971                       0.00196                      -0.04432
                       0.51954                       0.00280                      -0.04392
                       0.51943                       0.00385                      -0.04344
                       0.51936                       0.00511                      -0.04288
                       0.51934                       0.00658                      -0.04223
                       0.51935                       0.00819                      -0.04150
                       0.51939                       0.00986                      -0.04069
                       0.51942                       0.01121                      -0.03997
                       0.51946                       0.01221                      -0.03936
                       0.51949                       0.01305                      -0.03875
                       0.51950                       0.01339                      -0.03844
        </DataArray>
        <DataArray type="Float32" Name="TranslationalAcceleration" NumberOfComponents="3" format="ascii">
                       0.02757                      -0.26213                       0.31515
                       0.03323                      -0.31787                       0.38016
                       0.09367                      -0.93143                       1.06882
                       0.14759                      -1.50948                       1.68899
                       0.20805                      -2.19713                       2.39967
                       0.27586                      -2.96035                       3.22044
                       0.34137                      -3.68865                       4.03110
                       0.40708                      -4.42642                       4.82780
                       0.47602                      -5.18323                       5.62082
                       0.54928                      -5.96310                       6.41291
                       0.62531                      -6.76568                       7.20169
                       0.69882                      -7.58666                       7.98313
                       0.75996                      -8.42069                       8.75248
                       0.79345                      -9.26283                       9.50670
                       0.77763                     -10.11035                      10.24637
                       0.70431                     -10.82132                      10.85614
                       0.59233                     -11.39353                      11.34671
                       0.41348                     -11.96380                      11.85721
                       0.30122                     -12.26073                      12.10879
        </DataArray>
        <DataArray type="Float32" Name="OrientationX" NumberOfComponents="3" format="ascii">
                       0.99232                       0.02783                      -0.12053
                       0.99234                       0.02769                      -0.12036
                       0.99242                       0.02724                      -0.11980
                       0.99254                       0.02659                      -0.11899
                       0.99273                       0.02554                      -0.11765
                       0.99301                       0.02397                      -0.11561
                       0.99334                       0.02207                      -0.11311
                       0.99372                       0.01985                      -0.11012
                       0.99415                       0.01730                      -0.10661
                       0.99462                       0.01440                      -0.10255
                       0.99513                       0.01116                      -0.09794
                       0.99565                       0.00760                      -0.09281
                       0.99618                       0.00379                      -0.08727
                       0.99667                      -0.00018                      -0.08148
                       0.99712                      -0.00413                      -0.07574
                       0.99743                      -0.00725                      -0.07123
                       0.99764                      -0.00952                      -0.06804
                       0.99779                      -0.01145                      -0.06540
                       0.99785                      -0.01225                      -0.06436
        </DataArray>
        <DataArray type="Float32" Name="OrientationY" NumberOfComponents="3" format="ascii">
                      -0.05561                      -0.77001                      -0.63560
                      -0.05560                      -0.77008                      -0.63552
                      -0.05555                      -0.77024                      -0.63533
                      -0.05549                      -0.77045                      -0.63508
                      -0.05539                      -0.77074                      -0.63474
                      -0.05524                      -0.77110                      -0.63432
                      -0.05504                      -0.77145                      -0.63391
                      -0.05479                      -0.77176                      -0.63355
                      -0.05447                      -0.77203                      -0.63325
                      -0.05409                      -0.77225                      -0.63301
                      -0.05362                      -0.77242                      -0.63284
                      -0.05308                      -0.77255                      -0.63273
                      -0.05248                      -0.77265                      -0.63266
                      -0.05186                      -0.77271                      -0.63263
                      -0.05125                      -0.77276                      -0.63262
                      -0.05080                      -0.77279                      -0.63262
                      -0.05052                      -0.77282                      -0.63262
                      -0.05033                      -0.77283                      -0.63261
                      -0.05029                      -0.77284                      -0.63261
        </DataArray>
        <DataArray type="Float32" Name="OrientationZ" NumberOfComponents="3" format="ascii">
                      -0.11050                       0.63742                      -0.76255
                      -0.11028                       0.63735                      -0.76264
                      -0.10958                       0.63717                      -0.76290
                      -0.10856                       0.63695                      -0.76323
                      -0.10689                       0.63664                      -0.76372
                      -0.10435                       0.63627                      -0.76438
                      -0.10125                       0.63591                      -0.76509
                      -0.09756                       0.63560                      -0.76583
                      -0.09326                       0.63535                      -0.76657
                      -0.08831                       0.63515                      -0.76732
                      -0.08271                       0.63501                      -0.76806
                      -0.07651                       0.63490                      -0.76879
                      -0.06982                       0.63483                      -0.76949
                      -0.06285                       0.63475                      -0.77015
                      -0.05592                       0.63468                      -0.77075
                      -0.05046                       0.63461                      -0.77118
                      -0.04656                       0.63456                      -0.77147
                      -0.04330                       0.63451                      -0.77170
                      -0.04199                       0.63449                      -0.77179
        </DataArray>
        <DataArray type="Float32" Name="Force" NumberOfComponents="3" format="ascii">
                      25.20039                       2.68333                      -1.40875
                     349.65721                      18.60076                     -35.01628
                     423.78519                      -0.60464                     -61.38573
                     337.85631                     -23.18225                     -67.44041
                    2072.80229                     209.21460                    -115.40767
                    2186.74692                     192.33175                    -138.03171
                    2339.17001                     205.03644                    -138.54014
                    2123.97962                     166.75567                    -131.58923
                    1926.57361                     119.52007                    -134.83991
                    1952.78530                     116.11925                    -128.07587
                    1812.44361                      71.10549                    -136.03951
                    1818.28148                      62.81912                    -128.71691
                    1550.26836                      26.23704                    -118.85121
                    1520.70842                      27.77212                    -100.97952
                    1622.71154                      67.10501                     -61.88641
                    1651.28362                      94.41974                     -29.52314
                    1634.14209                     127.12055                       7.03017
                    1240.69166                     112.62959                      23.95420
                    1090.86736                      86.66709                      12.66788
        </DataArray>
        <DataArray type="Float32" Name="Moment" NumberOfComponents="3" format="ascii">
                       0.00000                       0.00000                       0.00000
                       0.00000                       0.00000                       0.00000
                       0.00000                       0.00000                       0.00000
                       0.00000                       0.00000                       0.00000
                     212.37671                   -1267.40462                    1516.84363
                     211.22938                   -1291.75891                    1546.44853
                     189.70021                   -1196.22324                    1432.59338
                     172.63201                   -1130.24431                    1354.15508
                     150.33089                   -1030.12723                    1234.81721
                     129.24566                    -935.70385                    1122.27073
                      98.90566                    -764.84876                     917.93911
                      82.35226                    -688.74458                     827.18933
                      66.34824                    -608.30889                     731.14398
                      52.47876                    -534.74599                     643.23806
                      43.62503                    -499.91372                     601.81438
                      33.30766                    -423.13570                     509.70267
                      24.41266                    -336.23521                     405.20344
                      10.72772                    -158.92055                     191.58912
                       6.34665                     -96.97552                     116.92779
        </DataArray>
      </PointData>
      <Lines>
        <DataArray type="Int32" Name="connectivity" format="ascii">
      0      1
      1      2
      2      3
      3      4
      4      5
      5      6
      6      7
      7      8
      8      9
      9     10
     10     11
     11     12
     12     13
     13     14
     14     15
     15     16
     16     17
     17     18
        </DataArray>
        <DataArray type="Int32" Name="offsets" format="ascii">
      2
      4
      6
      8
     10
     12
     14
     16
     18
     20
     22
     24
     26
     28
     30
     32
     34
     36
        </DataArray>
      </Lines>
    </Piece>
  </PolyData>
</VTKFile>
