<?xml version="1.0"?>
<VTKFile type="PolyData" version="0.1" byte_order="LittleEndian">
  <PolyData>
    <Piece NumberOfPoints="     19" NumberOfVerts="  0" NumberOfLines="     18"
           NumberOfStrips="  0" NumberOfPolys="      0">
      <Points>
        <DataArray type="Float32" NumberOfComponents="3" format="ascii">
                      -4.93638                      -0.24875                      91.47786
                      -4.87913                      -0.47885                      92.82384
                      -4.78644                      -1.03247                      95.50090
                      -4.70201                      -1.63060                      98.17086
                      -4.59784                      -2.40525                     101.50400
                      -4.40831                      -3.19503                     105.52443
                      -4.17967                      -3.85778                     109.56441
                      -3.93685                      -4.51900                     113.60385
                      -3.67437                      -5.17685                     117.64263
                      -3.39005                      -5.83311                     121.68019
                      -3.08244                      -6.49130                     125.71568
                      -2.74831                      -7.14982                     129.74898
                      -2.38629                      -7.80858                     133.77983
                      -1.99575                      -8.46755                     137.80798
                      -1.57436                      -9.12681                     141.83297
                      -1.19920                      -9.67644                     145.18447
                      -0.88469                     -10.10853                     147.86518
                      -0.55751                     -10.48659                     150.55351
                      -0.39105                     -10.71679                     151.89010
        </DataArray>
      </Points>
      <PointData>
        <DataArray type="Float32" Name="TranslationalVelocity" NumberOfComponents="3" format="ascii">
                      -0.01135                      -0.77376                      -0.12975
                      -0.02185                      -1.47852                      -0.24978
                      -0.04705                      -2.87940                      -0.53861
                      -0.07419                      -4.27636                      -0.85069
                      -0.10918                      -6.02040                      -1.25492
                      -0.14452                      -8.12709                      -1.66707
                      -0.17369                     -10.24571                      -2.01294
                      -0.20233                     -12.36445                      -2.35797
                      -0.23027                     -14.48331                      -2.70120
                      -0.25753                     -16.60191                      -3.04354
                      -0.28418                     -18.71974                      -3.38682
                      -0.31007                     -20.83679                      -3.73022
                      -0.33514                     -22.95293                      -4.07372
                      -0.35932                     -25.06813                      -4.41731
                      -0.38256                     -27.18237                      -4.76109
                      -0.40117                     -28.94355                      -5.04779
                      -0.41524                     -30.35279                      -5.27327
                      -0.42645                     -31.76661                      -5.47072
                      -0.43373                     -32.46977                      -5.59093
        </DataArray>
        <DataArray type="Float32" Name="RotationalVelocity" NumberOfComponents="3" format="ascii">
                       0.52161                       0.00000                      -0.04563
                       0.52163                       0.00001                      -0.04563
                       0.52169                       0.00003                      -0.04563
                       0.52173                       0.00006                      -0.04562
                       0.52178                       0.00012                      -0.04560
                       0.52180                       0.00019                      -0.04556
                       0.52177                       0.00028                      -0.04550
                       0.52171                       0.00039                      -0.04542
                       0.52160                       0.00051                      -0.04531
                       0.52147                       0.00064                      -0.04518
                       0.52131                       0.00080                      -0.04504
                       0.52113                       0.00098                      -0.04487
                       0.52097                       0.00117                      -0.04471
                       0.52082                       0.00138                      -0.04455
                       0.52070                       0.00160                      -0.04441
                       0.52063                       0.00178                      -0.04433
                       0.52059                       0.00193                      -0.04429
                       0.52059                       0.00206                      -0.04429
                       0.52059                       0.00213                      -0.04431
        </DataArray>
        <DataArray type="Float32" Name="TranslationalAcceleration" NumberOfComponents="3" format="ascii">
                      -0.03531                       0.06820                      -0.40360
                      -0.04267                       0.08327                      -0.48797
                      -0.12180                       0.26306                      -1.39212
                      -0.19446                       0.44115                      -2.22147
                      -0.27931                       0.65677                      -3.18880
                      -0.37664                       0.86208                      -4.29557
                      -0.47252                       1.02197                      -5.37996
                      -0.56908                       1.17493                      -6.46173
                      -0.66794                       1.32272                      -7.55421
                      -0.76998                       1.46676                      -8.66132
                      -0.87550                       1.60801                      -9.78028
                      -0.98443                       1.74547                     -10.90456
                      -1.09653                       1.87849                     -12.02629
                      -1.21156                       2.00670                     -13.13902
                      -1.32952                       2.13050                     -14.24037
                      -1.43038                       2.23129                     -15.15231
                      -1.51297                       2.30939                     -15.88300
                      -1.59782                       2.37358                     -16.62317
                      -1.64123                       2.41788                     -16.99747
        </DataArray>
        <DataArray type="Float32" Name="OrientationX" NumberOfComponents="3" format="ascii">
                       0.99900                      -0.00724                      -0.04422
                       0.99898                      -0.00720                      -0.04447
                       0.99895                      -0.00709                      -0.04527
                       0.99890                      -0.00694                      -0.04645
                       0.99881                      -0.00672                      -0.04837
                       0.99866                      -0.00643                      -0.05131
                       0.99847                      -0.00611                      -0.05492
                       0.99823                      -0.00580                      -0.05920
                       0.99792                      -0.00550                      -0.06420
                       0.99754                      -0.00521                      -0.06994
                       0.99706                      -0.00493                      -0.07642
                       0.99649                      -0.00466                      -0.08355
                       0.99582                      -0.00441                      -0.09120
                       0.99507                      -0.00415                      -0.09911
                       0.99426                      -0.00389                      -0.10690
                       0.99359                      -0.00366                      -0.11296
                       0.99310                      -0.00348                      -0.11721
                       0.99269                      -0.00329                      -0.12068
                       0.99252                      -0.00320                      -0.12203
        </DataArray>
        <DataArray type="Float32" Name="OrientationY" NumberOfComponents="3" format="ascii">
                       0.01447                       0.98613                       0.16536
                       0.01447                       0.98612                       0.16540
                       0.01450                       0.98610                       0.16550
                       0.01456                       0.98608                       0.16563
                       0.01467                       0.98605                       0.16581
                       0.01487                       0.98601                       0.16603
                       0.01518                       0.98597                       0.16624
                       0.01560                       0.98593                       0.16643
                       0.01615                       0.98589                       0.16659
                       0.01683                       0.98586                       0.16670
                       0.01766                       0.98584                       0.16678
                       0.01860                       0.98581                       0.16682
                       0.01964                       0.98579                       0.16682
                       0.02072                       0.98577                       0.16680
                       0.02178                       0.98576                       0.16676
                       0.02259                       0.98575                       0.16672
                       0.02313                       0.98574                       0.16669
                       0.02353                       0.98573                       0.16667
                       0.02367                       0.98573                       0.16666
        </DataArray>
        <DataArray type="Float32" Name="OrientationZ" NumberOfComponents="3" format="ascii">
                       0.04241                      -0.16584                       0.98524
                       0.04266                      -0.16588                       0.98522
                       0.04347                      -0.16599                       0.98517
                       0.04465                      -0.16613                       0.98509
                       0.04658                      -0.16632                       0.98497
                       0.04953                      -0.16657                       0.98478
                       0.05313                      -0.16682                       0.98455
                       0.05740                      -0.16706                       0.98427
                       0.06238                      -0.16728                       0.98393
                       0.06809                      -0.16747                       0.98352
                       0.07451                      -0.16764                       0.98303
                       0.08159                      -0.16779                       0.98244
                       0.08917                      -0.16792                       0.98176
                       0.09701                      -0.16803                       0.98100
                       0.10473                      -0.16813                       0.98019
                       0.11073                      -0.16820                       0.97951
                       0.11496                      -0.16825                       0.97902
                       0.11840                      -0.16829                       0.97860
                       0.11975                      -0.16830                       0.97843
        </DataArray>
        <DataArray type="Float32" Name="Force" NumberOfComponents="3" format="ascii">
                      28.00534                       5.69987                      -0.24613
                     440.25756                      35.49379                     -13.09000
                     489.24656                      73.33168                      -9.24403
                     379.71722                      82.90050                      -3.25627
                    2563.24611                    -268.39264                    -166.42885
                    2617.72899                    -234.85634                    -171.21754
                    2821.96087                    -256.45007                    -195.50473
                    2577.09465                    -209.35539                    -185.59854
                    2364.84778                    -148.62415                    -175.00610
                    2423.50969                    -153.44970                    -193.67376
                    2270.77597                     -92.05129                    -187.66365
                    2288.27028                     -92.38704                    -205.63437
                    1966.70174                     -49.72387                    -187.02542
                    1939.96422                     -49.33266                    -200.17188
                    1892.62982                     -47.71213                    -210.28642
                    1840.50672                     -49.27952                    -216.39472
                    1767.27809                     -68.15712                    -219.04042
                    1286.31457                     -67.98724                    -167.13858
                    1275.26825                    -190.31927                    -188.31918
        </DataArray>
        <DataArray type="Float32" Name="Moment" NumberOfComponents="3" format="ascii">
                       0.00000                       0.00000                       0.00000
                       0.00000                       0.00000                       0.00000
                       0.00000                       0.00000                       0.00000
                       0.00000                       0.00000                       0.00000
                    -100.59350                     358.11815                   -2126.80784
                    -112.80066                     377.73686                   -2242.73440
                    -115.87594                     361.74373                   -2147.09163
                    -121.80742                     351.98437                   -2088.37355
                    -123.52569                     328.49977                   -1948.17472
                    -124.86394                     304.26583                   -1803.54051
                    -113.59716                     252.97193                   -1498.63915
                    -113.57953                     231.01221                   -1367.68573
                    -110.78992                     206.18075                   -1219.84935
                    -107.20602                     183.37792                   -1084.18010
                    -101.07496                     160.12169                    -946.02981
                     -93.97083                     140.78056                    -831.31210
                     -81.83341                     118.07918                    -696.99612
                     -40.17881                      56.28128                    -332.11364
                     -19.47219                      26.96783                    -159.11688
        </DataArray>
      </PointData>
      <Lines>
        <DataArray type="Int32" Name="connectivity" format="ascii">
      0      1
      1      2
      2      3
      3      4
      4      5
      5      6
      6      7
      7      8
      8      9
      9     10
     10     11
     11     12
     12     13
     13     14
     14     15
     15     16
     16     17
     17     18
        </DataArray>
        <DataArray type="Int32" Name="offsets" format="ascii">
      2
      4
      6
      8
     10
     12
     14
     16
     18
     20
     22
     24
     26
     28
     30
     32
     34
     36
        </DataArray>
      </Lines>
    </Piece>
  </PolyData>
</VTKFile>
